(export (version D)
  (design
    (source D:\Documents\Prywatne\jazzgoth_noise_follower_robot\Electronics\jazzgoth-encoders\jazzgoth-encoders.sch)
    (date "04/09/19 15:07:02")
    (tool "Eeschema (5.1.0)-1")
    (sheet (number 1) (name /) (tstamps /)
      (title_block
        (title)
        (company)
        (rev)
        (date)
        (source jazzgoth-encoders.sch)
        (comment (number 1) (value ""))
        (comment (number 2) (value ""))
        (comment (number 3) (value ""))
        (comment (number 4) (value "")))))
  (components
    (comp (ref J1)
      (value Conn_01x04)
      (footprint Connector_PinHeader_2.54mm:PinHeader_1x04_P2.54mm_Vertical)
      (datasheet ~)
      (libsource (lib Connector_Generic) (part Conn_01x04) (description "Generic connector, single row, 01x04, script generated (kicad-library-utils/schlib/autogen/connector/)"))
      (sheetpath (names /) (tstamps /))
      (tstamp 5CACFED4))
    (comp (ref C9)
      (value 100nF)
      (footprint Capacitor_SMD:C_0603_1608Metric)
      (datasheet ~)
      (libsource (lib Device) (part C) (description "Unpolarized capacitor"))
      (sheetpath (names /) (tstamps /))
      (tstamp 5CAEE883))
    (comp (ref R3)
      (value 51k)
      (footprint Resistor_SMD:R_0603_1608Metric_Pad1.05x0.95mm_HandSolder)
      (datasheet ~)
      (libsource (lib Device) (part R) (description Resistor))
      (sheetpath (names /) (tstamps /))
      (tstamp 5CAF689A))
    (comp (ref C3)
      (value 10uF)
      (footprint Capacitor_Tantalum_SMD:CP_EIA-3216-18_Kemet-A)
      (datasheet ~)
      (libsource (lib Device) (part CP1) (description "Polarized capacitor, US symbol"))
      (sheetpath (names /) (tstamps /))
      (tstamp 5CAFA9B9))
    (comp (ref C6)
      (value 100nF)
      (footprint Capacitor_SMD:C_0603_1608Metric)
      (datasheet ~)
      (libsource (lib Device) (part C) (description "Unpolarized capacitor"))
      (sheetpath (names /) (tstamps /))
      (tstamp 5CAFB6E7))
    (comp (ref C5)
      (value 100nF)
      (footprint Capacitor_SMD:C_0603_1608Metric)
      (datasheet ~)
      (libsource (lib Device) (part C) (description "Unpolarized capacitor"))
      (sheetpath (names /) (tstamps /))
      (tstamp 5CB04BE7))
    (comp (ref C2)
      (value 10uF)
      (footprint Capacitor_Tantalum_SMD:CP_EIA-3216-18_Kemet-A)
      (datasheet ~)
      (libsource (lib Device) (part CP1) (description "Polarized capacitor, US symbol"))
      (sheetpath (names /) (tstamps /))
      (tstamp 5CB054F6))
    (comp (ref C4)
      (value 100nF)
      (footprint Capacitor_SMD:C_0603_1608Metric)
      (datasheet ~)
      (libsource (lib Device) (part C) (description "Unpolarized capacitor"))
      (sheetpath (names /) (tstamps /))
      (tstamp 5CB08228))
    (comp (ref C1)
      (value 10uF)
      (footprint Capacitor_Tantalum_SMD:CP_EIA-3216-18_Kemet-A)
      (datasheet ~)
      (libsource (lib Device) (part CP1) (description "Polarized capacitor, US symbol"))
      (sheetpath (names /) (tstamps /))
      (tstamp 5CB08BBA))
    (comp (ref C7)
      (value 10nF)
      (footprint Capacitor_SMD:C_0603_1608Metric)
      (datasheet ~)
      (libsource (lib Device) (part C) (description "Unpolarized capacitor"))
      (sheetpath (names /) (tstamps /))
      (tstamp 5CB0AE41))
    (comp (ref C8)
      (value 10nF)
      (footprint Capacitor_SMD:C_0603_1608Metric)
      (datasheet ~)
      (libsource (lib Device) (part C) (description "Unpolarized capacitor"))
      (sheetpath (names /) (tstamps /))
      (tstamp 5CB0C94E))
    (comp (ref U1)
      (value AM4096)
      (footprint Package_SO:SSOP-28_3.9x9.9mm_P0.635mm)
      (datasheet http://ww1.microchip.com/downloads/en/DeviceDoc/30325b.pdf)
      (libsource (lib AM4096) (part AM4096) (description "PIC16F73, 4K Flash, 192B SRAM, ADC, PWM, SSOP28"))
      (sheetpath (names /) (tstamps /))
      (tstamp 5CACC279))
    (comp (ref CB1)
      (value CircuitBreaker_1P)
      (footprint Connector_PinHeader_1.00mm:PinHeader_1x02_P1.00mm_Vertical)
      (datasheet ~)
      (libsource (lib Device) (part CircuitBreaker_1P) (description "Single pole circuit breaker"))
      (sheetpath (names /) (tstamps /))
      (tstamp 5CB26333))
    (comp (ref CB2)
      (value CircuitBreaker_1P)
      (footprint Connector_PinHeader_1.00mm:PinHeader_1x02_P1.00mm_Vertical)
      (datasheet ~)
      (libsource (lib Device) (part CircuitBreaker_1P) (description "Single pole circuit breaker"))
      (sheetpath (names /) (tstamps /))
      (tstamp 5CB278FA)))
  (libparts
    (libpart (lib AM4096) (part AM4096)
      (aliases
        (alias PIC16F76-ISS_copy))
      (description "PIC16F73, 4K Flash, 192B SRAM, ADC, PWM, SSOP28")
      (docs http://ww1.microchip.com/downloads/en/DeviceDoc/30325b.pdf)
      (footprints
        (fp SSOP*))
      (fields
        (field (name Reference) U)
        (field (name Value) AM4096))
      (pins
        (pin (num 1) (name Data) (type output))
        (pin (num 2) (name Ri) (type output))
        (pin (num 3) (name B) (type output))
        (pin (num 4) (name A) (type output))
        (pin (num 5) (name W/Ncos) (type output))
        (pin (num 6) (name V/PSin) (type output))
        (pin (num 7) (name U/NSin) (type output))
        (pin (num 8) (name Td/PCos) (type output))
        (pin (num 9) (name Error) (type output))
        (pin (num 10) (name Cos) (type output))
        (pin (num 11) (name Sin) (type output))
        (pin (num 12) (name Vddd) (type power_in))
        (pin (num 13) (name Vext) (type power_in))
        (pin (num 14) (name Vdda) (type power_in))
        (pin (num 15) (name Vsss) (type power_out))
        (pin (num 16) (name Agnd) (type power_out))
        (pin (num 17) (name Mag) (type output))
        (pin (num 18) (name RefN) (type output))
        (pin (num 19) (name RefP) (type output))
        (pin (num 20) (name Vout/Tout) (type power_out))
        (pin (num 21) (name PSM) (type input))
        (pin (num 22) (name Zero) (type input))
        (pin (num 23) (name SDA) (type BiDi))
        (pin (num 24) (name SCL) (type BiDi))
        (pin (num 25) (name NC) (type BiDi))
        (pin (num 26) (name NC) (type BiDi))
        (pin (num 27) (name NC) (type BiDi))
        (pin (num 28) (name CLK) (type BiDi))))
    (libpart (lib Connector_Generic) (part Conn_01x04)
      (description "Generic connector, single row, 01x04, script generated (kicad-library-utils/schlib/autogen/connector/)")
      (docs ~)
      (footprints
        (fp Connector*:*_1x??_*))
      (fields
        (field (name Reference) J)
        (field (name Value) Conn_01x04))
      (pins
        (pin (num 1) (name Pin_1) (type passive))
        (pin (num 2) (name Pin_2) (type passive))
        (pin (num 3) (name Pin_3) (type passive))
        (pin (num 4) (name Pin_4) (type passive))))
    (libpart (lib Device) (part C)
      (description "Unpolarized capacitor")
      (docs ~)
      (footprints
        (fp C_*))
      (fields
        (field (name Reference) C)
        (field (name Value) C))
      (pins
        (pin (num 1) (name ~) (type passive))
        (pin (num 2) (name ~) (type passive))))
    (libpart (lib Device) (part CP1)
      (description "Polarized capacitor, US symbol")
      (docs ~)
      (footprints
        (fp CP_*))
      (fields
        (field (name Reference) C)
        (field (name Value) CP1))
      (pins
        (pin (num 1) (name ~) (type passive))
        (pin (num 2) (name ~) (type passive))))
    (libpart (lib Device) (part CircuitBreaker_1P)
      (description "Single pole circuit breaker")
      (docs ~)
      (fields
        (field (name Reference) CB)
        (field (name Value) CircuitBreaker_1P))
      (pins
        (pin (num 1) (name ~) (type passive))
        (pin (num 2) (name ~) (type passive))))
    (libpart (lib Device) (part R)
      (description Resistor)
      (docs ~)
      (footprints
        (fp R_*))
      (fields
        (field (name Reference) R)
        (field (name Value) R))
      (pins
        (pin (num 1) (name ~) (type passive))
        (pin (num 2) (name ~) (type passive)))))
  (libraries
    (library (logical AM4096)
      (uri D:\Documents\Prywatne\jazzgoth_noise_follower_robot\Electronics\jazzgoth-encoders/AM4096.lib))
    (library (logical Connector_Generic)
      (uri "C:\\Program Files\\KiCad\\share\\kicad\\library/Connector_Generic.lib"))
    (library (logical Device)
      (uri "C:\\Program Files\\KiCad\\share\\kicad\\library/Device.lib")))
  (nets
    (net (code 1) (name "Net-(U1-Pad17)")
      (node (ref U1) (pin 17)))
    (net (code 2) (name "Net-(U1-Pad1)")
      (node (ref U1) (pin 1)))
    (net (code 3) (name "Net-(C8-Pad2)")
      (node (ref U1) (pin 10))
      (node (ref C8) (pin 2)))
    (net (code 4) (name "Net-(U1-Pad18)")
      (node (ref U1) (pin 18)))
    (net (code 5) (name "Net-(U1-Pad19)")
      (node (ref U1) (pin 19)))
    (net (code 6) (name "Net-(U1-Pad2)")
      (node (ref U1) (pin 2)))
    (net (code 7) (name "Net-(U1-Pad20)")
      (node (ref U1) (pin 20)))
    (net (code 8) (name "Net-(U1-Pad22)")
      (node (ref U1) (pin 22)))
    (net (code 9) (name "Net-(J1-Pad4)")
      (node (ref J1) (pin 4))
      (node (ref U1) (pin 23)))
    (net (code 10) (name "Net-(U1-Pad4)")
      (node (ref U1) (pin 4)))
    (net (code 11) (name "Net-(U1-Pad9)")
      (node (ref U1) (pin 9)))
    (net (code 12) (name "Net-(U1-Pad8)")
      (node (ref U1) (pin 8)))
    (net (code 13) (name "Net-(U1-Pad7)")
      (node (ref U1) (pin 7)))
    (net (code 14) (name "Net-(U1-Pad6)")
      (node (ref U1) (pin 6)))
    (net (code 15) (name "Net-(U1-Pad5)")
      (node (ref U1) (pin 5)))
    (net (code 16) (name "Net-(U1-Pad25)")
      (node (ref U1) (pin 25)))
    (net (code 17) (name "Net-(U1-Pad3)")
      (node (ref U1) (pin 3)))
    (net (code 18) (name "Net-(U1-Pad26)")
      (node (ref U1) (pin 26)))
    (net (code 19) (name "Net-(U1-Pad27)")
      (node (ref U1) (pin 27)))
    (net (code 20) (name "Net-(U1-Pad28)")
      (node (ref U1) (pin 28)))
    (net (code 21) (name "Net-(J1-Pad3)")
      (node (ref U1) (pin 24))
      (node (ref J1) (pin 3)))
    (net (code 22) (name Vext)
      (node (ref R3) (pin 1))
      (node (ref C2) (pin 1))
      (node (ref U1) (pin 13))
      (node (ref J1) (pin 1))
      (node (ref C5) (pin 1))
      (node (ref CB1) (pin 2))
      (node (ref CB2) (pin 1)))
    (net (code 23) (name Vdda)
      (node (ref C6) (pin 1))
      (node (ref C3) (pin 1))
      (node (ref CB2) (pin 2))
      (node (ref U1) (pin 14)))
    (net (code 24) (name "Net-(C9-Pad1)")
      (node (ref C9) (pin 1))
      (node (ref U1) (pin 16)))
    (net (code 25) (name Vddd)
      (node (ref U1) (pin 12))
      (node (ref CB1) (pin 1))
      (node (ref C4) (pin 1))
      (node (ref C1) (pin 1)))
    (net (code 26) (name GND)
      (node (ref C7) (pin 1))
      (node (ref C8) (pin 1))
      (node (ref C5) (pin 2))
      (node (ref U1) (pin 21))
      (node (ref C6) (pin 2))
      (node (ref U1) (pin 15))
      (node (ref C2) (pin 2))
      (node (ref R3) (pin 2))
      (node (ref C3) (pin 2))
      (node (ref J1) (pin 2))
      (node (ref C9) (pin 2))
      (node (ref C4) (pin 2))
      (node (ref C1) (pin 2)))
    (net (code 27) (name "Net-(C7-Pad2)")
      (node (ref C7) (pin 2))
      (node (ref U1) (pin 11)))))