G04 #@! TF.GenerationSoftware,KiCad,Pcbnew,(5.1.0)-1*
G04 #@! TF.CreationDate,2019-04-09T15:16:42+02:00*
G04 #@! TF.ProjectId,jazzgoth-encoders,6a617a7a-676f-4746-982d-656e636f6465,rev?*
G04 #@! TF.SameCoordinates,Original*
G04 #@! TF.FileFunction,Copper,L2,Bot*
G04 #@! TF.FilePolarity,Positive*
%FSLAX46Y46*%
G04 Gerber Fmt 4.6, Leading zero omitted, Abs format (unit mm)*
G04 Created by KiCad (PCBNEW (5.1.0)-1) date 2019-04-09 15:16:42*
%MOMM*%
%LPD*%
G04 APERTURE LIST*
%ADD10R,1.700000X1.700000*%
%ADD11O,1.700000X1.700000*%
%ADD12C,0.100000*%
%ADD13C,1.350000*%
%ADD14C,0.875000*%
%ADD15R,0.850000X0.850000*%
%ADD16O,0.850000X0.850000*%
%ADD17C,0.950000*%
%ADD18C,0.800000*%
%ADD19C,0.250000*%
%ADD20C,0.254000*%
G04 APERTURE END LIST*
D10*
X149352000Y-79502000D03*
D11*
X149352000Y-82042000D03*
X149352000Y-84582000D03*
X149352000Y-87122000D03*
D12*
G36*
X130936505Y-91020204D02*
G01*
X130960773Y-91023804D01*
X130984572Y-91029765D01*
X131007671Y-91038030D01*
X131029850Y-91048520D01*
X131050893Y-91061132D01*
X131070599Y-91075747D01*
X131088777Y-91092223D01*
X131105253Y-91110401D01*
X131119868Y-91130107D01*
X131132480Y-91151150D01*
X131142970Y-91173329D01*
X131151235Y-91196428D01*
X131157196Y-91220227D01*
X131160796Y-91244495D01*
X131162000Y-91268999D01*
X131162000Y-92119001D01*
X131160796Y-92143505D01*
X131157196Y-92167773D01*
X131151235Y-92191572D01*
X131142970Y-92214671D01*
X131132480Y-92236850D01*
X131119868Y-92257893D01*
X131105253Y-92277599D01*
X131088777Y-92295777D01*
X131070599Y-92312253D01*
X131050893Y-92326868D01*
X131029850Y-92339480D01*
X131007671Y-92349970D01*
X130984572Y-92358235D01*
X130960773Y-92364196D01*
X130936505Y-92367796D01*
X130912001Y-92369000D01*
X130011999Y-92369000D01*
X129987495Y-92367796D01*
X129963227Y-92364196D01*
X129939428Y-92358235D01*
X129916329Y-92349970D01*
X129894150Y-92339480D01*
X129873107Y-92326868D01*
X129853401Y-92312253D01*
X129835223Y-92295777D01*
X129818747Y-92277599D01*
X129804132Y-92257893D01*
X129791520Y-92236850D01*
X129781030Y-92214671D01*
X129772765Y-92191572D01*
X129766804Y-92167773D01*
X129763204Y-92143505D01*
X129762000Y-92119001D01*
X129762000Y-91268999D01*
X129763204Y-91244495D01*
X129766804Y-91220227D01*
X129772765Y-91196428D01*
X129781030Y-91173329D01*
X129791520Y-91151150D01*
X129804132Y-91130107D01*
X129818747Y-91110401D01*
X129835223Y-91092223D01*
X129853401Y-91075747D01*
X129873107Y-91061132D01*
X129894150Y-91048520D01*
X129916329Y-91038030D01*
X129939428Y-91029765D01*
X129963227Y-91023804D01*
X129987495Y-91020204D01*
X130011999Y-91019000D01*
X130912001Y-91019000D01*
X130936505Y-91020204D01*
X130936505Y-91020204D01*
G37*
D13*
X130462000Y-91694000D03*
D12*
G36*
X128236505Y-91020204D02*
G01*
X128260773Y-91023804D01*
X128284572Y-91029765D01*
X128307671Y-91038030D01*
X128329850Y-91048520D01*
X128350893Y-91061132D01*
X128370599Y-91075747D01*
X128388777Y-91092223D01*
X128405253Y-91110401D01*
X128419868Y-91130107D01*
X128432480Y-91151150D01*
X128442970Y-91173329D01*
X128451235Y-91196428D01*
X128457196Y-91220227D01*
X128460796Y-91244495D01*
X128462000Y-91268999D01*
X128462000Y-92119001D01*
X128460796Y-92143505D01*
X128457196Y-92167773D01*
X128451235Y-92191572D01*
X128442970Y-92214671D01*
X128432480Y-92236850D01*
X128419868Y-92257893D01*
X128405253Y-92277599D01*
X128388777Y-92295777D01*
X128370599Y-92312253D01*
X128350893Y-92326868D01*
X128329850Y-92339480D01*
X128307671Y-92349970D01*
X128284572Y-92358235D01*
X128260773Y-92364196D01*
X128236505Y-92367796D01*
X128212001Y-92369000D01*
X127311999Y-92369000D01*
X127287495Y-92367796D01*
X127263227Y-92364196D01*
X127239428Y-92358235D01*
X127216329Y-92349970D01*
X127194150Y-92339480D01*
X127173107Y-92326868D01*
X127153401Y-92312253D01*
X127135223Y-92295777D01*
X127118747Y-92277599D01*
X127104132Y-92257893D01*
X127091520Y-92236850D01*
X127081030Y-92214671D01*
X127072765Y-92191572D01*
X127066804Y-92167773D01*
X127063204Y-92143505D01*
X127062000Y-92119001D01*
X127062000Y-91268999D01*
X127063204Y-91244495D01*
X127066804Y-91220227D01*
X127072765Y-91196428D01*
X127081030Y-91173329D01*
X127091520Y-91151150D01*
X127104132Y-91130107D01*
X127118747Y-91110401D01*
X127135223Y-91092223D01*
X127153401Y-91075747D01*
X127173107Y-91061132D01*
X127194150Y-91048520D01*
X127216329Y-91038030D01*
X127239428Y-91029765D01*
X127263227Y-91023804D01*
X127287495Y-91020204D01*
X127311999Y-91019000D01*
X128212001Y-91019000D01*
X128236505Y-91020204D01*
X128236505Y-91020204D01*
G37*
D13*
X127762000Y-91694000D03*
D12*
G36*
X146753505Y-77279204D02*
G01*
X146777773Y-77282804D01*
X146801572Y-77288765D01*
X146824671Y-77297030D01*
X146846850Y-77307520D01*
X146867893Y-77320132D01*
X146887599Y-77334747D01*
X146905777Y-77351223D01*
X146922253Y-77369401D01*
X146936868Y-77389107D01*
X146949480Y-77410150D01*
X146959970Y-77432329D01*
X146968235Y-77455428D01*
X146974196Y-77479227D01*
X146977796Y-77503495D01*
X146979000Y-77527999D01*
X146979000Y-78428001D01*
X146977796Y-78452505D01*
X146974196Y-78476773D01*
X146968235Y-78500572D01*
X146959970Y-78523671D01*
X146949480Y-78545850D01*
X146936868Y-78566893D01*
X146922253Y-78586599D01*
X146905777Y-78604777D01*
X146887599Y-78621253D01*
X146867893Y-78635868D01*
X146846850Y-78648480D01*
X146824671Y-78658970D01*
X146801572Y-78667235D01*
X146777773Y-78673196D01*
X146753505Y-78676796D01*
X146729001Y-78678000D01*
X145878999Y-78678000D01*
X145854495Y-78676796D01*
X145830227Y-78673196D01*
X145806428Y-78667235D01*
X145783329Y-78658970D01*
X145761150Y-78648480D01*
X145740107Y-78635868D01*
X145720401Y-78621253D01*
X145702223Y-78604777D01*
X145685747Y-78586599D01*
X145671132Y-78566893D01*
X145658520Y-78545850D01*
X145648030Y-78523671D01*
X145639765Y-78500572D01*
X145633804Y-78476773D01*
X145630204Y-78452505D01*
X145629000Y-78428001D01*
X145629000Y-77527999D01*
X145630204Y-77503495D01*
X145633804Y-77479227D01*
X145639765Y-77455428D01*
X145648030Y-77432329D01*
X145658520Y-77410150D01*
X145671132Y-77389107D01*
X145685747Y-77369401D01*
X145702223Y-77351223D01*
X145720401Y-77334747D01*
X145740107Y-77320132D01*
X145761150Y-77307520D01*
X145783329Y-77297030D01*
X145806428Y-77288765D01*
X145830227Y-77282804D01*
X145854495Y-77279204D01*
X145878999Y-77278000D01*
X146729001Y-77278000D01*
X146753505Y-77279204D01*
X146753505Y-77279204D01*
G37*
D13*
X146304000Y-77978000D03*
D12*
G36*
X146753505Y-79979204D02*
G01*
X146777773Y-79982804D01*
X146801572Y-79988765D01*
X146824671Y-79997030D01*
X146846850Y-80007520D01*
X146867893Y-80020132D01*
X146887599Y-80034747D01*
X146905777Y-80051223D01*
X146922253Y-80069401D01*
X146936868Y-80089107D01*
X146949480Y-80110150D01*
X146959970Y-80132329D01*
X146968235Y-80155428D01*
X146974196Y-80179227D01*
X146977796Y-80203495D01*
X146979000Y-80227999D01*
X146979000Y-81128001D01*
X146977796Y-81152505D01*
X146974196Y-81176773D01*
X146968235Y-81200572D01*
X146959970Y-81223671D01*
X146949480Y-81245850D01*
X146936868Y-81266893D01*
X146922253Y-81286599D01*
X146905777Y-81304777D01*
X146887599Y-81321253D01*
X146867893Y-81335868D01*
X146846850Y-81348480D01*
X146824671Y-81358970D01*
X146801572Y-81367235D01*
X146777773Y-81373196D01*
X146753505Y-81376796D01*
X146729001Y-81378000D01*
X145878999Y-81378000D01*
X145854495Y-81376796D01*
X145830227Y-81373196D01*
X145806428Y-81367235D01*
X145783329Y-81358970D01*
X145761150Y-81348480D01*
X145740107Y-81335868D01*
X145720401Y-81321253D01*
X145702223Y-81304777D01*
X145685747Y-81286599D01*
X145671132Y-81266893D01*
X145658520Y-81245850D01*
X145648030Y-81223671D01*
X145639765Y-81200572D01*
X145633804Y-81176773D01*
X145630204Y-81152505D01*
X145629000Y-81128001D01*
X145629000Y-80227999D01*
X145630204Y-80203495D01*
X145633804Y-80179227D01*
X145639765Y-80155428D01*
X145648030Y-80132329D01*
X145658520Y-80110150D01*
X145671132Y-80089107D01*
X145685747Y-80069401D01*
X145702223Y-80051223D01*
X145720401Y-80034747D01*
X145740107Y-80020132D01*
X145761150Y-80007520D01*
X145783329Y-79997030D01*
X145806428Y-79988765D01*
X145830227Y-79982804D01*
X145854495Y-79979204D01*
X145878999Y-79978000D01*
X146729001Y-79978000D01*
X146753505Y-79979204D01*
X146753505Y-79979204D01*
G37*
D13*
X146304000Y-80678000D03*
D12*
G36*
X131005505Y-93375204D02*
G01*
X131029773Y-93378804D01*
X131053572Y-93384765D01*
X131076671Y-93393030D01*
X131098850Y-93403520D01*
X131119893Y-93416132D01*
X131139599Y-93430747D01*
X131157777Y-93447223D01*
X131174253Y-93465401D01*
X131188868Y-93485107D01*
X131201480Y-93506150D01*
X131211970Y-93528329D01*
X131220235Y-93551428D01*
X131226196Y-93575227D01*
X131229796Y-93599495D01*
X131231000Y-93623999D01*
X131231000Y-94524001D01*
X131229796Y-94548505D01*
X131226196Y-94572773D01*
X131220235Y-94596572D01*
X131211970Y-94619671D01*
X131201480Y-94641850D01*
X131188868Y-94662893D01*
X131174253Y-94682599D01*
X131157777Y-94700777D01*
X131139599Y-94717253D01*
X131119893Y-94731868D01*
X131098850Y-94744480D01*
X131076671Y-94754970D01*
X131053572Y-94763235D01*
X131029773Y-94769196D01*
X131005505Y-94772796D01*
X130981001Y-94774000D01*
X130130999Y-94774000D01*
X130106495Y-94772796D01*
X130082227Y-94769196D01*
X130058428Y-94763235D01*
X130035329Y-94754970D01*
X130013150Y-94744480D01*
X129992107Y-94731868D01*
X129972401Y-94717253D01*
X129954223Y-94700777D01*
X129937747Y-94682599D01*
X129923132Y-94662893D01*
X129910520Y-94641850D01*
X129900030Y-94619671D01*
X129891765Y-94596572D01*
X129885804Y-94572773D01*
X129882204Y-94548505D01*
X129881000Y-94524001D01*
X129881000Y-93623999D01*
X129882204Y-93599495D01*
X129885804Y-93575227D01*
X129891765Y-93551428D01*
X129900030Y-93528329D01*
X129910520Y-93506150D01*
X129923132Y-93485107D01*
X129937747Y-93465401D01*
X129954223Y-93447223D01*
X129972401Y-93430747D01*
X129992107Y-93416132D01*
X130013150Y-93403520D01*
X130035329Y-93393030D01*
X130058428Y-93384765D01*
X130082227Y-93378804D01*
X130106495Y-93375204D01*
X130130999Y-93374000D01*
X130981001Y-93374000D01*
X131005505Y-93375204D01*
X131005505Y-93375204D01*
G37*
D13*
X130556000Y-94074000D03*
D12*
G36*
X131005505Y-96075204D02*
G01*
X131029773Y-96078804D01*
X131053572Y-96084765D01*
X131076671Y-96093030D01*
X131098850Y-96103520D01*
X131119893Y-96116132D01*
X131139599Y-96130747D01*
X131157777Y-96147223D01*
X131174253Y-96165401D01*
X131188868Y-96185107D01*
X131201480Y-96206150D01*
X131211970Y-96228329D01*
X131220235Y-96251428D01*
X131226196Y-96275227D01*
X131229796Y-96299495D01*
X131231000Y-96323999D01*
X131231000Y-97224001D01*
X131229796Y-97248505D01*
X131226196Y-97272773D01*
X131220235Y-97296572D01*
X131211970Y-97319671D01*
X131201480Y-97341850D01*
X131188868Y-97362893D01*
X131174253Y-97382599D01*
X131157777Y-97400777D01*
X131139599Y-97417253D01*
X131119893Y-97431868D01*
X131098850Y-97444480D01*
X131076671Y-97454970D01*
X131053572Y-97463235D01*
X131029773Y-97469196D01*
X131005505Y-97472796D01*
X130981001Y-97474000D01*
X130130999Y-97474000D01*
X130106495Y-97472796D01*
X130082227Y-97469196D01*
X130058428Y-97463235D01*
X130035329Y-97454970D01*
X130013150Y-97444480D01*
X129992107Y-97431868D01*
X129972401Y-97417253D01*
X129954223Y-97400777D01*
X129937747Y-97382599D01*
X129923132Y-97362893D01*
X129910520Y-97341850D01*
X129900030Y-97319671D01*
X129891765Y-97296572D01*
X129885804Y-97272773D01*
X129882204Y-97248505D01*
X129881000Y-97224001D01*
X129881000Y-96323999D01*
X129882204Y-96299495D01*
X129885804Y-96275227D01*
X129891765Y-96251428D01*
X129900030Y-96228329D01*
X129910520Y-96206150D01*
X129923132Y-96185107D01*
X129937747Y-96165401D01*
X129954223Y-96147223D01*
X129972401Y-96130747D01*
X129992107Y-96116132D01*
X130013150Y-96103520D01*
X130035329Y-96093030D01*
X130058428Y-96084765D01*
X130082227Y-96078804D01*
X130106495Y-96075204D01*
X130130999Y-96074000D01*
X130981001Y-96074000D01*
X131005505Y-96075204D01*
X131005505Y-96075204D01*
G37*
D13*
X130556000Y-96774000D03*
D12*
G36*
X129272191Y-89442053D02*
G01*
X129293426Y-89445203D01*
X129314250Y-89450419D01*
X129334462Y-89457651D01*
X129353868Y-89466830D01*
X129372281Y-89477866D01*
X129389524Y-89490654D01*
X129405430Y-89505070D01*
X129419846Y-89520976D01*
X129432634Y-89538219D01*
X129443670Y-89556632D01*
X129452849Y-89576038D01*
X129460081Y-89596250D01*
X129465297Y-89617074D01*
X129468447Y-89638309D01*
X129469500Y-89659750D01*
X129469500Y-90172250D01*
X129468447Y-90193691D01*
X129465297Y-90214926D01*
X129460081Y-90235750D01*
X129452849Y-90255962D01*
X129443670Y-90275368D01*
X129432634Y-90293781D01*
X129419846Y-90311024D01*
X129405430Y-90326930D01*
X129389524Y-90341346D01*
X129372281Y-90354134D01*
X129353868Y-90365170D01*
X129334462Y-90374349D01*
X129314250Y-90381581D01*
X129293426Y-90386797D01*
X129272191Y-90389947D01*
X129250750Y-90391000D01*
X128813250Y-90391000D01*
X128791809Y-90389947D01*
X128770574Y-90386797D01*
X128749750Y-90381581D01*
X128729538Y-90374349D01*
X128710132Y-90365170D01*
X128691719Y-90354134D01*
X128674476Y-90341346D01*
X128658570Y-90326930D01*
X128644154Y-90311024D01*
X128631366Y-90293781D01*
X128620330Y-90275368D01*
X128611151Y-90255962D01*
X128603919Y-90235750D01*
X128598703Y-90214926D01*
X128595553Y-90193691D01*
X128594500Y-90172250D01*
X128594500Y-89659750D01*
X128595553Y-89638309D01*
X128598703Y-89617074D01*
X128603919Y-89596250D01*
X128611151Y-89576038D01*
X128620330Y-89556632D01*
X128631366Y-89538219D01*
X128644154Y-89520976D01*
X128658570Y-89505070D01*
X128674476Y-89490654D01*
X128691719Y-89477866D01*
X128710132Y-89466830D01*
X128729538Y-89457651D01*
X128749750Y-89450419D01*
X128770574Y-89445203D01*
X128791809Y-89442053D01*
X128813250Y-89441000D01*
X129250750Y-89441000D01*
X129272191Y-89442053D01*
X129272191Y-89442053D01*
G37*
D14*
X129032000Y-89916000D03*
D12*
G36*
X130847191Y-89442053D02*
G01*
X130868426Y-89445203D01*
X130889250Y-89450419D01*
X130909462Y-89457651D01*
X130928868Y-89466830D01*
X130947281Y-89477866D01*
X130964524Y-89490654D01*
X130980430Y-89505070D01*
X130994846Y-89520976D01*
X131007634Y-89538219D01*
X131018670Y-89556632D01*
X131027849Y-89576038D01*
X131035081Y-89596250D01*
X131040297Y-89617074D01*
X131043447Y-89638309D01*
X131044500Y-89659750D01*
X131044500Y-90172250D01*
X131043447Y-90193691D01*
X131040297Y-90214926D01*
X131035081Y-90235750D01*
X131027849Y-90255962D01*
X131018670Y-90275368D01*
X131007634Y-90293781D01*
X130994846Y-90311024D01*
X130980430Y-90326930D01*
X130964524Y-90341346D01*
X130947281Y-90354134D01*
X130928868Y-90365170D01*
X130909462Y-90374349D01*
X130889250Y-90381581D01*
X130868426Y-90386797D01*
X130847191Y-90389947D01*
X130825750Y-90391000D01*
X130388250Y-90391000D01*
X130366809Y-90389947D01*
X130345574Y-90386797D01*
X130324750Y-90381581D01*
X130304538Y-90374349D01*
X130285132Y-90365170D01*
X130266719Y-90354134D01*
X130249476Y-90341346D01*
X130233570Y-90326930D01*
X130219154Y-90311024D01*
X130206366Y-90293781D01*
X130195330Y-90275368D01*
X130186151Y-90255962D01*
X130178919Y-90235750D01*
X130173703Y-90214926D01*
X130170553Y-90193691D01*
X130169500Y-90172250D01*
X130169500Y-89659750D01*
X130170553Y-89638309D01*
X130173703Y-89617074D01*
X130178919Y-89596250D01*
X130186151Y-89576038D01*
X130195330Y-89556632D01*
X130206366Y-89538219D01*
X130219154Y-89520976D01*
X130233570Y-89505070D01*
X130249476Y-89490654D01*
X130266719Y-89477866D01*
X130285132Y-89466830D01*
X130304538Y-89457651D01*
X130324750Y-89450419D01*
X130345574Y-89445203D01*
X130366809Y-89442053D01*
X130388250Y-89441000D01*
X130825750Y-89441000D01*
X130847191Y-89442053D01*
X130847191Y-89442053D01*
G37*
D14*
X130607000Y-89916000D03*
D12*
G36*
X144803691Y-82139053D02*
G01*
X144824926Y-82142203D01*
X144845750Y-82147419D01*
X144865962Y-82154651D01*
X144885368Y-82163830D01*
X144903781Y-82174866D01*
X144921024Y-82187654D01*
X144936930Y-82202070D01*
X144951346Y-82217976D01*
X144964134Y-82235219D01*
X144975170Y-82253632D01*
X144984349Y-82273038D01*
X144991581Y-82293250D01*
X144996797Y-82314074D01*
X144999947Y-82335309D01*
X145001000Y-82356750D01*
X145001000Y-82794250D01*
X144999947Y-82815691D01*
X144996797Y-82836926D01*
X144991581Y-82857750D01*
X144984349Y-82877962D01*
X144975170Y-82897368D01*
X144964134Y-82915781D01*
X144951346Y-82933024D01*
X144936930Y-82948930D01*
X144921024Y-82963346D01*
X144903781Y-82976134D01*
X144885368Y-82987170D01*
X144865962Y-82996349D01*
X144845750Y-83003581D01*
X144824926Y-83008797D01*
X144803691Y-83011947D01*
X144782250Y-83013000D01*
X144269750Y-83013000D01*
X144248309Y-83011947D01*
X144227074Y-83008797D01*
X144206250Y-83003581D01*
X144186038Y-82996349D01*
X144166632Y-82987170D01*
X144148219Y-82976134D01*
X144130976Y-82963346D01*
X144115070Y-82948930D01*
X144100654Y-82933024D01*
X144087866Y-82915781D01*
X144076830Y-82897368D01*
X144067651Y-82877962D01*
X144060419Y-82857750D01*
X144055203Y-82836926D01*
X144052053Y-82815691D01*
X144051000Y-82794250D01*
X144051000Y-82356750D01*
X144052053Y-82335309D01*
X144055203Y-82314074D01*
X144060419Y-82293250D01*
X144067651Y-82273038D01*
X144076830Y-82253632D01*
X144087866Y-82235219D01*
X144100654Y-82217976D01*
X144115070Y-82202070D01*
X144130976Y-82187654D01*
X144148219Y-82174866D01*
X144166632Y-82163830D01*
X144186038Y-82154651D01*
X144206250Y-82147419D01*
X144227074Y-82142203D01*
X144248309Y-82139053D01*
X144269750Y-82138000D01*
X144782250Y-82138000D01*
X144803691Y-82139053D01*
X144803691Y-82139053D01*
G37*
D14*
X144526000Y-82575500D03*
D12*
G36*
X144803691Y-80564053D02*
G01*
X144824926Y-80567203D01*
X144845750Y-80572419D01*
X144865962Y-80579651D01*
X144885368Y-80588830D01*
X144903781Y-80599866D01*
X144921024Y-80612654D01*
X144936930Y-80627070D01*
X144951346Y-80642976D01*
X144964134Y-80660219D01*
X144975170Y-80678632D01*
X144984349Y-80698038D01*
X144991581Y-80718250D01*
X144996797Y-80739074D01*
X144999947Y-80760309D01*
X145001000Y-80781750D01*
X145001000Y-81219250D01*
X144999947Y-81240691D01*
X144996797Y-81261926D01*
X144991581Y-81282750D01*
X144984349Y-81302962D01*
X144975170Y-81322368D01*
X144964134Y-81340781D01*
X144951346Y-81358024D01*
X144936930Y-81373930D01*
X144921024Y-81388346D01*
X144903781Y-81401134D01*
X144885368Y-81412170D01*
X144865962Y-81421349D01*
X144845750Y-81428581D01*
X144824926Y-81433797D01*
X144803691Y-81436947D01*
X144782250Y-81438000D01*
X144269750Y-81438000D01*
X144248309Y-81436947D01*
X144227074Y-81433797D01*
X144206250Y-81428581D01*
X144186038Y-81421349D01*
X144166632Y-81412170D01*
X144148219Y-81401134D01*
X144130976Y-81388346D01*
X144115070Y-81373930D01*
X144100654Y-81358024D01*
X144087866Y-81340781D01*
X144076830Y-81322368D01*
X144067651Y-81302962D01*
X144060419Y-81282750D01*
X144055203Y-81261926D01*
X144052053Y-81240691D01*
X144051000Y-81219250D01*
X144051000Y-80781750D01*
X144052053Y-80760309D01*
X144055203Y-80739074D01*
X144060419Y-80718250D01*
X144067651Y-80698038D01*
X144076830Y-80678632D01*
X144087866Y-80660219D01*
X144100654Y-80642976D01*
X144115070Y-80627070D01*
X144130976Y-80612654D01*
X144148219Y-80599866D01*
X144166632Y-80588830D01*
X144186038Y-80579651D01*
X144206250Y-80572419D01*
X144227074Y-80567203D01*
X144248309Y-80564053D01*
X144269750Y-80563000D01*
X144782250Y-80563000D01*
X144803691Y-80564053D01*
X144803691Y-80564053D01*
G37*
D14*
X144526000Y-81000500D03*
D12*
G36*
X132611691Y-95118553D02*
G01*
X132632926Y-95121703D01*
X132653750Y-95126919D01*
X132673962Y-95134151D01*
X132693368Y-95143330D01*
X132711781Y-95154366D01*
X132729024Y-95167154D01*
X132744930Y-95181570D01*
X132759346Y-95197476D01*
X132772134Y-95214719D01*
X132783170Y-95233132D01*
X132792349Y-95252538D01*
X132799581Y-95272750D01*
X132804797Y-95293574D01*
X132807947Y-95314809D01*
X132809000Y-95336250D01*
X132809000Y-95773750D01*
X132807947Y-95795191D01*
X132804797Y-95816426D01*
X132799581Y-95837250D01*
X132792349Y-95857462D01*
X132783170Y-95876868D01*
X132772134Y-95895281D01*
X132759346Y-95912524D01*
X132744930Y-95928430D01*
X132729024Y-95942846D01*
X132711781Y-95955634D01*
X132693368Y-95966670D01*
X132673962Y-95975849D01*
X132653750Y-95983081D01*
X132632926Y-95988297D01*
X132611691Y-95991447D01*
X132590250Y-95992500D01*
X132077750Y-95992500D01*
X132056309Y-95991447D01*
X132035074Y-95988297D01*
X132014250Y-95983081D01*
X131994038Y-95975849D01*
X131974632Y-95966670D01*
X131956219Y-95955634D01*
X131938976Y-95942846D01*
X131923070Y-95928430D01*
X131908654Y-95912524D01*
X131895866Y-95895281D01*
X131884830Y-95876868D01*
X131875651Y-95857462D01*
X131868419Y-95837250D01*
X131863203Y-95816426D01*
X131860053Y-95795191D01*
X131859000Y-95773750D01*
X131859000Y-95336250D01*
X131860053Y-95314809D01*
X131863203Y-95293574D01*
X131868419Y-95272750D01*
X131875651Y-95252538D01*
X131884830Y-95233132D01*
X131895866Y-95214719D01*
X131908654Y-95197476D01*
X131923070Y-95181570D01*
X131938976Y-95167154D01*
X131956219Y-95154366D01*
X131974632Y-95143330D01*
X131994038Y-95134151D01*
X132014250Y-95126919D01*
X132035074Y-95121703D01*
X132056309Y-95118553D01*
X132077750Y-95117500D01*
X132590250Y-95117500D01*
X132611691Y-95118553D01*
X132611691Y-95118553D01*
G37*
D14*
X132334000Y-95555000D03*
D12*
G36*
X132611691Y-93543553D02*
G01*
X132632926Y-93546703D01*
X132653750Y-93551919D01*
X132673962Y-93559151D01*
X132693368Y-93568330D01*
X132711781Y-93579366D01*
X132729024Y-93592154D01*
X132744930Y-93606570D01*
X132759346Y-93622476D01*
X132772134Y-93639719D01*
X132783170Y-93658132D01*
X132792349Y-93677538D01*
X132799581Y-93697750D01*
X132804797Y-93718574D01*
X132807947Y-93739809D01*
X132809000Y-93761250D01*
X132809000Y-94198750D01*
X132807947Y-94220191D01*
X132804797Y-94241426D01*
X132799581Y-94262250D01*
X132792349Y-94282462D01*
X132783170Y-94301868D01*
X132772134Y-94320281D01*
X132759346Y-94337524D01*
X132744930Y-94353430D01*
X132729024Y-94367846D01*
X132711781Y-94380634D01*
X132693368Y-94391670D01*
X132673962Y-94400849D01*
X132653750Y-94408081D01*
X132632926Y-94413297D01*
X132611691Y-94416447D01*
X132590250Y-94417500D01*
X132077750Y-94417500D01*
X132056309Y-94416447D01*
X132035074Y-94413297D01*
X132014250Y-94408081D01*
X131994038Y-94400849D01*
X131974632Y-94391670D01*
X131956219Y-94380634D01*
X131938976Y-94367846D01*
X131923070Y-94353430D01*
X131908654Y-94337524D01*
X131895866Y-94320281D01*
X131884830Y-94301868D01*
X131875651Y-94282462D01*
X131868419Y-94262250D01*
X131863203Y-94241426D01*
X131860053Y-94220191D01*
X131859000Y-94198750D01*
X131859000Y-93761250D01*
X131860053Y-93739809D01*
X131863203Y-93718574D01*
X131868419Y-93697750D01*
X131875651Y-93677538D01*
X131884830Y-93658132D01*
X131895866Y-93639719D01*
X131908654Y-93622476D01*
X131923070Y-93606570D01*
X131938976Y-93592154D01*
X131956219Y-93579366D01*
X131974632Y-93568330D01*
X131994038Y-93559151D01*
X132014250Y-93551919D01*
X132035074Y-93546703D01*
X132056309Y-93543553D01*
X132077750Y-93542500D01*
X132590250Y-93542500D01*
X132611691Y-93543553D01*
X132611691Y-93543553D01*
G37*
D14*
X132334000Y-93980000D03*
D12*
G36*
X129221191Y-87918053D02*
G01*
X129242426Y-87921203D01*
X129263250Y-87926419D01*
X129283462Y-87933651D01*
X129302868Y-87942830D01*
X129321281Y-87953866D01*
X129338524Y-87966654D01*
X129354430Y-87981070D01*
X129368846Y-87996976D01*
X129381634Y-88014219D01*
X129392670Y-88032632D01*
X129401849Y-88052038D01*
X129409081Y-88072250D01*
X129414297Y-88093074D01*
X129417447Y-88114309D01*
X129418500Y-88135750D01*
X129418500Y-88648250D01*
X129417447Y-88669691D01*
X129414297Y-88690926D01*
X129409081Y-88711750D01*
X129401849Y-88731962D01*
X129392670Y-88751368D01*
X129381634Y-88769781D01*
X129368846Y-88787024D01*
X129354430Y-88802930D01*
X129338524Y-88817346D01*
X129321281Y-88830134D01*
X129302868Y-88841170D01*
X129283462Y-88850349D01*
X129263250Y-88857581D01*
X129242426Y-88862797D01*
X129221191Y-88865947D01*
X129199750Y-88867000D01*
X128762250Y-88867000D01*
X128740809Y-88865947D01*
X128719574Y-88862797D01*
X128698750Y-88857581D01*
X128678538Y-88850349D01*
X128659132Y-88841170D01*
X128640719Y-88830134D01*
X128623476Y-88817346D01*
X128607570Y-88802930D01*
X128593154Y-88787024D01*
X128580366Y-88769781D01*
X128569330Y-88751368D01*
X128560151Y-88731962D01*
X128552919Y-88711750D01*
X128547703Y-88690926D01*
X128544553Y-88669691D01*
X128543500Y-88648250D01*
X128543500Y-88135750D01*
X128544553Y-88114309D01*
X128547703Y-88093074D01*
X128552919Y-88072250D01*
X128560151Y-88052038D01*
X128569330Y-88032632D01*
X128580366Y-88014219D01*
X128593154Y-87996976D01*
X128607570Y-87981070D01*
X128623476Y-87966654D01*
X128640719Y-87953866D01*
X128659132Y-87942830D01*
X128678538Y-87933651D01*
X128698750Y-87926419D01*
X128719574Y-87921203D01*
X128740809Y-87918053D01*
X128762250Y-87917000D01*
X129199750Y-87917000D01*
X129221191Y-87918053D01*
X129221191Y-87918053D01*
G37*
D14*
X128981000Y-88392000D03*
D12*
G36*
X130796191Y-87918053D02*
G01*
X130817426Y-87921203D01*
X130838250Y-87926419D01*
X130858462Y-87933651D01*
X130877868Y-87942830D01*
X130896281Y-87953866D01*
X130913524Y-87966654D01*
X130929430Y-87981070D01*
X130943846Y-87996976D01*
X130956634Y-88014219D01*
X130967670Y-88032632D01*
X130976849Y-88052038D01*
X130984081Y-88072250D01*
X130989297Y-88093074D01*
X130992447Y-88114309D01*
X130993500Y-88135750D01*
X130993500Y-88648250D01*
X130992447Y-88669691D01*
X130989297Y-88690926D01*
X130984081Y-88711750D01*
X130976849Y-88731962D01*
X130967670Y-88751368D01*
X130956634Y-88769781D01*
X130943846Y-88787024D01*
X130929430Y-88802930D01*
X130913524Y-88817346D01*
X130896281Y-88830134D01*
X130877868Y-88841170D01*
X130858462Y-88850349D01*
X130838250Y-88857581D01*
X130817426Y-88862797D01*
X130796191Y-88865947D01*
X130774750Y-88867000D01*
X130337250Y-88867000D01*
X130315809Y-88865947D01*
X130294574Y-88862797D01*
X130273750Y-88857581D01*
X130253538Y-88850349D01*
X130234132Y-88841170D01*
X130215719Y-88830134D01*
X130198476Y-88817346D01*
X130182570Y-88802930D01*
X130168154Y-88787024D01*
X130155366Y-88769781D01*
X130144330Y-88751368D01*
X130135151Y-88731962D01*
X130127919Y-88711750D01*
X130122703Y-88690926D01*
X130119553Y-88669691D01*
X130118500Y-88648250D01*
X130118500Y-88135750D01*
X130119553Y-88114309D01*
X130122703Y-88093074D01*
X130127919Y-88072250D01*
X130135151Y-88052038D01*
X130144330Y-88032632D01*
X130155366Y-88014219D01*
X130168154Y-87996976D01*
X130182570Y-87981070D01*
X130198476Y-87966654D01*
X130215719Y-87953866D01*
X130234132Y-87942830D01*
X130253538Y-87933651D01*
X130273750Y-87926419D01*
X130294574Y-87921203D01*
X130315809Y-87918053D01*
X130337250Y-87917000D01*
X130774750Y-87917000D01*
X130796191Y-87918053D01*
X130796191Y-87918053D01*
G37*
D14*
X130556000Y-88392000D03*
D12*
G36*
X130796191Y-86394053D02*
G01*
X130817426Y-86397203D01*
X130838250Y-86402419D01*
X130858462Y-86409651D01*
X130877868Y-86418830D01*
X130896281Y-86429866D01*
X130913524Y-86442654D01*
X130929430Y-86457070D01*
X130943846Y-86472976D01*
X130956634Y-86490219D01*
X130967670Y-86508632D01*
X130976849Y-86528038D01*
X130984081Y-86548250D01*
X130989297Y-86569074D01*
X130992447Y-86590309D01*
X130993500Y-86611750D01*
X130993500Y-87124250D01*
X130992447Y-87145691D01*
X130989297Y-87166926D01*
X130984081Y-87187750D01*
X130976849Y-87207962D01*
X130967670Y-87227368D01*
X130956634Y-87245781D01*
X130943846Y-87263024D01*
X130929430Y-87278930D01*
X130913524Y-87293346D01*
X130896281Y-87306134D01*
X130877868Y-87317170D01*
X130858462Y-87326349D01*
X130838250Y-87333581D01*
X130817426Y-87338797D01*
X130796191Y-87341947D01*
X130774750Y-87343000D01*
X130337250Y-87343000D01*
X130315809Y-87341947D01*
X130294574Y-87338797D01*
X130273750Y-87333581D01*
X130253538Y-87326349D01*
X130234132Y-87317170D01*
X130215719Y-87306134D01*
X130198476Y-87293346D01*
X130182570Y-87278930D01*
X130168154Y-87263024D01*
X130155366Y-87245781D01*
X130144330Y-87227368D01*
X130135151Y-87207962D01*
X130127919Y-87187750D01*
X130122703Y-87166926D01*
X130119553Y-87145691D01*
X130118500Y-87124250D01*
X130118500Y-86611750D01*
X130119553Y-86590309D01*
X130122703Y-86569074D01*
X130127919Y-86548250D01*
X130135151Y-86528038D01*
X130144330Y-86508632D01*
X130155366Y-86490219D01*
X130168154Y-86472976D01*
X130182570Y-86457070D01*
X130198476Y-86442654D01*
X130215719Y-86429866D01*
X130234132Y-86418830D01*
X130253538Y-86409651D01*
X130273750Y-86402419D01*
X130294574Y-86397203D01*
X130315809Y-86394053D01*
X130337250Y-86393000D01*
X130774750Y-86393000D01*
X130796191Y-86394053D01*
X130796191Y-86394053D01*
G37*
D14*
X130556000Y-86868000D03*
D12*
G36*
X129221191Y-86394053D02*
G01*
X129242426Y-86397203D01*
X129263250Y-86402419D01*
X129283462Y-86409651D01*
X129302868Y-86418830D01*
X129321281Y-86429866D01*
X129338524Y-86442654D01*
X129354430Y-86457070D01*
X129368846Y-86472976D01*
X129381634Y-86490219D01*
X129392670Y-86508632D01*
X129401849Y-86528038D01*
X129409081Y-86548250D01*
X129414297Y-86569074D01*
X129417447Y-86590309D01*
X129418500Y-86611750D01*
X129418500Y-87124250D01*
X129417447Y-87145691D01*
X129414297Y-87166926D01*
X129409081Y-87187750D01*
X129401849Y-87207962D01*
X129392670Y-87227368D01*
X129381634Y-87245781D01*
X129368846Y-87263024D01*
X129354430Y-87278930D01*
X129338524Y-87293346D01*
X129321281Y-87306134D01*
X129302868Y-87317170D01*
X129283462Y-87326349D01*
X129263250Y-87333581D01*
X129242426Y-87338797D01*
X129221191Y-87341947D01*
X129199750Y-87343000D01*
X128762250Y-87343000D01*
X128740809Y-87341947D01*
X128719574Y-87338797D01*
X128698750Y-87333581D01*
X128678538Y-87326349D01*
X128659132Y-87317170D01*
X128640719Y-87306134D01*
X128623476Y-87293346D01*
X128607570Y-87278930D01*
X128593154Y-87263024D01*
X128580366Y-87245781D01*
X128569330Y-87227368D01*
X128560151Y-87207962D01*
X128552919Y-87187750D01*
X128547703Y-87166926D01*
X128544553Y-87145691D01*
X128543500Y-87124250D01*
X128543500Y-86611750D01*
X128544553Y-86590309D01*
X128547703Y-86569074D01*
X128552919Y-86548250D01*
X128560151Y-86528038D01*
X128569330Y-86508632D01*
X128580366Y-86490219D01*
X128593154Y-86472976D01*
X128607570Y-86457070D01*
X128623476Y-86442654D01*
X128640719Y-86429866D01*
X128659132Y-86418830D01*
X128678538Y-86409651D01*
X128698750Y-86402419D01*
X128719574Y-86397203D01*
X128740809Y-86394053D01*
X128762250Y-86393000D01*
X129199750Y-86393000D01*
X129221191Y-86394053D01*
X129221191Y-86394053D01*
G37*
D14*
X128981000Y-86868000D03*
D15*
X132588000Y-90170000D03*
D16*
X132588000Y-91170000D03*
X132588000Y-92186000D03*
D15*
X132588000Y-91186000D03*
D12*
G36*
X144864779Y-83600144D02*
G01*
X144887834Y-83603563D01*
X144910443Y-83609227D01*
X144932387Y-83617079D01*
X144953457Y-83627044D01*
X144973448Y-83639026D01*
X144992168Y-83652910D01*
X145009438Y-83668562D01*
X145025090Y-83685832D01*
X145038974Y-83704552D01*
X145050956Y-83724543D01*
X145060921Y-83745613D01*
X145068773Y-83767557D01*
X145074437Y-83790166D01*
X145077856Y-83813221D01*
X145079000Y-83836500D01*
X145079000Y-84311500D01*
X145077856Y-84334779D01*
X145074437Y-84357834D01*
X145068773Y-84380443D01*
X145060921Y-84402387D01*
X145050956Y-84423457D01*
X145038974Y-84443448D01*
X145025090Y-84462168D01*
X145009438Y-84479438D01*
X144992168Y-84495090D01*
X144973448Y-84508974D01*
X144953457Y-84520956D01*
X144932387Y-84530921D01*
X144910443Y-84538773D01*
X144887834Y-84544437D01*
X144864779Y-84547856D01*
X144841500Y-84549000D01*
X144266500Y-84549000D01*
X144243221Y-84547856D01*
X144220166Y-84544437D01*
X144197557Y-84538773D01*
X144175613Y-84530921D01*
X144154543Y-84520956D01*
X144134552Y-84508974D01*
X144115832Y-84495090D01*
X144098562Y-84479438D01*
X144082910Y-84462168D01*
X144069026Y-84443448D01*
X144057044Y-84423457D01*
X144047079Y-84402387D01*
X144039227Y-84380443D01*
X144033563Y-84357834D01*
X144030144Y-84334779D01*
X144029000Y-84311500D01*
X144029000Y-83836500D01*
X144030144Y-83813221D01*
X144033563Y-83790166D01*
X144039227Y-83767557D01*
X144047079Y-83745613D01*
X144057044Y-83724543D01*
X144069026Y-83704552D01*
X144082910Y-83685832D01*
X144098562Y-83668562D01*
X144115832Y-83652910D01*
X144134552Y-83639026D01*
X144154543Y-83627044D01*
X144175613Y-83617079D01*
X144197557Y-83609227D01*
X144220166Y-83603563D01*
X144243221Y-83600144D01*
X144266500Y-83599000D01*
X144841500Y-83599000D01*
X144864779Y-83600144D01*
X144864779Y-83600144D01*
G37*
D17*
X144554000Y-84074000D03*
D12*
G36*
X146614779Y-83600144D02*
G01*
X146637834Y-83603563D01*
X146660443Y-83609227D01*
X146682387Y-83617079D01*
X146703457Y-83627044D01*
X146723448Y-83639026D01*
X146742168Y-83652910D01*
X146759438Y-83668562D01*
X146775090Y-83685832D01*
X146788974Y-83704552D01*
X146800956Y-83724543D01*
X146810921Y-83745613D01*
X146818773Y-83767557D01*
X146824437Y-83790166D01*
X146827856Y-83813221D01*
X146829000Y-83836500D01*
X146829000Y-84311500D01*
X146827856Y-84334779D01*
X146824437Y-84357834D01*
X146818773Y-84380443D01*
X146810921Y-84402387D01*
X146800956Y-84423457D01*
X146788974Y-84443448D01*
X146775090Y-84462168D01*
X146759438Y-84479438D01*
X146742168Y-84495090D01*
X146723448Y-84508974D01*
X146703457Y-84520956D01*
X146682387Y-84530921D01*
X146660443Y-84538773D01*
X146637834Y-84544437D01*
X146614779Y-84547856D01*
X146591500Y-84549000D01*
X146016500Y-84549000D01*
X145993221Y-84547856D01*
X145970166Y-84544437D01*
X145947557Y-84538773D01*
X145925613Y-84530921D01*
X145904543Y-84520956D01*
X145884552Y-84508974D01*
X145865832Y-84495090D01*
X145848562Y-84479438D01*
X145832910Y-84462168D01*
X145819026Y-84443448D01*
X145807044Y-84423457D01*
X145797079Y-84402387D01*
X145789227Y-84380443D01*
X145783563Y-84357834D01*
X145780144Y-84334779D01*
X145779000Y-84311500D01*
X145779000Y-83836500D01*
X145780144Y-83813221D01*
X145783563Y-83790166D01*
X145789227Y-83767557D01*
X145797079Y-83745613D01*
X145807044Y-83724543D01*
X145819026Y-83704552D01*
X145832910Y-83685832D01*
X145848562Y-83668562D01*
X145865832Y-83652910D01*
X145884552Y-83639026D01*
X145904543Y-83627044D01*
X145925613Y-83617079D01*
X145947557Y-83609227D01*
X145970166Y-83603563D01*
X145993221Y-83600144D01*
X146016500Y-83599000D01*
X146591500Y-83599000D01*
X146614779Y-83600144D01*
X146614779Y-83600144D01*
G37*
D17*
X146304000Y-84074000D03*
D18*
X132588000Y-91186000D03*
X133437266Y-89320734D03*
X133096000Y-87884000D03*
D19*
X130462000Y-91621000D02*
X130462000Y-91694000D01*
X131913000Y-90170000D02*
X130462000Y-91621000D01*
X132588000Y-90170000D02*
X131913000Y-90170000D01*
X130607000Y-91549000D02*
X130462000Y-91694000D01*
X130607000Y-89916000D02*
X130607000Y-91549000D01*
X132588000Y-93726000D02*
X132334000Y-93980000D01*
X132588000Y-92186000D02*
X132588000Y-93726000D01*
X132240000Y-94074000D02*
X132334000Y-93980000D01*
X130556000Y-94074000D02*
X132240000Y-94074000D01*
X133263000Y-91186000D02*
X133858000Y-91781000D01*
X132588000Y-91186000D02*
X133263000Y-91186000D01*
X133858000Y-91781000D02*
X133858000Y-93218000D01*
X133858000Y-93218000D02*
X134620000Y-93980000D01*
X134620000Y-93980000D02*
X141224000Y-93980000D01*
X141224000Y-93980000D02*
X144272000Y-90932000D01*
X148252000Y-79502000D02*
X149352000Y-79502000D01*
X144272000Y-83482000D02*
X148252000Y-79502000D01*
X144272000Y-90932000D02*
X144272000Y-83482000D01*
X147480000Y-79502000D02*
X149352000Y-79502000D01*
X146304000Y-80678000D02*
X147480000Y-79502000D01*
X144526000Y-84046000D02*
X144554000Y-84074000D01*
X144526000Y-82575500D02*
X144526000Y-84046000D01*
X144537000Y-83482000D02*
X144272000Y-83482000D01*
X144554000Y-83499000D02*
X144537000Y-83482000D01*
X144554000Y-84074000D02*
X144554000Y-83499000D01*
X131484734Y-89320734D02*
X130556000Y-88392000D01*
X133437266Y-89320734D02*
X131484734Y-89320734D01*
X131572000Y-87884000D02*
X130556000Y-86868000D01*
X133096000Y-87884000D02*
X131572000Y-87884000D01*
D20*
G36*
X154255000Y-98375000D02*
G01*
X125145000Y-98375000D01*
X125145000Y-97474000D01*
X129242928Y-97474000D01*
X129255188Y-97598482D01*
X129291498Y-97718180D01*
X129350463Y-97828494D01*
X129429815Y-97925185D01*
X129526506Y-98004537D01*
X129636820Y-98063502D01*
X129756518Y-98099812D01*
X129881000Y-98112072D01*
X130270250Y-98109000D01*
X130429000Y-97950250D01*
X130429000Y-96901000D01*
X130683000Y-96901000D01*
X130683000Y-97950250D01*
X130841750Y-98109000D01*
X131231000Y-98112072D01*
X131355482Y-98099812D01*
X131475180Y-98063502D01*
X131585494Y-98004537D01*
X131682185Y-97925185D01*
X131761537Y-97828494D01*
X131820502Y-97718180D01*
X131856812Y-97598482D01*
X131869072Y-97474000D01*
X131866000Y-97059750D01*
X131707250Y-96901000D01*
X130683000Y-96901000D01*
X130429000Y-96901000D01*
X129404750Y-96901000D01*
X129246000Y-97059750D01*
X129242928Y-97474000D01*
X125145000Y-97474000D01*
X125145000Y-96074000D01*
X129242928Y-96074000D01*
X129246000Y-96488250D01*
X129404750Y-96647000D01*
X130429000Y-96647000D01*
X130429000Y-95597750D01*
X130270250Y-95439000D01*
X129881000Y-95435928D01*
X129756518Y-95448188D01*
X129636820Y-95484498D01*
X129526506Y-95543463D01*
X129429815Y-95622815D01*
X129350463Y-95719506D01*
X129291498Y-95829820D01*
X129255188Y-95949518D01*
X129242928Y-96074000D01*
X125145000Y-96074000D01*
X125145000Y-92369000D01*
X126423928Y-92369000D01*
X126436188Y-92493482D01*
X126472498Y-92613180D01*
X126531463Y-92723494D01*
X126610815Y-92820185D01*
X126707506Y-92899537D01*
X126817820Y-92958502D01*
X126937518Y-92994812D01*
X127062000Y-93007072D01*
X127476250Y-93004000D01*
X127635000Y-92845250D01*
X127635000Y-91821000D01*
X127889000Y-91821000D01*
X127889000Y-92845250D01*
X128047750Y-93004000D01*
X128462000Y-93007072D01*
X128586482Y-92994812D01*
X128706180Y-92958502D01*
X128816494Y-92899537D01*
X128913185Y-92820185D01*
X128992537Y-92723494D01*
X129051502Y-92613180D01*
X129087812Y-92493482D01*
X129100072Y-92369000D01*
X129097000Y-91979750D01*
X128938250Y-91821000D01*
X127889000Y-91821000D01*
X127635000Y-91821000D01*
X126585750Y-91821000D01*
X126427000Y-91979750D01*
X126423928Y-92369000D01*
X125145000Y-92369000D01*
X125145000Y-91019000D01*
X126423928Y-91019000D01*
X126427000Y-91408250D01*
X126585750Y-91567000D01*
X127635000Y-91567000D01*
X127635000Y-90542750D01*
X127889000Y-90542750D01*
X127889000Y-91567000D01*
X128938250Y-91567000D01*
X129097000Y-91408250D01*
X129100017Y-91026000D01*
X129159002Y-91026000D01*
X129159002Y-90867252D01*
X129201759Y-90910009D01*
X129191528Y-90929149D01*
X129140992Y-91095745D01*
X129123928Y-91268999D01*
X129123928Y-92119001D01*
X129140992Y-92292255D01*
X129191528Y-92458851D01*
X129273595Y-92612387D01*
X129384038Y-92746962D01*
X129518613Y-92857405D01*
X129611479Y-92907043D01*
X129503038Y-92996038D01*
X129392595Y-93130613D01*
X129310528Y-93284149D01*
X129259992Y-93450745D01*
X129242928Y-93623999D01*
X129242928Y-94524001D01*
X129259992Y-94697255D01*
X129310528Y-94863851D01*
X129392595Y-95017387D01*
X129503038Y-95151962D01*
X129637613Y-95262405D01*
X129791149Y-95344472D01*
X129957745Y-95395008D01*
X130130999Y-95412072D01*
X130981001Y-95412072D01*
X131154255Y-95395008D01*
X131304256Y-95349506D01*
X131382748Y-95427998D01*
X131224000Y-95427998D01*
X131224000Y-95435983D01*
X130841750Y-95439000D01*
X130683000Y-95597750D01*
X130683000Y-96647000D01*
X131707250Y-96647000D01*
X131735811Y-96618439D01*
X131859000Y-96630572D01*
X132048250Y-96627500D01*
X132207000Y-96468750D01*
X132207000Y-95682000D01*
X132461000Y-95682000D01*
X132461000Y-96468750D01*
X132619750Y-96627500D01*
X132809000Y-96630572D01*
X132933482Y-96618312D01*
X133053180Y-96582002D01*
X133163494Y-96523037D01*
X133260185Y-96443685D01*
X133339537Y-96346994D01*
X133398502Y-96236680D01*
X133434812Y-96116982D01*
X133447072Y-95992500D01*
X133444000Y-95840750D01*
X133285250Y-95682000D01*
X132461000Y-95682000D01*
X132207000Y-95682000D01*
X132187000Y-95682000D01*
X132187000Y-95428000D01*
X132207000Y-95428000D01*
X132207000Y-95408000D01*
X132461000Y-95408000D01*
X132461000Y-95428000D01*
X133285250Y-95428000D01*
X133444000Y-95269250D01*
X133447072Y-95117500D01*
X133434812Y-94993018D01*
X133398502Y-94873320D01*
X133339537Y-94763006D01*
X133284900Y-94696430D01*
X133302671Y-94674775D01*
X133381850Y-94526642D01*
X133430608Y-94365908D01*
X133447072Y-94198750D01*
X133447072Y-93881873D01*
X134056201Y-94491002D01*
X134079999Y-94520001D01*
X134195724Y-94614974D01*
X134327753Y-94685546D01*
X134471014Y-94729003D01*
X134582667Y-94740000D01*
X134582675Y-94740000D01*
X134620000Y-94743676D01*
X134657325Y-94740000D01*
X141186678Y-94740000D01*
X141224000Y-94743676D01*
X141261322Y-94740000D01*
X141261333Y-94740000D01*
X141372986Y-94729003D01*
X141516247Y-94685546D01*
X141648276Y-94614974D01*
X141764001Y-94520001D01*
X141787804Y-94490997D01*
X144783004Y-91495798D01*
X144812001Y-91472001D01*
X144864320Y-91408250D01*
X144906974Y-91356277D01*
X144977546Y-91224247D01*
X144978588Y-91220812D01*
X145021003Y-91080986D01*
X145032000Y-90969333D01*
X145032000Y-90969323D01*
X145035676Y-90932000D01*
X145032000Y-90894677D01*
X145032000Y-85164277D01*
X145176567Y-85120423D01*
X145327942Y-85039512D01*
X145351839Y-85019901D01*
X145424506Y-85079537D01*
X145534820Y-85138502D01*
X145654518Y-85174812D01*
X145779000Y-85187072D01*
X146018250Y-85184000D01*
X146177000Y-85025250D01*
X146177000Y-84201000D01*
X146431000Y-84201000D01*
X146431000Y-85025250D01*
X146589750Y-85184000D01*
X146829000Y-85187072D01*
X146953482Y-85174812D01*
X147073180Y-85138502D01*
X147183494Y-85079537D01*
X147280185Y-85000185D01*
X147359537Y-84903494D01*
X147418502Y-84793180D01*
X147454812Y-84673482D01*
X147463821Y-84582000D01*
X147859815Y-84582000D01*
X147888487Y-84873111D01*
X147973401Y-85153034D01*
X148111294Y-85411014D01*
X148296866Y-85637134D01*
X148522986Y-85822706D01*
X148577791Y-85852000D01*
X148522986Y-85881294D01*
X148296866Y-86066866D01*
X148111294Y-86292986D01*
X147973401Y-86550966D01*
X147888487Y-86830889D01*
X147859815Y-87122000D01*
X147888487Y-87413111D01*
X147973401Y-87693034D01*
X148111294Y-87951014D01*
X148296866Y-88177134D01*
X148522986Y-88362706D01*
X148780966Y-88500599D01*
X149060889Y-88585513D01*
X149279050Y-88607000D01*
X149424950Y-88607000D01*
X149643111Y-88585513D01*
X149923034Y-88500599D01*
X150181014Y-88362706D01*
X150407134Y-88177134D01*
X150592706Y-87951014D01*
X150730599Y-87693034D01*
X150815513Y-87413111D01*
X150844185Y-87122000D01*
X150815513Y-86830889D01*
X150730599Y-86550966D01*
X150592706Y-86292986D01*
X150407134Y-86066866D01*
X150181014Y-85881294D01*
X150126209Y-85852000D01*
X150181014Y-85822706D01*
X150407134Y-85637134D01*
X150592706Y-85411014D01*
X150730599Y-85153034D01*
X150815513Y-84873111D01*
X150844185Y-84582000D01*
X150815513Y-84290889D01*
X150730599Y-84010966D01*
X150592706Y-83752986D01*
X150407134Y-83526866D01*
X150181014Y-83341294D01*
X150116477Y-83306799D01*
X150233355Y-83237178D01*
X150449588Y-83042269D01*
X150623641Y-82808920D01*
X150748825Y-82546099D01*
X150793476Y-82398890D01*
X150672155Y-82169000D01*
X149479000Y-82169000D01*
X149479000Y-82189000D01*
X149225000Y-82189000D01*
X149225000Y-82169000D01*
X148031845Y-82169000D01*
X147910524Y-82398890D01*
X147955175Y-82546099D01*
X148080359Y-82808920D01*
X148254412Y-83042269D01*
X148470645Y-83237178D01*
X148587523Y-83306799D01*
X148522986Y-83341294D01*
X148296866Y-83526866D01*
X148111294Y-83752986D01*
X147973401Y-84010966D01*
X147888487Y-84290889D01*
X147859815Y-84582000D01*
X147463821Y-84582000D01*
X147467072Y-84549000D01*
X147464000Y-84359750D01*
X147305250Y-84201000D01*
X146431000Y-84201000D01*
X146177000Y-84201000D01*
X146157000Y-84201000D01*
X146157000Y-83947000D01*
X146177000Y-83947000D01*
X146177000Y-83122750D01*
X146431000Y-83122750D01*
X146431000Y-83947000D01*
X147305250Y-83947000D01*
X147464000Y-83788250D01*
X147467072Y-83599000D01*
X147454812Y-83474518D01*
X147418502Y-83354820D01*
X147359537Y-83244506D01*
X147280185Y-83147815D01*
X147183494Y-83068463D01*
X147073180Y-83009498D01*
X146953482Y-82973188D01*
X146829000Y-82960928D01*
X146589750Y-82964000D01*
X146431000Y-83122750D01*
X146177000Y-83122750D01*
X146018250Y-82964000D01*
X145866747Y-82962055D01*
X146821877Y-82006925D01*
X146902255Y-81999008D01*
X147068851Y-81948472D01*
X147222387Y-81866405D01*
X147356962Y-81755962D01*
X147467405Y-81621387D01*
X147549472Y-81467851D01*
X147600008Y-81301255D01*
X147607925Y-81220877D01*
X148039457Y-80789345D01*
X148050815Y-80803185D01*
X148147506Y-80882537D01*
X148257820Y-80941502D01*
X148338466Y-80965966D01*
X148254412Y-81041731D01*
X148080359Y-81275080D01*
X147955175Y-81537901D01*
X147910524Y-81685110D01*
X148031845Y-81915000D01*
X149225000Y-81915000D01*
X149225000Y-81895000D01*
X149479000Y-81895000D01*
X149479000Y-81915000D01*
X150672155Y-81915000D01*
X150793476Y-81685110D01*
X150748825Y-81537901D01*
X150623641Y-81275080D01*
X150449588Y-81041731D01*
X150365534Y-80965966D01*
X150446180Y-80941502D01*
X150556494Y-80882537D01*
X150653185Y-80803185D01*
X150732537Y-80706494D01*
X150791502Y-80596180D01*
X150827812Y-80476482D01*
X150840072Y-80352000D01*
X150840072Y-78652000D01*
X150827812Y-78527518D01*
X150791502Y-78407820D01*
X150732537Y-78297506D01*
X150653185Y-78200815D01*
X150556494Y-78121463D01*
X150446180Y-78062498D01*
X150326482Y-78026188D01*
X150202000Y-78013928D01*
X148502000Y-78013928D01*
X148377518Y-78026188D01*
X148257820Y-78062498D01*
X148147506Y-78121463D01*
X148050815Y-78200815D01*
X147971463Y-78297506D01*
X147912498Y-78407820D01*
X147876188Y-78527518D01*
X147863928Y-78652000D01*
X147863928Y-78742000D01*
X147610769Y-78742000D01*
X147617072Y-78678000D01*
X147614000Y-78263750D01*
X147455250Y-78105000D01*
X146431000Y-78105000D01*
X146431000Y-79154250D01*
X146589750Y-79313000D01*
X146594163Y-79313035D01*
X146567270Y-79339928D01*
X145878999Y-79339928D01*
X145705745Y-79356992D01*
X145539149Y-79407528D01*
X145385613Y-79489595D01*
X145251038Y-79600038D01*
X145140595Y-79734613D01*
X145058528Y-79888149D01*
X145046026Y-79929363D01*
X145001000Y-79924928D01*
X144811750Y-79928000D01*
X144653000Y-80086750D01*
X144653000Y-80873500D01*
X144673000Y-80873500D01*
X144673000Y-81127500D01*
X144653000Y-81127500D01*
X144653000Y-81147500D01*
X144399000Y-81147500D01*
X144399000Y-81127500D01*
X143574750Y-81127500D01*
X143416000Y-81286250D01*
X143412928Y-81438000D01*
X143425188Y-81562482D01*
X143461498Y-81682180D01*
X143520463Y-81792494D01*
X143575100Y-81859070D01*
X143557329Y-81880725D01*
X143478150Y-82028858D01*
X143429392Y-82189592D01*
X143412928Y-82356750D01*
X143412928Y-82794250D01*
X143429392Y-82961408D01*
X143478150Y-83122142D01*
X143547568Y-83252013D01*
X143522997Y-83333014D01*
X143517440Y-83389437D01*
X143457577Y-83501433D01*
X143407752Y-83665684D01*
X143390928Y-83836500D01*
X143390928Y-84311500D01*
X143407752Y-84482316D01*
X143457577Y-84646567D01*
X143512001Y-84748388D01*
X143512000Y-90617198D01*
X140909199Y-93220000D01*
X134934802Y-93220000D01*
X134618000Y-92903199D01*
X134618000Y-91818322D01*
X134621676Y-91780999D01*
X134618000Y-91743676D01*
X134618000Y-91743667D01*
X134607003Y-91632014D01*
X134563546Y-91488753D01*
X134539092Y-91443003D01*
X134492974Y-91356723D01*
X134421799Y-91269997D01*
X134398001Y-91240999D01*
X134369004Y-91217202D01*
X133826803Y-90675002D01*
X133803001Y-90645999D01*
X133687276Y-90551026D01*
X133651072Y-90531674D01*
X133651072Y-90333482D01*
X133739164Y-90315960D01*
X133927522Y-90237939D01*
X134097040Y-90124671D01*
X134241203Y-89980508D01*
X134354471Y-89810990D01*
X134432492Y-89622632D01*
X134472266Y-89422673D01*
X134472266Y-89218795D01*
X134432492Y-89018836D01*
X134354471Y-88830478D01*
X134241203Y-88660960D01*
X134097040Y-88516797D01*
X133973236Y-88434074D01*
X134013205Y-88374256D01*
X134091226Y-88185898D01*
X134131000Y-87985939D01*
X134131000Y-87782061D01*
X134091226Y-87582102D01*
X134013205Y-87393744D01*
X133899937Y-87224226D01*
X133755774Y-87080063D01*
X133586256Y-86966795D01*
X133397898Y-86888774D01*
X133197939Y-86849000D01*
X132994061Y-86849000D01*
X132794102Y-86888774D01*
X132605744Y-86966795D01*
X132436226Y-87080063D01*
X132392289Y-87124000D01*
X131886802Y-87124000D01*
X131631572Y-86868770D01*
X131631572Y-86611750D01*
X131615108Y-86444592D01*
X131566350Y-86283858D01*
X131487171Y-86135725D01*
X131380615Y-86005885D01*
X131250775Y-85899329D01*
X131102642Y-85820150D01*
X130941908Y-85771392D01*
X130774750Y-85754928D01*
X130337250Y-85754928D01*
X130170092Y-85771392D01*
X130009358Y-85820150D01*
X129861225Y-85899329D01*
X129839570Y-85917100D01*
X129772994Y-85862463D01*
X129662680Y-85803498D01*
X129542982Y-85767188D01*
X129418500Y-85754928D01*
X129266750Y-85758000D01*
X129108000Y-85916750D01*
X129108000Y-86741000D01*
X129128000Y-86741000D01*
X129128000Y-86995000D01*
X129108000Y-86995000D01*
X129108000Y-88265000D01*
X129128000Y-88265000D01*
X129128000Y-88519000D01*
X129108000Y-88519000D01*
X129108000Y-89343250D01*
X129159000Y-89394250D01*
X129159000Y-89789000D01*
X129179000Y-89789000D01*
X129179000Y-90043000D01*
X129159000Y-90043000D01*
X129159000Y-90063000D01*
X128905000Y-90063000D01*
X128905000Y-90043000D01*
X128118250Y-90043000D01*
X127959500Y-90201750D01*
X127956428Y-90391000D01*
X127963988Y-90467762D01*
X127889000Y-90542750D01*
X127635000Y-90542750D01*
X127476250Y-90384000D01*
X127062000Y-90380928D01*
X126937518Y-90393188D01*
X126817820Y-90429498D01*
X126707506Y-90488463D01*
X126610815Y-90567815D01*
X126531463Y-90664506D01*
X126472498Y-90774820D01*
X126436188Y-90894518D01*
X126423928Y-91019000D01*
X125145000Y-91019000D01*
X125145000Y-88867000D01*
X127905428Y-88867000D01*
X127917688Y-88991482D01*
X127953998Y-89111180D01*
X128003107Y-89203055D01*
X127968688Y-89316518D01*
X127956428Y-89441000D01*
X127959500Y-89630250D01*
X128118250Y-89789000D01*
X128905000Y-89789000D01*
X128905000Y-88964750D01*
X128854000Y-88913750D01*
X128854000Y-88519000D01*
X128067250Y-88519000D01*
X127908500Y-88677750D01*
X127905428Y-88867000D01*
X125145000Y-88867000D01*
X125145000Y-87343000D01*
X127905428Y-87343000D01*
X127917688Y-87467482D01*
X127953998Y-87587180D01*
X127976886Y-87630000D01*
X127953998Y-87672820D01*
X127917688Y-87792518D01*
X127905428Y-87917000D01*
X127908500Y-88106250D01*
X128067250Y-88265000D01*
X128854000Y-88265000D01*
X128854000Y-86995000D01*
X128067250Y-86995000D01*
X127908500Y-87153750D01*
X127905428Y-87343000D01*
X125145000Y-87343000D01*
X125145000Y-86393000D01*
X127905428Y-86393000D01*
X127908500Y-86582250D01*
X128067250Y-86741000D01*
X128854000Y-86741000D01*
X128854000Y-85916750D01*
X128695250Y-85758000D01*
X128543500Y-85754928D01*
X128419018Y-85767188D01*
X128299320Y-85803498D01*
X128189006Y-85862463D01*
X128092315Y-85941815D01*
X128012963Y-86038506D01*
X127953998Y-86148820D01*
X127917688Y-86268518D01*
X127905428Y-86393000D01*
X125145000Y-86393000D01*
X125145000Y-80563000D01*
X143412928Y-80563000D01*
X143416000Y-80714750D01*
X143574750Y-80873500D01*
X144399000Y-80873500D01*
X144399000Y-80086750D01*
X144240250Y-79928000D01*
X144051000Y-79924928D01*
X143926518Y-79937188D01*
X143806820Y-79973498D01*
X143696506Y-80032463D01*
X143599815Y-80111815D01*
X143520463Y-80208506D01*
X143461498Y-80318820D01*
X143425188Y-80438518D01*
X143412928Y-80563000D01*
X125145000Y-80563000D01*
X125145000Y-78678000D01*
X144990928Y-78678000D01*
X145003188Y-78802482D01*
X145039498Y-78922180D01*
X145098463Y-79032494D01*
X145177815Y-79129185D01*
X145274506Y-79208537D01*
X145384820Y-79267502D01*
X145504518Y-79303812D01*
X145629000Y-79316072D01*
X146018250Y-79313000D01*
X146177000Y-79154250D01*
X146177000Y-78105000D01*
X145152750Y-78105000D01*
X144994000Y-78263750D01*
X144990928Y-78678000D01*
X125145000Y-78678000D01*
X125145000Y-77278000D01*
X144990928Y-77278000D01*
X144994000Y-77692250D01*
X145152750Y-77851000D01*
X146177000Y-77851000D01*
X146177000Y-76801750D01*
X146431000Y-76801750D01*
X146431000Y-77851000D01*
X147455250Y-77851000D01*
X147614000Y-77692250D01*
X147617072Y-77278000D01*
X147604812Y-77153518D01*
X147568502Y-77033820D01*
X147509537Y-76923506D01*
X147430185Y-76826815D01*
X147333494Y-76747463D01*
X147223180Y-76688498D01*
X147103482Y-76652188D01*
X146979000Y-76639928D01*
X146589750Y-76643000D01*
X146431000Y-76801750D01*
X146177000Y-76801750D01*
X146018250Y-76643000D01*
X145629000Y-76639928D01*
X145504518Y-76652188D01*
X145384820Y-76688498D01*
X145274506Y-76747463D01*
X145177815Y-76826815D01*
X145098463Y-76923506D01*
X145039498Y-77033820D01*
X145003188Y-77153518D01*
X144990928Y-77278000D01*
X125145000Y-77278000D01*
X125145000Y-76631000D01*
X154255001Y-76631000D01*
X154255000Y-98375000D01*
X154255000Y-98375000D01*
G37*
X154255000Y-98375000D02*
X125145000Y-98375000D01*
X125145000Y-97474000D01*
X129242928Y-97474000D01*
X129255188Y-97598482D01*
X129291498Y-97718180D01*
X129350463Y-97828494D01*
X129429815Y-97925185D01*
X129526506Y-98004537D01*
X129636820Y-98063502D01*
X129756518Y-98099812D01*
X129881000Y-98112072D01*
X130270250Y-98109000D01*
X130429000Y-97950250D01*
X130429000Y-96901000D01*
X130683000Y-96901000D01*
X130683000Y-97950250D01*
X130841750Y-98109000D01*
X131231000Y-98112072D01*
X131355482Y-98099812D01*
X131475180Y-98063502D01*
X131585494Y-98004537D01*
X131682185Y-97925185D01*
X131761537Y-97828494D01*
X131820502Y-97718180D01*
X131856812Y-97598482D01*
X131869072Y-97474000D01*
X131866000Y-97059750D01*
X131707250Y-96901000D01*
X130683000Y-96901000D01*
X130429000Y-96901000D01*
X129404750Y-96901000D01*
X129246000Y-97059750D01*
X129242928Y-97474000D01*
X125145000Y-97474000D01*
X125145000Y-96074000D01*
X129242928Y-96074000D01*
X129246000Y-96488250D01*
X129404750Y-96647000D01*
X130429000Y-96647000D01*
X130429000Y-95597750D01*
X130270250Y-95439000D01*
X129881000Y-95435928D01*
X129756518Y-95448188D01*
X129636820Y-95484498D01*
X129526506Y-95543463D01*
X129429815Y-95622815D01*
X129350463Y-95719506D01*
X129291498Y-95829820D01*
X129255188Y-95949518D01*
X129242928Y-96074000D01*
X125145000Y-96074000D01*
X125145000Y-92369000D01*
X126423928Y-92369000D01*
X126436188Y-92493482D01*
X126472498Y-92613180D01*
X126531463Y-92723494D01*
X126610815Y-92820185D01*
X126707506Y-92899537D01*
X126817820Y-92958502D01*
X126937518Y-92994812D01*
X127062000Y-93007072D01*
X127476250Y-93004000D01*
X127635000Y-92845250D01*
X127635000Y-91821000D01*
X127889000Y-91821000D01*
X127889000Y-92845250D01*
X128047750Y-93004000D01*
X128462000Y-93007072D01*
X128586482Y-92994812D01*
X128706180Y-92958502D01*
X128816494Y-92899537D01*
X128913185Y-92820185D01*
X128992537Y-92723494D01*
X129051502Y-92613180D01*
X129087812Y-92493482D01*
X129100072Y-92369000D01*
X129097000Y-91979750D01*
X128938250Y-91821000D01*
X127889000Y-91821000D01*
X127635000Y-91821000D01*
X126585750Y-91821000D01*
X126427000Y-91979750D01*
X126423928Y-92369000D01*
X125145000Y-92369000D01*
X125145000Y-91019000D01*
X126423928Y-91019000D01*
X126427000Y-91408250D01*
X126585750Y-91567000D01*
X127635000Y-91567000D01*
X127635000Y-90542750D01*
X127889000Y-90542750D01*
X127889000Y-91567000D01*
X128938250Y-91567000D01*
X129097000Y-91408250D01*
X129100017Y-91026000D01*
X129159002Y-91026000D01*
X129159002Y-90867252D01*
X129201759Y-90910009D01*
X129191528Y-90929149D01*
X129140992Y-91095745D01*
X129123928Y-91268999D01*
X129123928Y-92119001D01*
X129140992Y-92292255D01*
X129191528Y-92458851D01*
X129273595Y-92612387D01*
X129384038Y-92746962D01*
X129518613Y-92857405D01*
X129611479Y-92907043D01*
X129503038Y-92996038D01*
X129392595Y-93130613D01*
X129310528Y-93284149D01*
X129259992Y-93450745D01*
X129242928Y-93623999D01*
X129242928Y-94524001D01*
X129259992Y-94697255D01*
X129310528Y-94863851D01*
X129392595Y-95017387D01*
X129503038Y-95151962D01*
X129637613Y-95262405D01*
X129791149Y-95344472D01*
X129957745Y-95395008D01*
X130130999Y-95412072D01*
X130981001Y-95412072D01*
X131154255Y-95395008D01*
X131304256Y-95349506D01*
X131382748Y-95427998D01*
X131224000Y-95427998D01*
X131224000Y-95435983D01*
X130841750Y-95439000D01*
X130683000Y-95597750D01*
X130683000Y-96647000D01*
X131707250Y-96647000D01*
X131735811Y-96618439D01*
X131859000Y-96630572D01*
X132048250Y-96627500D01*
X132207000Y-96468750D01*
X132207000Y-95682000D01*
X132461000Y-95682000D01*
X132461000Y-96468750D01*
X132619750Y-96627500D01*
X132809000Y-96630572D01*
X132933482Y-96618312D01*
X133053180Y-96582002D01*
X133163494Y-96523037D01*
X133260185Y-96443685D01*
X133339537Y-96346994D01*
X133398502Y-96236680D01*
X133434812Y-96116982D01*
X133447072Y-95992500D01*
X133444000Y-95840750D01*
X133285250Y-95682000D01*
X132461000Y-95682000D01*
X132207000Y-95682000D01*
X132187000Y-95682000D01*
X132187000Y-95428000D01*
X132207000Y-95428000D01*
X132207000Y-95408000D01*
X132461000Y-95408000D01*
X132461000Y-95428000D01*
X133285250Y-95428000D01*
X133444000Y-95269250D01*
X133447072Y-95117500D01*
X133434812Y-94993018D01*
X133398502Y-94873320D01*
X133339537Y-94763006D01*
X133284900Y-94696430D01*
X133302671Y-94674775D01*
X133381850Y-94526642D01*
X133430608Y-94365908D01*
X133447072Y-94198750D01*
X133447072Y-93881873D01*
X134056201Y-94491002D01*
X134079999Y-94520001D01*
X134195724Y-94614974D01*
X134327753Y-94685546D01*
X134471014Y-94729003D01*
X134582667Y-94740000D01*
X134582675Y-94740000D01*
X134620000Y-94743676D01*
X134657325Y-94740000D01*
X141186678Y-94740000D01*
X141224000Y-94743676D01*
X141261322Y-94740000D01*
X141261333Y-94740000D01*
X141372986Y-94729003D01*
X141516247Y-94685546D01*
X141648276Y-94614974D01*
X141764001Y-94520001D01*
X141787804Y-94490997D01*
X144783004Y-91495798D01*
X144812001Y-91472001D01*
X144864320Y-91408250D01*
X144906974Y-91356277D01*
X144977546Y-91224247D01*
X144978588Y-91220812D01*
X145021003Y-91080986D01*
X145032000Y-90969333D01*
X145032000Y-90969323D01*
X145035676Y-90932000D01*
X145032000Y-90894677D01*
X145032000Y-85164277D01*
X145176567Y-85120423D01*
X145327942Y-85039512D01*
X145351839Y-85019901D01*
X145424506Y-85079537D01*
X145534820Y-85138502D01*
X145654518Y-85174812D01*
X145779000Y-85187072D01*
X146018250Y-85184000D01*
X146177000Y-85025250D01*
X146177000Y-84201000D01*
X146431000Y-84201000D01*
X146431000Y-85025250D01*
X146589750Y-85184000D01*
X146829000Y-85187072D01*
X146953482Y-85174812D01*
X147073180Y-85138502D01*
X147183494Y-85079537D01*
X147280185Y-85000185D01*
X147359537Y-84903494D01*
X147418502Y-84793180D01*
X147454812Y-84673482D01*
X147463821Y-84582000D01*
X147859815Y-84582000D01*
X147888487Y-84873111D01*
X147973401Y-85153034D01*
X148111294Y-85411014D01*
X148296866Y-85637134D01*
X148522986Y-85822706D01*
X148577791Y-85852000D01*
X148522986Y-85881294D01*
X148296866Y-86066866D01*
X148111294Y-86292986D01*
X147973401Y-86550966D01*
X147888487Y-86830889D01*
X147859815Y-87122000D01*
X147888487Y-87413111D01*
X147973401Y-87693034D01*
X148111294Y-87951014D01*
X148296866Y-88177134D01*
X148522986Y-88362706D01*
X148780966Y-88500599D01*
X149060889Y-88585513D01*
X149279050Y-88607000D01*
X149424950Y-88607000D01*
X149643111Y-88585513D01*
X149923034Y-88500599D01*
X150181014Y-88362706D01*
X150407134Y-88177134D01*
X150592706Y-87951014D01*
X150730599Y-87693034D01*
X150815513Y-87413111D01*
X150844185Y-87122000D01*
X150815513Y-86830889D01*
X150730599Y-86550966D01*
X150592706Y-86292986D01*
X150407134Y-86066866D01*
X150181014Y-85881294D01*
X150126209Y-85852000D01*
X150181014Y-85822706D01*
X150407134Y-85637134D01*
X150592706Y-85411014D01*
X150730599Y-85153034D01*
X150815513Y-84873111D01*
X150844185Y-84582000D01*
X150815513Y-84290889D01*
X150730599Y-84010966D01*
X150592706Y-83752986D01*
X150407134Y-83526866D01*
X150181014Y-83341294D01*
X150116477Y-83306799D01*
X150233355Y-83237178D01*
X150449588Y-83042269D01*
X150623641Y-82808920D01*
X150748825Y-82546099D01*
X150793476Y-82398890D01*
X150672155Y-82169000D01*
X149479000Y-82169000D01*
X149479000Y-82189000D01*
X149225000Y-82189000D01*
X149225000Y-82169000D01*
X148031845Y-82169000D01*
X147910524Y-82398890D01*
X147955175Y-82546099D01*
X148080359Y-82808920D01*
X148254412Y-83042269D01*
X148470645Y-83237178D01*
X148587523Y-83306799D01*
X148522986Y-83341294D01*
X148296866Y-83526866D01*
X148111294Y-83752986D01*
X147973401Y-84010966D01*
X147888487Y-84290889D01*
X147859815Y-84582000D01*
X147463821Y-84582000D01*
X147467072Y-84549000D01*
X147464000Y-84359750D01*
X147305250Y-84201000D01*
X146431000Y-84201000D01*
X146177000Y-84201000D01*
X146157000Y-84201000D01*
X146157000Y-83947000D01*
X146177000Y-83947000D01*
X146177000Y-83122750D01*
X146431000Y-83122750D01*
X146431000Y-83947000D01*
X147305250Y-83947000D01*
X147464000Y-83788250D01*
X147467072Y-83599000D01*
X147454812Y-83474518D01*
X147418502Y-83354820D01*
X147359537Y-83244506D01*
X147280185Y-83147815D01*
X147183494Y-83068463D01*
X147073180Y-83009498D01*
X146953482Y-82973188D01*
X146829000Y-82960928D01*
X146589750Y-82964000D01*
X146431000Y-83122750D01*
X146177000Y-83122750D01*
X146018250Y-82964000D01*
X145866747Y-82962055D01*
X146821877Y-82006925D01*
X146902255Y-81999008D01*
X147068851Y-81948472D01*
X147222387Y-81866405D01*
X147356962Y-81755962D01*
X147467405Y-81621387D01*
X147549472Y-81467851D01*
X147600008Y-81301255D01*
X147607925Y-81220877D01*
X148039457Y-80789345D01*
X148050815Y-80803185D01*
X148147506Y-80882537D01*
X148257820Y-80941502D01*
X148338466Y-80965966D01*
X148254412Y-81041731D01*
X148080359Y-81275080D01*
X147955175Y-81537901D01*
X147910524Y-81685110D01*
X148031845Y-81915000D01*
X149225000Y-81915000D01*
X149225000Y-81895000D01*
X149479000Y-81895000D01*
X149479000Y-81915000D01*
X150672155Y-81915000D01*
X150793476Y-81685110D01*
X150748825Y-81537901D01*
X150623641Y-81275080D01*
X150449588Y-81041731D01*
X150365534Y-80965966D01*
X150446180Y-80941502D01*
X150556494Y-80882537D01*
X150653185Y-80803185D01*
X150732537Y-80706494D01*
X150791502Y-80596180D01*
X150827812Y-80476482D01*
X150840072Y-80352000D01*
X150840072Y-78652000D01*
X150827812Y-78527518D01*
X150791502Y-78407820D01*
X150732537Y-78297506D01*
X150653185Y-78200815D01*
X150556494Y-78121463D01*
X150446180Y-78062498D01*
X150326482Y-78026188D01*
X150202000Y-78013928D01*
X148502000Y-78013928D01*
X148377518Y-78026188D01*
X148257820Y-78062498D01*
X148147506Y-78121463D01*
X148050815Y-78200815D01*
X147971463Y-78297506D01*
X147912498Y-78407820D01*
X147876188Y-78527518D01*
X147863928Y-78652000D01*
X147863928Y-78742000D01*
X147610769Y-78742000D01*
X147617072Y-78678000D01*
X147614000Y-78263750D01*
X147455250Y-78105000D01*
X146431000Y-78105000D01*
X146431000Y-79154250D01*
X146589750Y-79313000D01*
X146594163Y-79313035D01*
X146567270Y-79339928D01*
X145878999Y-79339928D01*
X145705745Y-79356992D01*
X145539149Y-79407528D01*
X145385613Y-79489595D01*
X145251038Y-79600038D01*
X145140595Y-79734613D01*
X145058528Y-79888149D01*
X145046026Y-79929363D01*
X145001000Y-79924928D01*
X144811750Y-79928000D01*
X144653000Y-80086750D01*
X144653000Y-80873500D01*
X144673000Y-80873500D01*
X144673000Y-81127500D01*
X144653000Y-81127500D01*
X144653000Y-81147500D01*
X144399000Y-81147500D01*
X144399000Y-81127500D01*
X143574750Y-81127500D01*
X143416000Y-81286250D01*
X143412928Y-81438000D01*
X143425188Y-81562482D01*
X143461498Y-81682180D01*
X143520463Y-81792494D01*
X143575100Y-81859070D01*
X143557329Y-81880725D01*
X143478150Y-82028858D01*
X143429392Y-82189592D01*
X143412928Y-82356750D01*
X143412928Y-82794250D01*
X143429392Y-82961408D01*
X143478150Y-83122142D01*
X143547568Y-83252013D01*
X143522997Y-83333014D01*
X143517440Y-83389437D01*
X143457577Y-83501433D01*
X143407752Y-83665684D01*
X143390928Y-83836500D01*
X143390928Y-84311500D01*
X143407752Y-84482316D01*
X143457577Y-84646567D01*
X143512001Y-84748388D01*
X143512000Y-90617198D01*
X140909199Y-93220000D01*
X134934802Y-93220000D01*
X134618000Y-92903199D01*
X134618000Y-91818322D01*
X134621676Y-91780999D01*
X134618000Y-91743676D01*
X134618000Y-91743667D01*
X134607003Y-91632014D01*
X134563546Y-91488753D01*
X134539092Y-91443003D01*
X134492974Y-91356723D01*
X134421799Y-91269997D01*
X134398001Y-91240999D01*
X134369004Y-91217202D01*
X133826803Y-90675002D01*
X133803001Y-90645999D01*
X133687276Y-90551026D01*
X133651072Y-90531674D01*
X133651072Y-90333482D01*
X133739164Y-90315960D01*
X133927522Y-90237939D01*
X134097040Y-90124671D01*
X134241203Y-89980508D01*
X134354471Y-89810990D01*
X134432492Y-89622632D01*
X134472266Y-89422673D01*
X134472266Y-89218795D01*
X134432492Y-89018836D01*
X134354471Y-88830478D01*
X134241203Y-88660960D01*
X134097040Y-88516797D01*
X133973236Y-88434074D01*
X134013205Y-88374256D01*
X134091226Y-88185898D01*
X134131000Y-87985939D01*
X134131000Y-87782061D01*
X134091226Y-87582102D01*
X134013205Y-87393744D01*
X133899937Y-87224226D01*
X133755774Y-87080063D01*
X133586256Y-86966795D01*
X133397898Y-86888774D01*
X133197939Y-86849000D01*
X132994061Y-86849000D01*
X132794102Y-86888774D01*
X132605744Y-86966795D01*
X132436226Y-87080063D01*
X132392289Y-87124000D01*
X131886802Y-87124000D01*
X131631572Y-86868770D01*
X131631572Y-86611750D01*
X131615108Y-86444592D01*
X131566350Y-86283858D01*
X131487171Y-86135725D01*
X131380615Y-86005885D01*
X131250775Y-85899329D01*
X131102642Y-85820150D01*
X130941908Y-85771392D01*
X130774750Y-85754928D01*
X130337250Y-85754928D01*
X130170092Y-85771392D01*
X130009358Y-85820150D01*
X129861225Y-85899329D01*
X129839570Y-85917100D01*
X129772994Y-85862463D01*
X129662680Y-85803498D01*
X129542982Y-85767188D01*
X129418500Y-85754928D01*
X129266750Y-85758000D01*
X129108000Y-85916750D01*
X129108000Y-86741000D01*
X129128000Y-86741000D01*
X129128000Y-86995000D01*
X129108000Y-86995000D01*
X129108000Y-88265000D01*
X129128000Y-88265000D01*
X129128000Y-88519000D01*
X129108000Y-88519000D01*
X129108000Y-89343250D01*
X129159000Y-89394250D01*
X129159000Y-89789000D01*
X129179000Y-89789000D01*
X129179000Y-90043000D01*
X129159000Y-90043000D01*
X129159000Y-90063000D01*
X128905000Y-90063000D01*
X128905000Y-90043000D01*
X128118250Y-90043000D01*
X127959500Y-90201750D01*
X127956428Y-90391000D01*
X127963988Y-90467762D01*
X127889000Y-90542750D01*
X127635000Y-90542750D01*
X127476250Y-90384000D01*
X127062000Y-90380928D01*
X126937518Y-90393188D01*
X126817820Y-90429498D01*
X126707506Y-90488463D01*
X126610815Y-90567815D01*
X126531463Y-90664506D01*
X126472498Y-90774820D01*
X126436188Y-90894518D01*
X126423928Y-91019000D01*
X125145000Y-91019000D01*
X125145000Y-88867000D01*
X127905428Y-88867000D01*
X127917688Y-88991482D01*
X127953998Y-89111180D01*
X128003107Y-89203055D01*
X127968688Y-89316518D01*
X127956428Y-89441000D01*
X127959500Y-89630250D01*
X128118250Y-89789000D01*
X128905000Y-89789000D01*
X128905000Y-88964750D01*
X128854000Y-88913750D01*
X128854000Y-88519000D01*
X128067250Y-88519000D01*
X127908500Y-88677750D01*
X127905428Y-88867000D01*
X125145000Y-88867000D01*
X125145000Y-87343000D01*
X127905428Y-87343000D01*
X127917688Y-87467482D01*
X127953998Y-87587180D01*
X127976886Y-87630000D01*
X127953998Y-87672820D01*
X127917688Y-87792518D01*
X127905428Y-87917000D01*
X127908500Y-88106250D01*
X128067250Y-88265000D01*
X128854000Y-88265000D01*
X128854000Y-86995000D01*
X128067250Y-86995000D01*
X127908500Y-87153750D01*
X127905428Y-87343000D01*
X125145000Y-87343000D01*
X125145000Y-86393000D01*
X127905428Y-86393000D01*
X127908500Y-86582250D01*
X128067250Y-86741000D01*
X128854000Y-86741000D01*
X128854000Y-85916750D01*
X128695250Y-85758000D01*
X128543500Y-85754928D01*
X128419018Y-85767188D01*
X128299320Y-85803498D01*
X128189006Y-85862463D01*
X128092315Y-85941815D01*
X128012963Y-86038506D01*
X127953998Y-86148820D01*
X127917688Y-86268518D01*
X127905428Y-86393000D01*
X125145000Y-86393000D01*
X125145000Y-80563000D01*
X143412928Y-80563000D01*
X143416000Y-80714750D01*
X143574750Y-80873500D01*
X144399000Y-80873500D01*
X144399000Y-80086750D01*
X144240250Y-79928000D01*
X144051000Y-79924928D01*
X143926518Y-79937188D01*
X143806820Y-79973498D01*
X143696506Y-80032463D01*
X143599815Y-80111815D01*
X143520463Y-80208506D01*
X143461498Y-80318820D01*
X143425188Y-80438518D01*
X143412928Y-80563000D01*
X125145000Y-80563000D01*
X125145000Y-78678000D01*
X144990928Y-78678000D01*
X145003188Y-78802482D01*
X145039498Y-78922180D01*
X145098463Y-79032494D01*
X145177815Y-79129185D01*
X145274506Y-79208537D01*
X145384820Y-79267502D01*
X145504518Y-79303812D01*
X145629000Y-79316072D01*
X146018250Y-79313000D01*
X146177000Y-79154250D01*
X146177000Y-78105000D01*
X145152750Y-78105000D01*
X144994000Y-78263750D01*
X144990928Y-78678000D01*
X125145000Y-78678000D01*
X125145000Y-77278000D01*
X144990928Y-77278000D01*
X144994000Y-77692250D01*
X145152750Y-77851000D01*
X146177000Y-77851000D01*
X146177000Y-76801750D01*
X146431000Y-76801750D01*
X146431000Y-77851000D01*
X147455250Y-77851000D01*
X147614000Y-77692250D01*
X147617072Y-77278000D01*
X147604812Y-77153518D01*
X147568502Y-77033820D01*
X147509537Y-76923506D01*
X147430185Y-76826815D01*
X147333494Y-76747463D01*
X147223180Y-76688498D01*
X147103482Y-76652188D01*
X146979000Y-76639928D01*
X146589750Y-76643000D01*
X146431000Y-76801750D01*
X146177000Y-76801750D01*
X146018250Y-76643000D01*
X145629000Y-76639928D01*
X145504518Y-76652188D01*
X145384820Y-76688498D01*
X145274506Y-76747463D01*
X145177815Y-76826815D01*
X145098463Y-76923506D01*
X145039498Y-77033820D01*
X145003188Y-77153518D01*
X144990928Y-77278000D01*
X125145000Y-77278000D01*
X125145000Y-76631000D01*
X154255001Y-76631000D01*
X154255000Y-98375000D01*
M02*
