EESchema Schematic File Version 4
LIBS:jazzgoth-cache
EELAYER 29 0
EELAYER END
$Descr A4 11693 8268
encoding utf-8
Sheet 1 1
Title ""
Date ""
Rev ""
Comp ""
Comment1 ""
Comment2 ""
Comment3 ""
Comment4 ""
$EndDescr
Text GLabel 6400 1200 2    50   Input ~ 0
3v3
Text GLabel 3850 1200 1    50   Input ~ 0
3v3
Wire Wire Line
	3100 1550 3200 1550
Wire Wire Line
	3300 1550 3200 1550
Connection ~ 3200 1550
Wire Wire Line
	3400 1550 3300 1550
Connection ~ 3300 1550
Connection ~ 3400 1550
Wire Wire Line
	3850 1550 3850 1200
Wire Wire Line
	3400 1550 3850 1550
Wire Wire Line
	3000 5050 3100 5050
Wire Wire Line
	3200 5050 3100 5050
Connection ~ 3100 5050
Wire Wire Line
	3300 5050 3200 5050
Connection ~ 3200 5050
Wire Wire Line
	3400 5050 3300 5050
Connection ~ 3300 5050
$Comp
L MCU_ST_STM32F4:STM32F401RCTx U1
U 1 1 5CA2458B
P 3200 3250
F 0 "U1" H 3150 5131 50  0000 C CNN
F 1 "STM32F401RCTx" H 3150 5040 50  0000 C CNN
F 2 "Package_QFP:LQFP-64_10x10mm_P0.5mm" H 2600 1550 50  0001 R CNN
F 3 "http://www.st.com/st-web-ui/static/active/en/resource/technical/document/datasheet/DM00086815.pdf" H 3200 3250 50  0001 C CNN
	1    3200 3250
	1    0    0    -1  
$EndComp
Wire Wire Line
	3400 5050 3450 5050
Wire Wire Line
	3450 5050 3450 5150
Connection ~ 3400 5050
$Comp
L power:GND #PWR018
U 1 1 5CA3AC12
P 5550 1600
F 0 "#PWR018" H 5550 1350 50  0001 C CNN
F 1 "GND" H 5555 1427 50  0000 C CNN
F 2 "" H 5550 1600 50  0001 C CNN
F 3 "" H 5550 1600 50  0001 C CNN
	1    5550 1600
	1    0    0    -1  
$EndComp
$Comp
L Device:C C3
U 1 1 5CA3C1E2
P 5000 1400
F 0 "C3" H 4885 1354 50  0000 R CNN
F 1 "10uF" H 4885 1445 50  0000 R CNN
F 2 "Capacitor_SMD:C_0603_1608Metric_Pad1.05x0.95mm_HandSolder" H 5038 1250 50  0001 C CNN
F 3 "~" H 5000 1400 50  0001 C CNN
	1    5000 1400
	-1   0    0    1   
$EndComp
$Comp
L power:+12V #PWR06
U 1 1 5CA3B487
P 2350 750
F 0 "#PWR06" H 2350 600 50  0001 C CNN
F 1 "+12V" H 2365 923 50  0000 C CNN
F 2 "" H 2350 750 50  0001 C CNN
F 3 "" H 2350 750 50  0001 C CNN
	1    2350 750 
	-1   0    0    1   
$EndComp
$Comp
L Regulator_Linear:LM1117-3.3 U3
U 1 1 5CA3804E
P 5550 1200
F 0 "U3" H 5550 1442 50  0000 C CNN
F 1 "LM1117-3.3" H 5550 1351 50  0000 C CNN
F 2 "LM1117DT-3.3:TO228P970X238-3N" H 5550 1200 50  0001 C CNN
F 3 "http://www.ti.com/lit/ds/symlink/lm1117.pdf" H 5550 1200 50  0001 C CNN
	1    5550 1200
	1    0    0    -1  
$EndComp
$Comp
L Device:C C7
U 1 1 5CA44B39
P 6100 1350
F 0 "C7" H 5985 1304 50  0000 R CNN
F 1 "100uF" H 5985 1395 50  0000 R CNN
F 2 "Capacitor_SMD:C_0603_1608Metric_Pad1.05x0.95mm_HandSolder" H 6138 1200 50  0001 C CNN
F 3 "~" H 6100 1350 50  0001 C CNN
	1    6100 1350
	-1   0    0    1   
$EndComp
Wire Wire Line
	5000 1200 5250 1200
Wire Wire Line
	5000 1200 5000 1250
Wire Wire Line
	5550 1500 5550 1600
Connection ~ 5550 1600
Wire Wire Line
	5000 1550 5000 1600
Wire Wire Line
	5000 1600 5550 1600
Wire Wire Line
	6100 1600 6100 1500
Wire Wire Line
	5550 1600 6100 1600
Wire Wire Line
	5850 1200 6100 1200
Wire Wire Line
	6400 1200 6100 1200
Connection ~ 6100 1200
$Comp
L Device:C C1
U 1 1 5CA4CEF2
P 2000 2150
F 0 "C1" V 2252 2150 50  0000 C CNN
F 1 "2.2uF" V 2161 2150 50  0000 C CNN
F 2 "Capacitor_SMD:C_0603_1608Metric_Pad1.05x0.95mm_HandSolder" H 2038 2000 50  0001 C CNN
F 3 "~" H 2000 2150 50  0001 C CNN
	1    2000 2150
	0    -1   -1   0   
$EndComp
Wire Wire Line
	2150 2150 2500 2150
$Comp
L power:GND #PWR05
U 1 1 5CA4ECA5
P 1850 2150
F 0 "#PWR05" H 1850 1900 50  0001 C CNN
F 1 "GND" H 1855 1977 50  0000 C CNN
F 2 "" H 1850 2150 50  0001 C CNN
F 3 "" H 1850 2150 50  0001 C CNN
	1    1850 2150
	1    0    0    -1  
$EndComp
Wire Wire Line
	1850 1950 1850 2150
Connection ~ 1850 2150
Wire Wire Line
	3000 1550 3100 1550
Connection ~ 3100 1550
$Comp
L power:GND #PWR010
U 1 1 5CA523DA
P 3450 5150
F 0 "#PWR010" H 3450 4900 50  0001 C CNN
F 1 "GND" H 3455 4977 50  0000 C CNN
F 2 "" H 3450 5150 50  0001 C CNN
F 3 "" H 3450 5150 50  0001 C CNN
	1    3450 5150
	1    0    0    -1  
$EndComp
Wire Wire Line
	1850 1950 2500 1950
Text GLabel 2500 2250 3    50   Input ~ 0
3v3
$Comp
L Device:R R8
U 1 1 5CA537A0
P 6250 950
F 0 "R8" H 6320 996 50  0000 L CNN
F 1 "47k" H 6320 905 50  0000 L CNN
F 2 "Resistor_SMD:R_0603_1608Metric_Pad1.05x0.95mm_HandSolder" V 6180 950 50  0001 C CNN
F 3 "~" H 6250 950 50  0001 C CNN
	1    6250 950 
	0    -1   -1   0   
$EndComp
$Comp
L Device:R R7
U 1 1 5CA5403B
P 6100 800
F 0 "R7" V 5893 800 50  0000 C CNN
F 1 "47k" V 5984 800 50  0000 C CNN
F 2 "Resistor_SMD:R_0603_1608Metric_Pad1.05x0.95mm_HandSolder" V 6030 800 50  0001 C CNN
F 3 "~" H 6100 800 50  0001 C CNN
	1    6100 800 
	1    0    0    -1  
$EndComp
$Comp
L power:GND #PWR025
U 1 1 5CA5458E
P 6400 950
F 0 "#PWR025" H 6400 700 50  0001 C CNN
F 1 "GND" H 6405 777 50  0000 C CNN
F 2 "" H 6400 950 50  0001 C CNN
F 3 "" H 6400 950 50  0001 C CNN
	1    6400 950 
	0    -1   -1   0   
$EndComp
Text GLabel 6100 650  1    50   Input ~ 0
1v5
Text GLabel 3800 1850 2    50   Input ~ 0
MIC1
Text GLabel 3800 1750 2    50   Input ~ 0
MIC2
Text GLabel 2500 3650 0    50   Input ~ 0
MIC3
Text GLabel 2500 3550 0    50   Input ~ 0
MIC4
Text GLabel 2500 3450 0    50   Input ~ 0
MIC5
Text GLabel 2500 3350 0    50   Input ~ 0
MIC6
$Comp
L Connector_Generic:Conn_01x04 J6
U 1 1 5CB33F6B
P 4850 2150
F 0 "J6" H 4930 2142 50  0000 L CNN
F 1 "Conn_01x04" H 4930 2051 50  0000 L CNN
F 2 "Connector_PinHeader_2.54mm:PinHeader_1x04_P2.54mm_Horizontal" H 4850 2150 50  0001 C CNN
F 3 "~" H 4850 2150 50  0001 C CNN
	1    4850 2150
	1    0    0    -1  
$EndComp
Text GLabel 4650 2050 0    50   Input ~ 0
Rx
Text GLabel 4650 2150 0    50   Input ~ 0
Tx
Text GLabel 4650 2250 0    50   Input ~ 0
3v3
$Comp
L power:GND #PWR013
U 1 1 5CB3AD9D
P 4650 2350
F 0 "#PWR013" H 4650 2100 50  0001 C CNN
F 1 "GND" H 4655 2177 50  0000 C CNN
F 2 "" H 4650 2350 50  0001 C CNN
F 3 "" H 4650 2350 50  0001 C CNN
	1    4650 2350
	1    0    0    -1  
$EndComp
Text GLabel 2500 4050 0    50   Input ~ 0
Tx
Text GLabel 2500 4150 0    50   Input ~ 0
Rx
Text GLabel 3800 2550 2    50   Input ~ 0
MotR_PWM
Text GLabel 3800 2650 2    50   Input ~ 0
MotL_PWM
Text GLabel 3800 2450 2    50   Input ~ 0
MotL_1
Text GLabel 3800 2350 2    50   Input ~ 0
MotL_2
Text GLabel 3800 2750 2    50   Input ~ 0
MotR_1
Text GLabel 3800 2850 2    50   Input ~ 0
MotR_2
Text GLabel 3800 3050 2    50   Input ~ 0
SWDIO
Text GLabel 3800 3150 2    50   Input ~ 0
SWDCLK
Text GLabel 3800 4150 2    50   Input ~ 0
I2C1_SDA
Text GLabel 3800 4050 2    50   Input ~ 0
I2C1_SCL
Text GLabel 3800 4450 2    50   Input ~ 0
I2C2_SCL
$Comp
L power:GND #PWR016
U 1 1 5CB49687
P 5250 2900
F 0 "#PWR016" H 5250 2650 50  0001 C CNN
F 1 "GND" H 5255 2727 50  0000 C CNN
F 2 "" H 5250 2900 50  0001 C CNN
F 3 "" H 5250 2900 50  0001 C CNN
	1    5250 2900
	-1   0    0    1   
$EndComp
Text GLabel 5250 4900 3    50   Input ~ 0
3v3
Text GLabel 4950 4100 0    50   Input ~ 0
MotL_PWM
Text GLabel 4950 4000 0    50   Input ~ 0
MotR_PWM
Text GLabel 4950 3700 0    50   Input ~ 0
MotL_1
Text GLabel 4950 3800 0    50   Input ~ 0
MotL_2
Text GLabel 4950 3600 0    50   Input ~ 0
MotR_1
Text GLabel 4950 3500 0    50   Input ~ 0
MotR_2
Wire Wire Line
	6150 4000 6150 4100
Wire Wire Line
	6150 4200 6150 4300
Wire Wire Line
	6150 3800 6150 3700
Wire Wire Line
	6150 3600 6150 3500
$Comp
L Connector_Generic:Conn_01x02 J8
U 1 1 5CB59E2E
P 6450 3600
F 0 "J8" H 6530 3592 50  0000 L CNN
F 1 "Conn_01x02" H 6530 3501 50  0000 L CNN
F 2 "Connector_PinHeader_2.54mm:PinHeader_1x02_P2.54mm_Vertical" H 6450 3600 50  0001 C CNN
F 3 "~" H 6450 3600 50  0001 C CNN
	1    6450 3600
	1    0    0    -1  
$EndComp
$Comp
L Connector_Generic:Conn_01x02 J9
U 1 1 5CB5B37D
P 6450 4100
F 0 "J9" H 6530 4092 50  0000 L CNN
F 1 "Conn_01x02" H 6530 4001 50  0000 L CNN
F 2 "Connector_PinHeader_2.54mm:PinHeader_1x02_P2.54mm_Vertical" H 6450 4100 50  0001 C CNN
F 3 "~" H 6450 4100 50  0001 C CNN
	1    6450 4100
	1    0    0    -1  
$EndComp
Text GLabel 4950 4300 0    50   Input ~ 0
3v3
$Comp
L Device:LED D1
U 1 1 5CAED5A7
P 3050 750
F 0 "D1" H 3043 495 50  0000 C CNN
F 1 "LED" H 3043 586 50  0000 C CNN
F 2 "Diode_SMD:D_0805_2012Metric" H 3050 750 50  0001 C CNN
F 3 "~" H 3050 750 50  0001 C CNN
	1    3050 750 
	-1   0    0    1   
$EndComp
$Comp
L Switch:SW_DIP_x01 SW1
U 1 1 5CB03141
P 2050 750
F 0 "SW1" H 2050 1017 50  0000 C CNN
F 1 "SW_DIP_x01" H 2050 926 50  0000 C CNN
F 2 "Connector_PinSocket_2.54mm:PinSocket_1x02_P2.54mm_Horizontal" H 2050 750 50  0001 C CNN
F 3 "~" H 2050 750 50  0001 C CNN
	1    2050 750 
	1    0    0    -1  
$EndComp
Wire Wire Line
	6100 1200 6100 1250
Wire Wire Line
	6100 950  6100 1200
Connection ~ 6100 950 
Wire Wire Line
	1500 750  1750 750 
$Comp
L Device:R R5
U 1 1 5CB2E57C
P 2750 750
F 0 "R5" V 2543 750 50  0000 C CNN
F 1 "680R" V 2634 750 50  0000 C CNN
F 2 "Resistor_SMD:R_0603_1608Metric_Pad1.05x0.95mm_HandSolder" V 2680 750 50  0001 C CNN
F 3 "~" H 2750 750 50  0001 C CNN
	1    2750 750 
	0    1    1    0   
$EndComp
$Comp
L power:GND #PWR08
U 1 1 5CB3AC06
P 3200 750
F 0 "#PWR08" H 3200 500 50  0001 C CNN
F 1 "GND" H 3205 577 50  0000 C CNN
F 2 "" H 3200 750 50  0001 C CNN
F 3 "" H 3200 750 50  0001 C CNN
	1    3200 750 
	0    -1   -1   0   
$EndComp
Wire Wire Line
	2600 750  2350 750 
Connection ~ 5000 1200
Wire Wire Line
	5000 700  5000 1200
Connection ~ 5750 2900
Wire Wire Line
	5750 2900 5850 2900
Wire Wire Line
	5650 2900 5750 2900
Connection ~ 5750 4900
Wire Wire Line
	5750 4900 5650 4900
Wire Wire Line
	5850 4900 5750 4900
$Comp
L Driver_Motor:TB6612FNG U4
U 1 1 5CB45987
P 5550 3900
F 0 "U4" H 5550 5081 50  0000 C CNN
F 1 "TB6612FNG" H 5550 4990 50  0000 C CNN
F 2 "Package_SO:SSOP-24_5.3x8.2mm_P0.65mm" H 6000 4500 50  0001 C CNN
F 3 "https://toshiba.semicon-storage.com/us/product/linear/motordriver/detail.TB6612FNG.html" H 6000 4500 50  0001 C CNN
	1    5550 3900
	1    0    0    1   
$EndComp
Text GLabel 3800 3750 2    50   Input ~ 0
I2C2_SDA
$Comp
L Device:R R4
U 1 1 5CB4D93A
P 2050 5050
F 0 "R4" H 2120 5096 50  0000 L CNN
F 1 "200R" H 2120 5005 50  0000 L CNN
F 2 "Resistor_SMD:R_0603_1608Metric_Pad1.05x0.95mm_HandSolder" V 1980 5050 50  0001 C CNN
F 3 "~" H 2050 5050 50  0001 C CNN
	1    2050 5050
	1    0    0    -1  
$EndComp
$Comp
L Device:R R3
U 1 1 5CB5398F
P 1800 5050
F 0 "R3" H 1870 5096 50  0000 L CNN
F 1 "200R" H 1870 5005 50  0000 L CNN
F 2 "Resistor_SMD:R_0603_1608Metric_Pad1.05x0.95mm_HandSolder" V 1730 5050 50  0001 C CNN
F 3 "~" H 1800 5050 50  0001 C CNN
	1    1800 5050
	1    0    0    -1  
$EndComp
Wire Wire Line
	1800 5200 1800 5300
Wire Wire Line
	1800 5300 2050 5300
Wire Wire Line
	2050 5300 2050 5200
Text GLabel 2050 5300 3    50   Input ~ 0
3v3
Text GLabel 1800 4900 1    50   Input ~ 0
I2C1_SCL
Text GLabel 2050 4900 1    50   Input ~ 0
I2C1_SDA
Text GLabel 1400 4900 1    50   Input ~ 0
I2C2_SDA
Text GLabel 1150 4900 1    50   Input ~ 0
I2C2_SCL
$Comp
L Device:R R2
U 1 1 5CB59E9D
P 1400 5050
F 0 "R2" H 1470 5096 50  0000 L CNN
F 1 "200R" H 1470 5005 50  0000 L CNN
F 2 "Resistor_SMD:R_0603_1608Metric_Pad1.05x0.95mm_HandSolder" V 1330 5050 50  0001 C CNN
F 3 "~" H 1400 5050 50  0001 C CNN
	1    1400 5050
	1    0    0    -1  
$EndComp
$Comp
L Device:R R1
U 1 1 5CB59EA7
P 1150 5050
F 0 "R1" H 1220 5096 50  0000 L CNN
F 1 "200R" H 1220 5005 50  0000 L CNN
F 2 "Resistor_SMD:R_0603_1608Metric_Pad1.05x0.95mm_HandSolder" V 1080 5050 50  0001 C CNN
F 3 "~" H 1150 5050 50  0001 C CNN
	1    1150 5050
	1    0    0    -1  
$EndComp
Wire Wire Line
	1150 5200 1150 5300
Wire Wire Line
	1150 5300 1400 5300
Wire Wire Line
	1400 5300 1400 5200
Text GLabel 1400 5300 3    50   Input ~ 0
3v3
Text GLabel 600  6800 3    50   Input ~ 0
3v3
$Comp
L power:GND #PWR01
U 1 1 5CB64432
P 700 6800
F 0 "#PWR01" H 700 6550 50  0001 C CNN
F 1 "GND" H 705 6627 50  0000 C CNN
F 2 "" H 700 6800 50  0001 C CNN
F 3 "" H 700 6800 50  0001 C CNN
	1    700  6800
	1    0    0    -1  
$EndComp
Text GLabel 800  6800 3    50   Input ~ 0
I2C2_SCL
Text GLabel 900  6800 3    50   Input ~ 0
I2C2_SDA
Text Notes 1450 4350 0    50   ~ 0
I2C Pullup\n
Text Notes 2900 1250 0    50   ~ 0
Microcontroller\n
Text Notes 5150 600  0    50   ~ 0
Power
Text Notes 4750 1900 0    50   ~ 0
Bluetooth
Text Notes 5400 2600 0    50   ~ 0
Motor driver
Text GLabel 1150 6800 3    50   Input ~ 0
3v3
$Comp
L power:GND #PWR03
U 1 1 5CB76E4C
P 1250 6800
F 0 "#PWR03" H 1250 6550 50  0001 C CNN
F 1 "GND" H 1255 6627 50  0000 C CNN
F 2 "" H 1250 6800 50  0001 C CNN
F 3 "" H 1250 6800 50  0001 C CNN
	1    1250 6800
	1    0    0    -1  
$EndComp
Text GLabel 1350 6800 3    50   Input ~ 0
I2C2_SCL
Text GLabel 1450 6800 3    50   Input ~ 0
I2C2_SDA
Text GLabel 1700 6800 3    50   Input ~ 0
3v3
$Comp
L power:GND #PWR04
U 1 1 5CB7B77E
P 1800 6800
F 0 "#PWR04" H 1800 6550 50  0001 C CNN
F 1 "GND" H 1805 6627 50  0000 C CNN
F 2 "" H 1800 6800 50  0001 C CNN
F 3 "" H 1800 6800 50  0001 C CNN
	1    1800 6800
	1    0    0    -1  
$EndComp
Text GLabel 1900 6800 3    50   Input ~ 0
I2C2_SCL
Text GLabel 2000 6800 3    50   Input ~ 0
I2C2_SDA
$Comp
L Connector_Generic:Conn_01x04 J4
U 1 1 5CB7FF69
P 2800 5800
F 0 "J4" V 2764 5512 50  0000 R CNN
F 1 "Conn_01x04" V 2673 5512 50  0000 R CNN
F 2 "Connector_PinSocket_2.00mm:PinSocket_1x04_P2.00mm_Horizontal" H 2800 5800 50  0001 C CNN
F 3 "~" H 2800 5800 50  0001 C CNN
	1    2800 5800
	0    -1   -1   0   
$EndComp
$Comp
L power:GND #PWR07
U 1 1 5CB7FF74
P 2800 6000
F 0 "#PWR07" H 2800 5750 50  0001 C CNN
F 1 "GND" H 2805 5827 50  0000 C CNN
F 2 "" H 2800 6000 50  0001 C CNN
F 3 "" H 2800 6000 50  0001 C CNN
	1    2800 6000
	1    0    0    -1  
$EndComp
Text GLabel 2900 6000 3    50   Input ~ 0
I2C1_SCL
Text GLabel 3000 6000 3    50   Input ~ 0
I2C1_SDA
Text Notes 2950 5700 0    50   ~ 0
Encoders
$Comp
L Connector_Generic:Conn_01x04 J5
U 1 1 5CB873B2
P 3350 5800
F 0 "J5" V 3314 5512 50  0000 R CNN
F 1 "Conn_01x04" V 3223 5512 50  0000 R CNN
F 2 "Connector_PinSocket_2.00mm:PinSocket_1x04_P2.00mm_Horizontal" H 3350 5800 50  0001 C CNN
F 3 "~" H 3350 5800 50  0001 C CNN
	1    3350 5800
	0    -1   -1   0   
$EndComp
$Comp
L power:GND #PWR09
U 1 1 5CB873BD
P 3350 6000
F 0 "#PWR09" H 3350 5750 50  0001 C CNN
F 1 "GND" H 3355 5827 50  0000 C CNN
F 2 "" H 3350 6000 50  0001 C CNN
F 3 "" H 3350 6000 50  0001 C CNN
	1    3350 6000
	1    0    0    -1  
$EndComp
Text GLabel 3450 6000 3    50   Input ~ 0
I2C1_SCL
Text GLabel 3550 6000 3    50   Input ~ 0
I2C1_SDA
Connection ~ 6150 3600
Wire Wire Line
	6250 3600 6150 3600
Wire Wire Line
	6250 3700 6150 3700
Connection ~ 6150 3700
Wire Wire Line
	6300 4100 6250 4100
Connection ~ 6150 4100
Wire Wire Line
	6300 4200 6250 4200
Connection ~ 6150 4200
$Comp
L Device:Battery BT1
U 1 1 5CC4D72D
P 1300 750
F 0 "BT1" V 1055 750 50  0000 C CNN
F 1 "Battery" V 1146 750 50  0000 C CNN
F 2 "Connector_PinHeader_2.54mm:PinHeader_1x02_P2.54mm_Vertical" V 1300 810 50  0001 C CNN
F 3 "~" V 1300 810 50  0001 C CNN
	1    1300 750 
	0    1    1    0   
$EndComp
$Comp
L power:GND #PWR02
U 1 1 5CC62801
P 1100 750
F 0 "#PWR02" H 1100 500 50  0001 C CNN
F 1 "GND" V 1105 622 50  0000 R CNN
F 2 "" H 1100 750 50  0001 C CNN
F 3 "" H 1100 750 50  0001 C CNN
	1    1100 750 
	0    1    1    0   
$EndComp
Connection ~ 2350 750 
NoConn ~ 2500 1750
NoConn ~ 2500 2850
NoConn ~ 2500 2950
NoConn ~ 2500 3150
NoConn ~ 2500 3750
NoConn ~ 2500 3850
NoConn ~ 2500 3950
NoConn ~ 2500 4250
NoConn ~ 2500 4350
NoConn ~ 2500 4450
NoConn ~ 2500 4550
NoConn ~ 2500 4650
NoConn ~ 2500 4750
NoConn ~ 2500 4850
NoConn ~ 3800 4850
NoConn ~ 3800 4750
NoConn ~ 3800 4650
NoConn ~ 3800 4550
NoConn ~ 3800 4350
NoConn ~ 3800 4250
NoConn ~ 3800 3950
NoConn ~ 3800 3250
NoConn ~ 3800 2950
Text GLabel 3800 3850 2    50   Input ~ 0
RGB
$Comp
L Regulator_Linear:LM317_3PinPackage U2
U 1 1 5CCC020B
P 4400 800
F 0 "U2" H 4400 1042 50  0000 C CNN
F 1 "LM317_3PinPackage" H 4400 951 50  0000 C CNN
F 2 "Package_TO_SOT_SMD:TO-263-3_TabPin2" H 4400 1050 50  0001 C CIN
F 3 "http://www.ti.com/lit/ds/symlink/lm317.pdf" H 4400 800 50  0001 C CNN
	1    4400 800 
	1    0    0    -1  
$EndComp
Text GLabel 4700 800  2    50   Input ~ 0
5v
Text GLabel 5000 700  1    50   Input ~ 0
5v
$Comp
L power:GND #PWR012
U 1 1 5CCC5B0A
P 4400 1100
F 0 "#PWR012" H 4400 850 50  0001 C CNN
F 1 "GND" H 4405 927 50  0000 C CNN
F 2 "" H 4400 1100 50  0001 C CNN
F 3 "" H 4400 1100 50  0001 C CNN
	1    4400 1100
	1    0    0    -1  
$EndComp
$Comp
L power:+12V #PWR011
U 1 1 5CCC7066
P 4100 800
F 0 "#PWR011" H 4100 650 50  0001 C CNN
F 1 "+12V" H 4115 973 50  0000 C CNN
F 2 "" H 4100 800 50  0001 C CNN
F 3 "" H 4100 800 50  0001 C CNN
	1    4100 800 
	-1   0    0    1   
$EndComp
$Comp
L LED:WS2812B D2
U 1 1 5CCC8F82
P 4650 6000
F 0 "D2" H 4994 6046 50  0000 L CNN
F 1 "WS2812B" H 4994 5955 50  0000 L CNN
F 2 "LED_SMD:LED_WS2812B_PLCC4_5.0x5.0mm_P3.2mm" H 4700 5700 50  0001 L TNN
F 3 "https://cdn-shop.adafruit.com/datasheets/WS2812B.pdf" H 4750 5625 50  0001 L TNN
	1    4650 6000
	1    0    0    -1  
$EndComp
Text GLabel 4650 5550 1    50   Input ~ 0
5v
$Comp
L power:GND #PWR014
U 1 1 5CCCE024
P 4650 6300
F 0 "#PWR014" H 4650 6050 50  0001 C CNN
F 1 "GND" H 4655 6127 50  0000 C CNN
F 2 "" H 4650 6300 50  0001 C CNN
F 3 "" H 4650 6300 50  0001 C CNN
	1    4650 6300
	1    0    0    -1  
$EndComp
$Comp
L Device:C C2
U 1 1 5CCD12BF
P 4800 5650
F 0 "C2" V 5052 5650 50  0000 C CNN
F 1 "10uF" V 4961 5650 50  0000 C CNN
F 2 "Capacitor_SMD:C_0603_1608Metric_Pad1.05x0.95mm_HandSolder" H 4838 5500 50  0001 C CNN
F 3 "~" H 4800 5650 50  0001 C CNN
	1    4800 5650
	0    -1   -1   0   
$EndComp
Wire Wire Line
	4650 5550 4650 5650
Wire Wire Line
	4650 5700 4650 5650
Connection ~ 4650 5650
$Comp
L power:GND #PWR015
U 1 1 5CCD7B77
P 4950 5650
F 0 "#PWR015" H 4950 5400 50  0001 C CNN
F 1 "GND" H 4955 5477 50  0000 C CNN
F 2 "" H 4950 5650 50  0001 C CNN
F 3 "" H 4950 5650 50  0001 C CNN
	1    4950 5650
	1    0    0    -1  
$EndComp
Text GLabel 4050 6000 0    50   Input ~ 0
RGB
$Comp
L LED:WS2812B D3
U 1 1 5CCDA157
P 5250 6000
F 0 "D3" H 5594 6046 50  0000 L CNN
F 1 "WS2812B" H 5594 5955 50  0000 L CNN
F 2 "LED_SMD:LED_WS2812B_PLCC4_5.0x5.0mm_P3.2mm" H 5300 5700 50  0001 L TNN
F 3 "https://cdn-shop.adafruit.com/datasheets/WS2812B.pdf" H 5350 5625 50  0001 L TNN
	1    5250 6000
	1    0    0    -1  
$EndComp
Text GLabel 5250 5550 1    50   Input ~ 0
5v
$Comp
L power:GND #PWR017
U 1 1 5CCDA162
P 5250 6300
F 0 "#PWR017" H 5250 6050 50  0001 C CNN
F 1 "GND" H 5255 6127 50  0000 C CNN
F 2 "" H 5250 6300 50  0001 C CNN
F 3 "" H 5250 6300 50  0001 C CNN
	1    5250 6300
	1    0    0    -1  
$EndComp
$Comp
L Device:C C4
U 1 1 5CCDA16C
P 5400 5650
F 0 "C4" V 5652 5650 50  0000 C CNN
F 1 "10uF" V 5561 5650 50  0000 C CNN
F 2 "Capacitor_SMD:C_0603_1608Metric_Pad1.05x0.95mm_HandSolder" H 5438 5500 50  0001 C CNN
F 3 "~" H 5400 5650 50  0001 C CNN
	1    5400 5650
	0    -1   -1   0   
$EndComp
Wire Wire Line
	5250 5550 5250 5650
Wire Wire Line
	5250 5700 5250 5650
Connection ~ 5250 5650
$Comp
L power:GND #PWR019
U 1 1 5CCDA179
P 5550 5650
F 0 "#PWR019" H 5550 5400 50  0001 C CNN
F 1 "GND" H 5555 5477 50  0000 C CNN
F 2 "" H 5550 5650 50  0001 C CNN
F 3 "" H 5550 5650 50  0001 C CNN
	1    5550 5650
	1    0    0    -1  
$EndComp
$Comp
L LED:WS2812B D4
U 1 1 5CCE023F
P 5850 6000
F 0 "D4" H 6194 6046 50  0000 L CNN
F 1 "WS2812B" H 6194 5955 50  0000 L CNN
F 2 "LED_SMD:LED_WS2812B_PLCC4_5.0x5.0mm_P3.2mm" H 5900 5700 50  0001 L TNN
F 3 "https://cdn-shop.adafruit.com/datasheets/WS2812B.pdf" H 5950 5625 50  0001 L TNN
	1    5850 6000
	1    0    0    -1  
$EndComp
Text GLabel 5850 5550 1    50   Input ~ 0
5v
$Comp
L power:GND #PWR021
U 1 1 5CCE024A
P 5850 6300
F 0 "#PWR021" H 5850 6050 50  0001 C CNN
F 1 "GND" H 5855 6127 50  0000 C CNN
F 2 "" H 5850 6300 50  0001 C CNN
F 3 "" H 5850 6300 50  0001 C CNN
	1    5850 6300
	1    0    0    -1  
$EndComp
$Comp
L Device:C C5
U 1 1 5CCE0254
P 6000 5650
F 0 "C5" V 6252 5650 50  0000 C CNN
F 1 "10uF" V 6161 5650 50  0000 C CNN
F 2 "Capacitor_SMD:C_0603_1608Metric_Pad1.05x0.95mm_HandSolder" H 6038 5500 50  0001 C CNN
F 3 "~" H 6000 5650 50  0001 C CNN
	1    6000 5650
	0    -1   -1   0   
$EndComp
Wire Wire Line
	5850 5550 5850 5650
Wire Wire Line
	5850 5700 5850 5650
Connection ~ 5850 5650
$Comp
L power:GND #PWR023
U 1 1 5CCE0261
P 6150 5650
F 0 "#PWR023" H 6150 5400 50  0001 C CNN
F 1 "GND" H 6155 5477 50  0000 C CNN
F 2 "" H 6150 5650 50  0001 C CNN
F 3 "" H 6150 5650 50  0001 C CNN
	1    6150 5650
	1    0    0    -1  
$EndComp
$Comp
L LED:WS2812B D6
U 1 1 5CCE026B
P 6450 6000
F 0 "D6" H 6794 6046 50  0000 L CNN
F 1 "WS2812B" H 6794 5955 50  0000 L CNN
F 2 "LED_SMD:LED_WS2812B_PLCC4_5.0x5.0mm_P3.2mm" H 6500 5700 50  0001 L TNN
F 3 "https://cdn-shop.adafruit.com/datasheets/WS2812B.pdf" H 6550 5625 50  0001 L TNN
	1    6450 6000
	1    0    0    -1  
$EndComp
Text GLabel 6450 5550 1    50   Input ~ 0
5v
$Comp
L power:GND #PWR026
U 1 1 5CCE0276
P 6450 6300
F 0 "#PWR026" H 6450 6050 50  0001 C CNN
F 1 "GND" H 6455 6127 50  0000 C CNN
F 2 "" H 6450 6300 50  0001 C CNN
F 3 "" H 6450 6300 50  0001 C CNN
	1    6450 6300
	1    0    0    -1  
$EndComp
$Comp
L Device:C C8
U 1 1 5CCE0280
P 6600 5650
F 0 "C8" V 6852 5650 50  0000 C CNN
F 1 "10uF" V 6761 5650 50  0000 C CNN
F 2 "Capacitor_SMD:C_0603_1608Metric_Pad1.05x0.95mm_HandSolder" H 6638 5500 50  0001 C CNN
F 3 "~" H 6600 5650 50  0001 C CNN
	1    6600 5650
	0    -1   -1   0   
$EndComp
Wire Wire Line
	6450 5550 6450 5650
Wire Wire Line
	6450 5700 6450 5650
Connection ~ 6450 5650
$Comp
L power:GND #PWR028
U 1 1 5CCE028D
P 6750 5650
F 0 "#PWR028" H 6750 5400 50  0001 C CNN
F 1 "GND" H 6755 5477 50  0000 C CNN
F 2 "" H 6750 5650 50  0001 C CNN
F 3 "" H 6750 5650 50  0001 C CNN
	1    6750 5650
	1    0    0    -1  
$EndComp
$Comp
L LED:WS2812B D5
U 1 1 5CCF7D5E
P 5850 7200
F 0 "D5" H 6194 7246 50  0000 L CNN
F 1 "WS2812B" H 6194 7155 50  0000 L CNN
F 2 "LED_SMD:LED_WS2812B_PLCC4_5.0x5.0mm_P3.2mm" H 5900 6900 50  0001 L TNN
F 3 "https://cdn-shop.adafruit.com/datasheets/WS2812B.pdf" H 5950 6825 50  0001 L TNN
	1    5850 7200
	1    0    0    -1  
$EndComp
Text GLabel 5850 6750 1    50   Input ~ 0
5v
$Comp
L power:GND #PWR022
U 1 1 5CCF7D69
P 5850 7500
F 0 "#PWR022" H 5850 7250 50  0001 C CNN
F 1 "GND" H 5855 7327 50  0000 C CNN
F 2 "" H 5850 7500 50  0001 C CNN
F 3 "" H 5850 7500 50  0001 C CNN
	1    5850 7500
	1    0    0    -1  
$EndComp
$Comp
L Device:C C6
U 1 1 5CCF7D73
P 6000 6850
F 0 "C6" V 6252 6850 50  0000 C CNN
F 1 "10uF" V 6161 6850 50  0000 C CNN
F 2 "Capacitor_SMD:C_0603_1608Metric_Pad1.05x0.95mm_HandSolder" H 6038 6700 50  0001 C CNN
F 3 "~" H 6000 6850 50  0001 C CNN
	1    6000 6850
	0    -1   -1   0   
$EndComp
Wire Wire Line
	5850 6750 5850 6850
Wire Wire Line
	5850 6900 5850 6850
Connection ~ 5850 6850
$Comp
L power:GND #PWR024
U 1 1 5CCF7D80
P 6150 6850
F 0 "#PWR024" H 6150 6600 50  0001 C CNN
F 1 "GND" H 6155 6677 50  0000 C CNN
F 2 "" H 6150 6850 50  0001 C CNN
F 3 "" H 6150 6850 50  0001 C CNN
	1    6150 6850
	1    0    0    -1  
$EndComp
$Comp
L LED:WS2812B D7
U 1 1 5CCF7D8A
P 6450 7200
F 0 "D7" H 6794 7246 50  0000 L CNN
F 1 "WS2812B" H 6794 7155 50  0000 L CNN
F 2 "LED_SMD:LED_WS2812B_PLCC4_5.0x5.0mm_P3.2mm" H 6500 6900 50  0001 L TNN
F 3 "https://cdn-shop.adafruit.com/datasheets/WS2812B.pdf" H 6550 6825 50  0001 L TNN
	1    6450 7200
	1    0    0    -1  
$EndComp
Text GLabel 6450 6750 1    50   Input ~ 0
5v
$Comp
L power:GND #PWR027
U 1 1 5CCF7D95
P 6450 7500
F 0 "#PWR027" H 6450 7250 50  0001 C CNN
F 1 "GND" H 6455 7327 50  0000 C CNN
F 2 "" H 6450 7500 50  0001 C CNN
F 3 "" H 6450 7500 50  0001 C CNN
	1    6450 7500
	1    0    0    -1  
$EndComp
$Comp
L Device:C C9
U 1 1 5CCF7D9F
P 6600 6850
F 0 "C9" V 6852 6850 50  0000 C CNN
F 1 "10uF" V 6761 6850 50  0000 C CNN
F 2 "Capacitor_SMD:C_0603_1608Metric_Pad1.05x0.95mm_HandSolder" H 6638 6700 50  0001 C CNN
F 3 "~" H 6600 6850 50  0001 C CNN
	1    6600 6850
	0    -1   -1   0   
$EndComp
Wire Wire Line
	6450 6750 6450 6850
Wire Wire Line
	6450 6900 6450 6850
Connection ~ 6450 6850
$Comp
L power:GND #PWR029
U 1 1 5CCF7DAC
P 6750 6850
F 0 "#PWR029" H 6750 6600 50  0001 C CNN
F 1 "GND" H 6755 6677 50  0000 C CNN
F 2 "" H 6750 6850 50  0001 C CNN
F 3 "" H 6750 6850 50  0001 C CNN
	1    6750 6850
	1    0    0    -1  
$EndComp
Wire Wire Line
	6750 6000 6750 6500
Wire Wire Line
	6750 6500 5500 6500
Wire Wire Line
	5500 6500 5500 7200
Wire Wire Line
	5500 7200 5550 7200
$Comp
L Device:R R6
U 1 1 5CD0613A
P 4200 6000
F 0 "R6" V 3993 6000 50  0000 C CNN
F 1 "100R" V 4084 6000 50  0000 C CNN
F 2 "Resistor_SMD:R_0603_1608Metric_Pad1.05x0.95mm_HandSolder" V 4130 6000 50  0001 C CNN
F 3 "~" H 4200 6000 50  0001 C CNN
	1    4200 6000
	0    1    1    0   
$EndComp
NoConn ~ 6750 7200
$Comp
L Connector_Generic:Conn_01x04 J7
U 1 1 5CD16796
P 5950 2100
F 0 "J7" H 6030 2092 50  0000 L CNN
F 1 "Conn_01x04" H 6030 2001 50  0000 L CNN
F 2 "Connector_PinHeader_2.54mm:PinHeader_1x04_P2.54mm_Horizontal" H 5950 2100 50  0001 C CNN
F 3 "~" H 5950 2100 50  0001 C CNN
	1    5950 2100
	1    0    0    -1  
$EndComp
Text GLabel 5750 2100 0    50   Input ~ 0
SWDIO
Text GLabel 5750 2000 0    50   Input ~ 0
SWDCLK
Text GLabel 5750 2200 0    50   Input ~ 0
3v3
$Comp
L power:GND #PWR020
U 1 1 5CD167A3
P 5750 2300
F 0 "#PWR020" H 5750 2050 50  0001 C CNN
F 1 "GND" H 5755 2127 50  0000 C CNN
F 2 "" H 5750 2300 50  0001 C CNN
F 3 "" H 5750 2300 50  0001 C CNN
	1    5750 2300
	1    0    0    -1  
$EndComp
Connection ~ 6250 4100
Connection ~ 6250 4200
Wire Wire Line
	6150 4100 6250 4100
Wire Wire Line
	6150 4200 6250 4200
$Comp
L power:+12V #PWR0102
U 1 1 5CC36147
P 5750 4950
F 0 "#PWR0102" H 5750 4800 50  0001 C CNN
F 1 "+12V" H 5765 5123 50  0000 C CNN
F 2 "" H 5750 4950 50  0001 C CNN
F 3 "" H 5750 4950 50  0001 C CNN
	1    5750 4950
	-1   0    0    1   
$EndComp
$Comp
L Connector_Generic:Conn_01x08 J16
U 1 1 5CB817A6
P 850 3650
F 0 "J16" H 768 3025 50  0000 C CNN
F 1 "Conn_01x08" H 768 3116 50  0000 C CNN
F 2 "Connector_PinSocket_2.54mm:PinSocket_1x08_P2.54mm_Horizontal" H 850 3650 50  0001 C CNN
F 3 "~" H 850 3650 50  0001 C CNN
	1    850  3650
	-1   0    0    1   
$EndComp
Text GLabel 1050 3250 2    50   Input ~ 0
MIC6
Text GLabel 1050 3350 2    50   Input ~ 0
MIC5
Text GLabel 1050 3450 2    50   Input ~ 0
MIC4
Text GLabel 1050 3550 2    50   Input ~ 0
MIC3
Text GLabel 1050 3750 2    50   Input ~ 0
MIC1
Text GLabel 1050 3650 2    50   Input ~ 0
MIC2
Text GLabel 1050 3850 2    50   Input ~ 0
3v3
$Comp
L power:GND #PWR0101
U 1 1 5CB84F66
P 1050 3950
F 0 "#PWR0101" H 1050 3700 50  0001 C CNN
F 1 "GND" H 1055 3777 50  0000 C CNN
F 2 "" H 1050 3950 50  0001 C CNN
F 3 "" H 1050 3950 50  0001 C CNN
	1    1050 3950
	0    -1   -1   0   
$EndComp
Text GLabel 3250 6000 3    50   Input ~ 0
5v
Text GLabel 2700 6000 3    50   Input ~ 0
5v
$Comp
L Connector_Generic:Conn_01x05 J1
U 1 1 5CAD68C0
P 800 6600
F 0 "J1" V 764 6312 50  0000 R CNN
F 1 "Conn_01x05" V 673 6312 50  0000 R CNN
F 2 "Connector_PinHeader_2.54mm:PinHeader_1x05_P2.54mm_Vertical" H 800 6600 50  0001 C CNN
F 3 "~" H 800 6600 50  0001 C CNN
	1    800  6600
	0    -1   -1   0   
$EndComp
$Comp
L Connector_Generic:Conn_01x05 J2
U 1 1 5CAD7F78
P 1350 6600
F 0 "J2" V 1314 6312 50  0000 R CNN
F 1 "Conn_01x05" V 1223 6312 50  0000 R CNN
F 2 "Connector_PinHeader_2.54mm:PinHeader_1x05_P2.54mm_Vertical" H 1350 6600 50  0001 C CNN
F 3 "~" H 1350 6600 50  0001 C CNN
	1    1350 6600
	0    -1   -1   0   
$EndComp
$Comp
L Connector_Generic:Conn_01x05 J3
U 1 1 5CAD885E
P 1900 6600
F 0 "J3" V 1864 6312 50  0000 R CNN
F 1 "Conn_01x05" V 1773 6312 50  0000 R CNN
F 2 "Connector_PinHeader_2.54mm:PinHeader_1x05_P2.54mm_Vertical" H 1900 6600 50  0001 C CNN
F 3 "~" H 1900 6600 50  0001 C CNN
	1    1900 6600
	0    -1   -1   0   
$EndComp
Text GLabel 1000 6800 3    50   Input ~ 0
X1
Text GLabel 1550 6800 3    50   Input ~ 0
X2
Text GLabel 2100 6800 3    50   Input ~ 0
X3
Text GLabel 3800 3450 2    50   Input ~ 0
X1
Text GLabel 3800 3550 2    50   Input ~ 0
X2
Text GLabel 3800 3650 2    50   Input ~ 0
X3
NoConn ~ 3800 1950
NoConn ~ 3800 2050
NoConn ~ 3800 2150
NoConn ~ 3800 2250
Wire Wire Line
	5650 2900 5550 2900
Connection ~ 5650 2900
Connection ~ 5250 2900
Connection ~ 5550 2900
Wire Wire Line
	5550 2900 5250 2900
Wire Wire Line
	5750 4900 5750 4950
$EndSCHEMATC
