G04 #@! TF.GenerationSoftware,KiCad,Pcbnew,(5.1.0)-1*
G04 #@! TF.CreationDate,2019-04-10T00:35:37+02:00*
G04 #@! TF.ProjectId,jazzgoth,6a617a7a-676f-4746-982e-6b696361645f,rev?*
G04 #@! TF.SameCoordinates,Original*
G04 #@! TF.FileFunction,Profile,NP*
%FSLAX46Y46*%
G04 Gerber Fmt 4.6, Leading zero omitted, Abs format (unit mm)*
G04 Created by KiCad (PCBNEW (5.1.0)-1) date 2019-04-10 00:35:37*
%MOMM*%
%LPD*%
G04 APERTURE LIST*
%ADD10C,0.100000*%
G04 APERTURE END LIST*
D10*
X136668194Y-84502309D02*
X136569689Y-84505262D01*
X136569689Y-84505262D02*
X136477788Y-84513454D01*
X136477788Y-84513454D02*
X136389916Y-84526311D01*
X136389916Y-84526311D02*
X136305475Y-84543432D01*
X136305475Y-84543432D02*
X136225669Y-84564059D01*
X136225669Y-84564059D02*
X136148109Y-84588427D01*
X136148109Y-84588427D02*
X136073999Y-84615882D01*
X136073999Y-84615882D02*
X136003323Y-84646077D01*
X136003323Y-84646077D02*
X135934977Y-84679232D01*
X135934977Y-84679232D02*
X135868745Y-84715331D01*
X135868745Y-84715331D02*
X135799368Y-84757671D01*
X135799368Y-84757671D02*
X135738976Y-84798636D01*
X135738976Y-84798636D02*
X135681536Y-84841490D01*
X135681536Y-84841490D02*
X135625659Y-84887200D01*
X135625659Y-84887200D02*
X135572796Y-84934512D01*
X135572796Y-84934512D02*
X135521660Y-84984520D01*
X135521660Y-84984520D02*
X135466387Y-85043935D01*
X135466387Y-85043935D02*
X135413771Y-85106565D01*
X135413771Y-85106565D02*
X135369640Y-85164528D01*
X135369640Y-85164528D02*
X135328457Y-85224010D01*
X135328457Y-85224010D02*
X135289618Y-85285914D01*
X135289618Y-85285914D02*
X135252848Y-85351009D01*
X135252848Y-85351009D02*
X135217247Y-85421790D01*
X135217247Y-85421790D02*
X135185676Y-85493110D01*
X135185676Y-85493110D02*
X135157519Y-85566199D01*
X135157519Y-85566199D02*
X135132525Y-85642143D01*
X135132525Y-85642143D02*
X135110668Y-85722115D01*
X135110668Y-85722115D02*
X135092664Y-85804921D01*
X135092664Y-85804921D02*
X135078563Y-85892389D01*
X135078563Y-85892389D02*
X135069104Y-85983277D01*
X135069104Y-85983277D02*
X135064701Y-86080118D01*
X135064701Y-86080118D02*
X135064505Y-86105370D01*
X138271255Y-86105998D02*
X138268216Y-86006215D01*
X138268216Y-86006215D02*
X138259726Y-85912450D01*
X138259726Y-85912450D02*
X138246811Y-85825250D01*
X138246811Y-85825250D02*
X138229843Y-85742067D01*
X138229843Y-85742067D02*
X138208984Y-85661691D01*
X138208984Y-85661691D02*
X138184329Y-85583590D01*
X138184329Y-85583590D02*
X138157105Y-85510384D01*
X138157105Y-85510384D02*
X138126972Y-85440019D01*
X138126972Y-85440019D02*
X138093209Y-85370624D01*
X138093209Y-85370624D02*
X138057465Y-85305239D01*
X138057465Y-85305239D02*
X138018005Y-85240471D01*
X138018005Y-85240471D02*
X137977710Y-85180712D01*
X137977710Y-85180712D02*
X137934655Y-85122664D01*
X137934655Y-85122664D02*
X137889673Y-85067352D01*
X137889673Y-85067352D02*
X137842323Y-85014118D01*
X137842323Y-85014118D02*
X137792897Y-84963252D01*
X137792897Y-84963252D02*
X137741055Y-84914403D01*
X137741055Y-84914403D02*
X137686621Y-84867490D01*
X137686621Y-84867490D02*
X137630342Y-84823194D01*
X137630342Y-84823194D02*
X137567344Y-84778172D01*
X137567344Y-84778172D02*
X137505482Y-84738215D01*
X137505482Y-84738215D02*
X137439857Y-84700044D01*
X137439857Y-84700044D02*
X137373125Y-84665335D01*
X137373125Y-84665335D02*
X137304608Y-84633710D01*
X137304608Y-84633710D02*
X137232673Y-84604612D01*
X137232673Y-84604612D02*
X137158475Y-84578752D01*
X137158475Y-84578752D02*
X137079680Y-84555680D01*
X137079680Y-84555680D02*
X136997432Y-84536208D01*
X136997432Y-84536208D02*
X136911121Y-84520638D01*
X136911121Y-84520638D02*
X136818211Y-84509260D01*
X136818211Y-84509260D02*
X136723741Y-84503261D01*
X136723741Y-84503261D02*
X136668194Y-84502309D01*
X135064505Y-86105370D02*
X135067655Y-86207062D01*
X135067655Y-86207062D02*
X135076252Y-86300795D01*
X135076252Y-86300795D02*
X135089378Y-86388579D01*
X135089378Y-86388579D02*
X135106471Y-86471717D01*
X135106471Y-86471717D02*
X135127623Y-86552633D01*
X135127623Y-86552633D02*
X135151921Y-86629222D01*
X135151921Y-86629222D02*
X135180240Y-86704944D01*
X135180240Y-86704944D02*
X135210809Y-86775765D01*
X135210809Y-86775765D02*
X135243795Y-86843159D01*
X135243795Y-86843159D02*
X135279495Y-86908214D01*
X135279495Y-86908214D02*
X135317581Y-86970634D01*
X135317581Y-86970634D02*
X135358041Y-87030648D01*
X135358041Y-87030648D02*
X135400727Y-87088219D01*
X135400727Y-87088219D02*
X135446272Y-87144235D01*
X135446272Y-87144235D02*
X135495681Y-87199660D01*
X135495681Y-87199660D02*
X135546286Y-87251478D01*
X135546286Y-87251478D02*
X135598943Y-87300772D01*
X135598943Y-87300772D02*
X135653548Y-87347497D01*
X135653548Y-87347497D02*
X135709987Y-87391597D01*
X135709987Y-87391597D02*
X135769655Y-87434035D01*
X135769655Y-87434035D02*
X135831040Y-87473616D01*
X135831040Y-87473616D02*
X135894302Y-87510440D01*
X135894302Y-87510440D02*
X135960988Y-87545219D01*
X135960988Y-87545219D02*
X136029465Y-87576922D01*
X136029465Y-87576922D02*
X136101358Y-87606101D01*
X136101358Y-87606101D02*
X136177274Y-87632606D01*
X136177274Y-87632606D02*
X136256670Y-87655838D01*
X136256670Y-87655838D02*
X136340765Y-87675662D01*
X136340765Y-87675662D02*
X136426499Y-87691006D01*
X136426499Y-87691006D02*
X136517858Y-87702129D01*
X136517858Y-87702129D02*
X136612656Y-87708121D01*
X136612656Y-87708121D02*
X136667566Y-87709059D01*
X136667566Y-87709059D02*
X136766064Y-87706098D01*
X136766064Y-87706098D02*
X136857965Y-87697904D01*
X136857965Y-87697904D02*
X136945218Y-87685157D01*
X136945218Y-87685157D02*
X137028460Y-87668347D01*
X137028460Y-87668347D02*
X137110082Y-87647299D01*
X137110082Y-87647299D02*
X137189385Y-87622332D01*
X137189385Y-87622332D02*
X137263455Y-87594796D01*
X137263455Y-87594796D02*
X137339066Y-87562236D01*
X137339066Y-87562236D02*
X137407239Y-87528780D01*
X137407239Y-87528780D02*
X137472502Y-87492843D01*
X137472502Y-87492843D02*
X137538411Y-87452375D01*
X137538411Y-87452375D02*
X137598738Y-87411324D01*
X137598738Y-87411324D02*
X137656585Y-87368015D01*
X137656585Y-87368015D02*
X137711917Y-87322593D01*
X137711917Y-87322593D02*
X137764708Y-87275203D01*
X137764708Y-87275203D02*
X137815563Y-87225336D01*
X137815563Y-87225336D02*
X137866570Y-87170573D01*
X137866570Y-87170573D02*
X137916332Y-87111835D01*
X137916332Y-87111835D02*
X137961849Y-87052671D01*
X137961849Y-87052671D02*
X138003294Y-86993386D01*
X138003294Y-86993386D02*
X138042870Y-86930890D01*
X138042870Y-86930890D02*
X138079315Y-86867023D01*
X138079315Y-86867023D02*
X138113532Y-86799998D01*
X138113532Y-86799998D02*
X138144891Y-86730640D01*
X138144891Y-86730640D02*
X138173640Y-86657845D01*
X138173640Y-86657845D02*
X138199256Y-86582187D01*
X138199256Y-86582187D02*
X138221617Y-86503090D01*
X138221617Y-86503090D02*
X138240467Y-86419942D01*
X138240467Y-86419942D02*
X138255122Y-86333971D01*
X138255122Y-86333971D02*
X138265397Y-86243654D01*
X138265397Y-86243654D02*
X138270704Y-86148024D01*
X138270704Y-86148024D02*
X138271255Y-86105998D01*
X176276000Y-86106000D02*
X176272961Y-86006217D01*
X176272961Y-86006217D02*
X176264471Y-85912452D01*
X176264471Y-85912452D02*
X176251556Y-85825252D01*
X176251556Y-85825252D02*
X176234588Y-85742069D01*
X176234588Y-85742069D02*
X176213729Y-85661693D01*
X176213729Y-85661693D02*
X176189074Y-85583592D01*
X176189074Y-85583592D02*
X176161850Y-85510386D01*
X176161850Y-85510386D02*
X176131717Y-85440021D01*
X176131717Y-85440021D02*
X176097955Y-85370626D01*
X176097955Y-85370626D02*
X176062211Y-85305241D01*
X176062211Y-85305241D02*
X176022751Y-85240473D01*
X176022751Y-85240473D02*
X175982456Y-85180714D01*
X175982456Y-85180714D02*
X175939401Y-85122666D01*
X175939401Y-85122666D02*
X175894419Y-85067354D01*
X175894419Y-85067354D02*
X175847069Y-85014120D01*
X175847069Y-85014120D02*
X175797643Y-84963254D01*
X175797643Y-84963254D02*
X175745801Y-84914405D01*
X175745801Y-84914405D02*
X175691367Y-84867492D01*
X175691367Y-84867492D02*
X175635088Y-84823197D01*
X175635088Y-84823197D02*
X175572090Y-84778175D01*
X175572090Y-84778175D02*
X175510228Y-84738218D01*
X175510228Y-84738218D02*
X175444603Y-84700047D01*
X175444603Y-84700047D02*
X175377871Y-84665338D01*
X175377871Y-84665338D02*
X175309354Y-84633713D01*
X175309354Y-84633713D02*
X175237419Y-84604615D01*
X175237419Y-84604615D02*
X175163221Y-84578755D01*
X175163221Y-84578755D02*
X175084426Y-84555683D01*
X175084426Y-84555683D02*
X175002178Y-84536211D01*
X175002178Y-84536211D02*
X174915867Y-84520641D01*
X174915867Y-84520641D02*
X174822957Y-84509263D01*
X174822957Y-84509263D02*
X174728487Y-84503264D01*
X174728487Y-84503264D02*
X174672939Y-84502312D01*
X136668194Y-107489312D02*
X136569689Y-107492265D01*
X136569689Y-107492265D02*
X136477788Y-107500457D01*
X136477788Y-107500457D02*
X136389916Y-107513314D01*
X136389916Y-107513314D02*
X136305475Y-107530435D01*
X136305475Y-107530435D02*
X136225669Y-107551062D01*
X136225669Y-107551062D02*
X136148109Y-107575430D01*
X136148109Y-107575430D02*
X136073999Y-107602885D01*
X136073999Y-107602885D02*
X136003323Y-107633080D01*
X136003323Y-107633080D02*
X135934977Y-107666235D01*
X135934977Y-107666235D02*
X135868745Y-107702334D01*
X135868745Y-107702334D02*
X135799368Y-107744674D01*
X135799368Y-107744674D02*
X135738976Y-107785639D01*
X135738976Y-107785639D02*
X135681536Y-107828493D01*
X135681536Y-107828493D02*
X135625659Y-107874203D01*
X135625659Y-107874203D02*
X135572796Y-107921515D01*
X135572796Y-107921515D02*
X135521660Y-107971523D01*
X135521660Y-107971523D02*
X135466387Y-108030938D01*
X135466387Y-108030938D02*
X135413771Y-108093568D01*
X135413771Y-108093568D02*
X135369641Y-108151531D01*
X135369641Y-108151531D02*
X135328458Y-108211013D01*
X135328458Y-108211013D02*
X135289619Y-108272917D01*
X135289619Y-108272917D02*
X135252849Y-108338012D01*
X135252849Y-108338012D02*
X135217248Y-108408793D01*
X135217248Y-108408793D02*
X135185677Y-108480113D01*
X135185677Y-108480113D02*
X135157519Y-108553202D01*
X135157519Y-108553202D02*
X135132525Y-108629146D01*
X135132525Y-108629146D02*
X135110668Y-108709118D01*
X135110668Y-108709118D02*
X135092664Y-108791924D01*
X135092664Y-108791924D02*
X135078563Y-108879392D01*
X135078563Y-108879392D02*
X135069104Y-108970280D01*
X135069104Y-108970280D02*
X135064701Y-109067121D01*
X135064701Y-109067121D02*
X135064505Y-109092373D01*
X135064505Y-109092373D02*
X135067655Y-109194065D01*
X135067655Y-109194065D02*
X135076252Y-109287798D01*
X135076252Y-109287798D02*
X135089378Y-109375582D01*
X135089378Y-109375582D02*
X135106471Y-109458720D01*
X135106471Y-109458720D02*
X135127623Y-109539636D01*
X135127623Y-109539636D02*
X135151921Y-109616225D01*
X135151921Y-109616225D02*
X135180240Y-109691947D01*
X135180240Y-109691947D02*
X135210809Y-109762768D01*
X135210809Y-109762768D02*
X135243795Y-109830162D01*
X135243795Y-109830162D02*
X135279495Y-109895217D01*
X135279495Y-109895217D02*
X135317581Y-109957637D01*
X135317581Y-109957637D02*
X135358041Y-110017651D01*
X135358041Y-110017651D02*
X135400727Y-110075222D01*
X135400727Y-110075222D02*
X135446272Y-110131238D01*
X135446272Y-110131238D02*
X135495681Y-110186663D01*
X135495681Y-110186663D02*
X135546286Y-110238481D01*
X135546286Y-110238481D02*
X135598944Y-110287775D01*
X135598944Y-110287775D02*
X135653549Y-110334500D01*
X135653549Y-110334500D02*
X135709988Y-110378600D01*
X135709988Y-110378600D02*
X135769656Y-110421038D01*
X135769656Y-110421038D02*
X135831041Y-110460619D01*
X135831041Y-110460619D02*
X135894303Y-110497443D01*
X135894303Y-110497443D02*
X135960989Y-110532222D01*
X135960989Y-110532222D02*
X136029466Y-110563925D01*
X136029466Y-110563925D02*
X136101359Y-110593104D01*
X136101359Y-110593104D02*
X136177275Y-110619609D01*
X136177275Y-110619609D02*
X136256671Y-110642841D01*
X136256671Y-110642841D02*
X136340766Y-110662665D01*
X136340766Y-110662665D02*
X136426500Y-110678009D01*
X136426500Y-110678009D02*
X136517859Y-110689132D01*
X136517859Y-110689132D02*
X136612657Y-110695124D01*
X136612657Y-110695124D02*
X136667567Y-110696062D01*
X136667567Y-110696062D02*
X136766064Y-110693101D01*
X136766064Y-110693101D02*
X136857965Y-110684907D01*
X136857965Y-110684907D02*
X136945218Y-110672160D01*
X136945218Y-110672160D02*
X137028460Y-110655350D01*
X137028460Y-110655350D02*
X137110082Y-110634302D01*
X137110082Y-110634302D02*
X137189385Y-110609335D01*
X137189385Y-110609335D02*
X137263455Y-110581799D01*
X137263455Y-110581799D02*
X137339066Y-110549239D01*
X137339066Y-110549239D02*
X137407239Y-110515783D01*
X137407239Y-110515783D02*
X137472502Y-110479846D01*
X137472502Y-110479846D02*
X137538411Y-110439378D01*
X137538411Y-110439378D02*
X137598738Y-110398327D01*
X137598738Y-110398327D02*
X137656585Y-110355018D01*
X137656585Y-110355018D02*
X137711917Y-110309596D01*
X137711917Y-110309596D02*
X137764709Y-110262206D01*
X137764709Y-110262206D02*
X137815564Y-110212339D01*
X137815564Y-110212339D02*
X137866571Y-110157576D01*
X137866571Y-110157576D02*
X137916333Y-110098838D01*
X137916333Y-110098838D02*
X137961850Y-110039674D01*
X137961850Y-110039674D02*
X138003295Y-109980389D01*
X138003295Y-109980389D02*
X138042871Y-109917893D01*
X138042871Y-109917893D02*
X138079316Y-109854026D01*
X138079316Y-109854026D02*
X138113533Y-109787001D01*
X138113533Y-109787001D02*
X138144892Y-109717643D01*
X138144892Y-109717643D02*
X138173641Y-109644848D01*
X138173641Y-109644848D02*
X138199257Y-109569190D01*
X138199257Y-109569190D02*
X138221618Y-109490093D01*
X138221618Y-109490093D02*
X138240468Y-109406945D01*
X138240468Y-109406945D02*
X138255122Y-109320974D01*
X138255122Y-109320974D02*
X138265397Y-109230657D01*
X138265397Y-109230657D02*
X138270704Y-109135027D01*
X138270704Y-109135027D02*
X138271255Y-109093001D01*
X174672311Y-87709061D02*
X174770809Y-87706100D01*
X174770809Y-87706100D02*
X174862710Y-87697906D01*
X174862710Y-87697906D02*
X174949963Y-87685159D01*
X174949963Y-87685159D02*
X175033205Y-87668349D01*
X175033205Y-87668349D02*
X175114827Y-87647301D01*
X175114827Y-87647301D02*
X175194130Y-87622334D01*
X175194130Y-87622334D02*
X175268200Y-87594798D01*
X175268200Y-87594798D02*
X175343811Y-87562238D01*
X175343811Y-87562238D02*
X175411984Y-87528782D01*
X175411984Y-87528782D02*
X175477247Y-87492845D01*
X175477247Y-87492845D02*
X175543156Y-87452377D01*
X175543156Y-87452377D02*
X175603483Y-87411326D01*
X175603483Y-87411326D02*
X175661330Y-87368017D01*
X175661330Y-87368017D02*
X175716662Y-87322595D01*
X175716662Y-87322595D02*
X175769454Y-87275205D01*
X175769454Y-87275205D02*
X175820309Y-87225338D01*
X175820309Y-87225338D02*
X175871316Y-87170575D01*
X175871316Y-87170575D02*
X175921078Y-87111837D01*
X175921078Y-87111837D02*
X175966595Y-87052673D01*
X175966595Y-87052673D02*
X176008040Y-86993388D01*
X176008040Y-86993388D02*
X176047616Y-86930892D01*
X176047616Y-86930892D02*
X176084061Y-86867025D01*
X176084061Y-86867025D02*
X176118278Y-86800000D01*
X176118278Y-86800000D02*
X176149637Y-86730642D01*
X176149637Y-86730642D02*
X176178386Y-86657847D01*
X176178386Y-86657847D02*
X176204002Y-86582189D01*
X176204002Y-86582189D02*
X176226363Y-86503092D01*
X176226363Y-86503092D02*
X176245213Y-86419944D01*
X176245213Y-86419944D02*
X176259867Y-86333973D01*
X176259867Y-86333973D02*
X176270142Y-86243656D01*
X176270142Y-86243656D02*
X176275449Y-86148026D01*
X176275449Y-86148026D02*
X176276000Y-86106000D01*
X173069250Y-86105373D02*
X173072400Y-86207065D01*
X173072400Y-86207065D02*
X173080997Y-86300798D01*
X173080997Y-86300798D02*
X173094123Y-86388582D01*
X173094123Y-86388582D02*
X173111216Y-86471720D01*
X173111216Y-86471720D02*
X173132368Y-86552636D01*
X173132368Y-86552636D02*
X173156666Y-86629225D01*
X173156666Y-86629225D02*
X173184985Y-86704947D01*
X173184985Y-86704947D02*
X173215554Y-86775768D01*
X173215554Y-86775768D02*
X173248540Y-86843162D01*
X173248540Y-86843162D02*
X173284240Y-86908217D01*
X173284240Y-86908217D02*
X173322326Y-86970637D01*
X173322326Y-86970637D02*
X173362786Y-87030651D01*
X173362786Y-87030651D02*
X173405472Y-87088222D01*
X173405472Y-87088222D02*
X173451017Y-87144238D01*
X173451017Y-87144238D02*
X173500426Y-87199662D01*
X173500426Y-87199662D02*
X173551031Y-87251480D01*
X173551031Y-87251480D02*
X173603688Y-87300774D01*
X173603688Y-87300774D02*
X173658293Y-87347499D01*
X173658293Y-87347499D02*
X173714732Y-87391599D01*
X173714732Y-87391599D02*
X173774400Y-87434037D01*
X173774400Y-87434037D02*
X173835785Y-87473618D01*
X173835785Y-87473618D02*
X173899047Y-87510442D01*
X173899047Y-87510442D02*
X173965733Y-87545221D01*
X173965733Y-87545221D02*
X174034210Y-87576924D01*
X174034210Y-87576924D02*
X174106103Y-87606103D01*
X174106103Y-87606103D02*
X174182019Y-87632608D01*
X174182019Y-87632608D02*
X174261415Y-87655840D01*
X174261415Y-87655840D02*
X174345510Y-87675664D01*
X174345510Y-87675664D02*
X174431244Y-87691008D01*
X174431244Y-87691008D02*
X174522603Y-87702131D01*
X174522603Y-87702131D02*
X174617401Y-87708123D01*
X174617401Y-87708123D02*
X174672311Y-87709061D01*
X173069251Y-109092372D02*
X173072401Y-109194064D01*
X173072401Y-109194064D02*
X173080998Y-109287797D01*
X173080998Y-109287797D02*
X173094124Y-109375581D01*
X173094124Y-109375581D02*
X173111217Y-109458719D01*
X173111217Y-109458719D02*
X173132369Y-109539635D01*
X173132369Y-109539635D02*
X173156667Y-109616224D01*
X173156667Y-109616224D02*
X173184986Y-109691946D01*
X173184986Y-109691946D02*
X173215555Y-109762767D01*
X173215555Y-109762767D02*
X173248541Y-109830161D01*
X173248541Y-109830161D02*
X173284241Y-109895216D01*
X173284241Y-109895216D02*
X173322327Y-109957636D01*
X173322327Y-109957636D02*
X173362787Y-110017650D01*
X173362787Y-110017650D02*
X173405473Y-110075221D01*
X173405473Y-110075221D02*
X173451018Y-110131237D01*
X173451018Y-110131237D02*
X173500427Y-110186662D01*
X173500427Y-110186662D02*
X173551032Y-110238480D01*
X173551032Y-110238480D02*
X173603689Y-110287774D01*
X173603689Y-110287774D02*
X173658294Y-110334499D01*
X173658294Y-110334499D02*
X173714733Y-110378599D01*
X173714733Y-110378599D02*
X173774401Y-110421037D01*
X173774401Y-110421037D02*
X173835786Y-110460618D01*
X173835786Y-110460618D02*
X173899048Y-110497442D01*
X173899048Y-110497442D02*
X173965734Y-110532221D01*
X173965734Y-110532221D02*
X174034211Y-110563924D01*
X174034211Y-110563924D02*
X174106104Y-110593103D01*
X174106104Y-110593103D02*
X174182020Y-110619608D01*
X174182020Y-110619608D02*
X174261416Y-110642840D01*
X174261416Y-110642840D02*
X174345511Y-110662664D01*
X174345511Y-110662664D02*
X174431245Y-110678008D01*
X174431245Y-110678008D02*
X174522604Y-110689131D01*
X174522604Y-110689131D02*
X174617402Y-110695123D01*
X174617402Y-110695123D02*
X174672312Y-110696061D01*
X174672312Y-110696061D02*
X174770810Y-110693100D01*
X174770810Y-110693100D02*
X174862711Y-110684906D01*
X174862711Y-110684906D02*
X174949964Y-110672159D01*
X174949964Y-110672159D02*
X175033206Y-110655349D01*
X175033206Y-110655349D02*
X175114828Y-110634301D01*
X175114828Y-110634301D02*
X175194131Y-110609334D01*
X175194131Y-110609334D02*
X175268201Y-110581798D01*
X175268201Y-110581798D02*
X175343812Y-110549238D01*
X175343812Y-110549238D02*
X175411985Y-110515782D01*
X175411985Y-110515782D02*
X175477248Y-110479845D01*
X175477248Y-110479845D02*
X175543157Y-110439377D01*
X175543157Y-110439377D02*
X175603484Y-110398326D01*
X175603484Y-110398326D02*
X175661331Y-110355017D01*
X175661331Y-110355017D02*
X175716663Y-110309595D01*
X175716663Y-110309595D02*
X175769455Y-110262205D01*
X175769455Y-110262205D02*
X175820310Y-110212338D01*
X175820310Y-110212338D02*
X175871317Y-110157575D01*
X175871317Y-110157575D02*
X175921079Y-110098837D01*
X175921079Y-110098837D02*
X175966596Y-110039673D01*
X175966596Y-110039673D02*
X176008041Y-109980388D01*
X176008041Y-109980388D02*
X176047617Y-109917892D01*
X176047617Y-109917892D02*
X176084062Y-109854025D01*
X176084062Y-109854025D02*
X176118279Y-109787000D01*
X176118279Y-109787000D02*
X176149638Y-109717642D01*
X176149638Y-109717642D02*
X176178387Y-109644847D01*
X176178387Y-109644847D02*
X176204003Y-109569189D01*
X176204003Y-109569189D02*
X176226364Y-109490092D01*
X176226364Y-109490092D02*
X176245214Y-109406944D01*
X176245214Y-109406944D02*
X176259868Y-109320973D01*
X176259868Y-109320973D02*
X176270143Y-109230656D01*
X176270143Y-109230656D02*
X176275450Y-109135026D01*
X176275450Y-109135026D02*
X176276001Y-109093000D01*
X195262503Y-77089005D02*
X195259464Y-76989222D01*
X195259464Y-76989222D02*
X195250974Y-76895457D01*
X195250974Y-76895457D02*
X195238059Y-76808257D01*
X195238059Y-76808257D02*
X195221091Y-76725074D01*
X195221091Y-76725074D02*
X195200232Y-76644698D01*
X195200232Y-76644698D02*
X195175577Y-76566597D01*
X195175577Y-76566597D02*
X195148353Y-76493391D01*
X195148353Y-76493391D02*
X195118220Y-76423026D01*
X195118220Y-76423026D02*
X195084457Y-76353631D01*
X195084457Y-76353631D02*
X195048713Y-76288246D01*
X195048713Y-76288246D02*
X195009253Y-76223478D01*
X195009253Y-76223478D02*
X194968958Y-76163719D01*
X194968958Y-76163719D02*
X194925903Y-76105671D01*
X194925903Y-76105671D02*
X194880921Y-76050359D01*
X194880921Y-76050359D02*
X194833571Y-75997125D01*
X194833571Y-75997125D02*
X194784145Y-75946259D01*
X194784145Y-75946259D02*
X194732303Y-75897410D01*
X194732303Y-75897410D02*
X194677869Y-75850497D01*
X194677869Y-75850497D02*
X194621590Y-75806201D01*
X194621590Y-75806201D02*
X194558592Y-75761179D01*
X194558592Y-75761179D02*
X194496730Y-75721222D01*
X194496730Y-75721222D02*
X194431105Y-75683051D01*
X194431105Y-75683051D02*
X194364373Y-75648342D01*
X194364373Y-75648342D02*
X194295856Y-75616717D01*
X194295856Y-75616717D02*
X194223921Y-75587619D01*
X194223921Y-75587619D02*
X194149723Y-75561759D01*
X194149723Y-75561759D02*
X194070928Y-75538687D01*
X194070928Y-75538687D02*
X193988680Y-75519215D01*
X193988680Y-75519215D02*
X193902369Y-75503645D01*
X193902369Y-75503645D02*
X193809459Y-75492267D01*
X193809459Y-75492267D02*
X193714989Y-75486268D01*
X193714989Y-75486268D02*
X193659441Y-75485316D01*
X174672939Y-84502312D02*
X174574434Y-84505265D01*
X174574434Y-84505265D02*
X174482533Y-84513457D01*
X174482533Y-84513457D02*
X174394661Y-84526314D01*
X174394661Y-84526314D02*
X174310220Y-84543435D01*
X174310220Y-84543435D02*
X174230414Y-84564062D01*
X174230414Y-84564062D02*
X174152854Y-84588430D01*
X174152854Y-84588430D02*
X174078744Y-84615885D01*
X174078744Y-84615885D02*
X174008068Y-84646080D01*
X174008068Y-84646080D02*
X173939722Y-84679235D01*
X173939722Y-84679235D02*
X173873490Y-84715334D01*
X173873490Y-84715334D02*
X173804113Y-84757674D01*
X173804113Y-84757674D02*
X173743721Y-84798639D01*
X173743721Y-84798639D02*
X173686281Y-84841493D01*
X173686281Y-84841493D02*
X173630404Y-84887203D01*
X173630404Y-84887203D02*
X173577541Y-84934515D01*
X173577541Y-84934515D02*
X173526405Y-84984523D01*
X173526405Y-84984523D02*
X173471132Y-85043938D01*
X173471132Y-85043938D02*
X173418516Y-85106568D01*
X173418516Y-85106568D02*
X173374386Y-85164531D01*
X173374386Y-85164531D02*
X173333203Y-85224013D01*
X173333203Y-85224013D02*
X173294364Y-85285917D01*
X173294364Y-85285917D02*
X173257594Y-85351012D01*
X173257594Y-85351012D02*
X173221993Y-85421793D01*
X173221993Y-85421793D02*
X173190422Y-85493113D01*
X173190422Y-85493113D02*
X173162264Y-85566202D01*
X173162264Y-85566202D02*
X173137270Y-85642146D01*
X173137270Y-85642146D02*
X173115413Y-85722118D01*
X173115413Y-85722118D02*
X173097409Y-85804924D01*
X173097409Y-85804924D02*
X173083308Y-85892392D01*
X173083308Y-85892392D02*
X173073849Y-85983280D01*
X173073849Y-85983280D02*
X173069446Y-86080121D01*
X173069446Y-86080121D02*
X173069250Y-86105373D01*
X176276001Y-109093000D02*
X176272962Y-108993217D01*
X176272962Y-108993217D02*
X176264472Y-108899452D01*
X176264472Y-108899452D02*
X176251557Y-108812252D01*
X176251557Y-108812252D02*
X176234589Y-108729069D01*
X176234589Y-108729069D02*
X176213730Y-108648693D01*
X176213730Y-108648693D02*
X176189075Y-108570592D01*
X176189075Y-108570592D02*
X176161851Y-108497386D01*
X176161851Y-108497386D02*
X176131718Y-108427021D01*
X176131718Y-108427021D02*
X176097955Y-108357626D01*
X176097955Y-108357626D02*
X176062211Y-108292241D01*
X176062211Y-108292241D02*
X176022751Y-108227473D01*
X176022751Y-108227473D02*
X175982456Y-108167714D01*
X175982456Y-108167714D02*
X175939401Y-108109666D01*
X175939401Y-108109666D02*
X175894419Y-108054354D01*
X175894419Y-108054354D02*
X175847069Y-108001120D01*
X175847069Y-108001120D02*
X175797643Y-107950254D01*
X175797643Y-107950254D02*
X175745801Y-107901405D01*
X175745801Y-107901405D02*
X175691367Y-107854492D01*
X175691367Y-107854492D02*
X175635088Y-107810196D01*
X175635088Y-107810196D02*
X175572090Y-107765174D01*
X175572090Y-107765174D02*
X175510228Y-107725217D01*
X175510228Y-107725217D02*
X175444603Y-107687046D01*
X175444603Y-107687046D02*
X175377871Y-107652337D01*
X175377871Y-107652337D02*
X175309354Y-107620712D01*
X175309354Y-107620712D02*
X175237419Y-107591614D01*
X175237419Y-107591614D02*
X175163221Y-107565754D01*
X175163221Y-107565754D02*
X175084426Y-107542682D01*
X175084426Y-107542682D02*
X175002178Y-107523210D01*
X175002178Y-107523210D02*
X174915867Y-107507640D01*
X174915867Y-107507640D02*
X174822957Y-107496262D01*
X174822957Y-107496262D02*
X174728487Y-107490263D01*
X174728487Y-107490263D02*
X174672940Y-107489311D01*
X174672940Y-107489311D02*
X174574435Y-107492264D01*
X174574435Y-107492264D02*
X174482534Y-107500456D01*
X174482534Y-107500456D02*
X174394662Y-107513313D01*
X174394662Y-107513313D02*
X174310221Y-107530434D01*
X174310221Y-107530434D02*
X174230415Y-107551061D01*
X174230415Y-107551061D02*
X174152855Y-107575429D01*
X174152855Y-107575429D02*
X174078745Y-107602884D01*
X174078745Y-107602884D02*
X174008069Y-107633079D01*
X174008069Y-107633079D02*
X173939723Y-107666234D01*
X173939723Y-107666234D02*
X173873491Y-107702333D01*
X173873491Y-107702333D02*
X173804114Y-107744673D01*
X173804114Y-107744673D02*
X173743722Y-107785638D01*
X173743722Y-107785638D02*
X173686282Y-107828492D01*
X173686282Y-107828492D02*
X173630405Y-107874202D01*
X173630405Y-107874202D02*
X173577542Y-107921514D01*
X173577542Y-107921514D02*
X173526406Y-107971522D01*
X173526406Y-107971522D02*
X173471133Y-108030937D01*
X173471133Y-108030937D02*
X173418517Y-108093567D01*
X173418517Y-108093567D02*
X173374386Y-108151530D01*
X173374386Y-108151530D02*
X173333203Y-108211012D01*
X173333203Y-108211012D02*
X173294364Y-108272916D01*
X173294364Y-108272916D02*
X173257594Y-108338011D01*
X173257594Y-108338011D02*
X173221993Y-108408792D01*
X173221993Y-108408792D02*
X173190422Y-108480112D01*
X173190422Y-108480112D02*
X173162265Y-108553201D01*
X173162265Y-108553201D02*
X173137271Y-108629145D01*
X173137271Y-108629145D02*
X173115414Y-108709117D01*
X173115414Y-108709117D02*
X173097410Y-108791923D01*
X173097410Y-108791923D02*
X173083309Y-108879391D01*
X173083309Y-108879391D02*
X173073850Y-108970279D01*
X173073850Y-108970279D02*
X173069447Y-109067120D01*
X173069447Y-109067120D02*
X173069251Y-109092372D01*
X138271255Y-109093001D02*
X138268216Y-108993218D01*
X138268216Y-108993218D02*
X138259726Y-108899453D01*
X138259726Y-108899453D02*
X138246811Y-108812253D01*
X138246811Y-108812253D02*
X138229843Y-108729070D01*
X138229843Y-108729070D02*
X138208984Y-108648694D01*
X138208984Y-108648694D02*
X138184329Y-108570593D01*
X138184329Y-108570593D02*
X138157105Y-108497387D01*
X138157105Y-108497387D02*
X138126972Y-108427022D01*
X138126972Y-108427022D02*
X138093210Y-108357627D01*
X138093210Y-108357627D02*
X138057466Y-108292242D01*
X138057466Y-108292242D02*
X138018006Y-108227474D01*
X138018006Y-108227474D02*
X137977711Y-108167715D01*
X137977711Y-108167715D02*
X137934656Y-108109667D01*
X137934656Y-108109667D02*
X137889674Y-108054355D01*
X137889674Y-108054355D02*
X137842324Y-108001121D01*
X137842324Y-108001121D02*
X137792898Y-107950255D01*
X137792898Y-107950255D02*
X137741056Y-107901406D01*
X137741056Y-107901406D02*
X137686622Y-107854493D01*
X137686622Y-107854493D02*
X137630343Y-107810197D01*
X137630343Y-107810197D02*
X137567345Y-107765175D01*
X137567345Y-107765175D02*
X137505483Y-107725218D01*
X137505483Y-107725218D02*
X137439858Y-107687047D01*
X137439858Y-107687047D02*
X137373126Y-107652338D01*
X137373126Y-107652338D02*
X137304609Y-107620713D01*
X137304609Y-107620713D02*
X137232674Y-107591615D01*
X137232674Y-107591615D02*
X137158476Y-107565755D01*
X137158476Y-107565755D02*
X137079681Y-107542683D01*
X137079681Y-107542683D02*
X136997433Y-107523211D01*
X136997433Y-107523211D02*
X136911122Y-107507641D01*
X136911122Y-107507641D02*
X136818212Y-107496263D01*
X136818212Y-107496263D02*
X136723742Y-107490264D01*
X136723742Y-107490264D02*
X136668194Y-107489312D01*
X193659441Y-75485316D02*
X193560936Y-75488269D01*
X193560936Y-75488269D02*
X193469035Y-75496461D01*
X193469035Y-75496461D02*
X193381163Y-75509318D01*
X193381163Y-75509318D02*
X193296722Y-75526439D01*
X193296722Y-75526439D02*
X193216916Y-75547066D01*
X193216916Y-75547066D02*
X193139356Y-75571434D01*
X193139356Y-75571434D02*
X193065246Y-75598889D01*
X193065246Y-75598889D02*
X192994570Y-75629084D01*
X192994570Y-75629084D02*
X192926224Y-75662239D01*
X192926224Y-75662239D02*
X192859992Y-75698338D01*
X192859992Y-75698338D02*
X192790615Y-75740678D01*
X192790615Y-75740678D02*
X192730223Y-75781643D01*
X192730223Y-75781643D02*
X192672783Y-75824497D01*
X192672783Y-75824497D02*
X192616906Y-75870207D01*
X192616906Y-75870207D02*
X192564043Y-75917519D01*
X192564043Y-75917519D02*
X192512907Y-75967527D01*
X192512907Y-75967527D02*
X192457634Y-76026942D01*
X192457634Y-76026942D02*
X192405018Y-76089572D01*
X192405018Y-76089572D02*
X192360888Y-76147535D01*
X192360888Y-76147535D02*
X192319705Y-76207017D01*
X192319705Y-76207017D02*
X192280866Y-76268921D01*
X192280866Y-76268921D02*
X192244096Y-76334016D01*
X192244096Y-76334016D02*
X192208495Y-76404797D01*
X192208495Y-76404797D02*
X192176924Y-76476117D01*
X192176924Y-76476117D02*
X192148767Y-76549206D01*
X192148767Y-76549206D02*
X192123773Y-76625150D01*
X192123773Y-76625150D02*
X192101916Y-76705122D01*
X192101916Y-76705122D02*
X192083912Y-76787928D01*
X192083912Y-76787928D02*
X192069811Y-76875396D01*
X192069811Y-76875396D02*
X192060352Y-76966284D01*
X192060352Y-76966284D02*
X192055949Y-77063125D01*
X192055949Y-77063125D02*
X192055753Y-77088377D01*
X110680506Y-122602310D02*
X155670255Y-142604808D01*
X155670255Y-142604808D02*
X200660004Y-122602310D01*
X200660004Y-72596061D02*
X155670255Y-52593557D01*
X155670255Y-52593557D02*
X110680506Y-72596061D01*
X193658814Y-78692066D02*
X193757312Y-78689105D01*
X193757312Y-78689105D02*
X193849213Y-78680911D01*
X193849213Y-78680911D02*
X193936466Y-78668164D01*
X193936466Y-78668164D02*
X194019708Y-78651354D01*
X194019708Y-78651354D02*
X194101330Y-78630306D01*
X194101330Y-78630306D02*
X194180633Y-78605339D01*
X194180633Y-78605339D02*
X194254703Y-78577803D01*
X194254703Y-78577803D02*
X194330314Y-78545243D01*
X194330314Y-78545243D02*
X194398487Y-78511786D01*
X194398487Y-78511786D02*
X194463750Y-78475849D01*
X194463750Y-78475849D02*
X194529659Y-78435381D01*
X194529659Y-78435381D02*
X194589986Y-78394330D01*
X194589986Y-78394330D02*
X194647833Y-78351021D01*
X194647833Y-78351021D02*
X194703165Y-78305599D01*
X194703165Y-78305599D02*
X194755956Y-78258209D01*
X194755956Y-78258209D02*
X194806811Y-78208342D01*
X194806811Y-78208342D02*
X194857818Y-78153579D01*
X194857818Y-78153579D02*
X194907580Y-78094841D01*
X194907580Y-78094841D02*
X194953097Y-78035677D01*
X194953097Y-78035677D02*
X194994542Y-77976392D01*
X194994542Y-77976392D02*
X195034118Y-77913896D01*
X195034118Y-77913896D02*
X195070563Y-77850029D01*
X195070563Y-77850029D02*
X195104780Y-77783004D01*
X195104780Y-77783004D02*
X195136139Y-77713646D01*
X195136139Y-77713646D02*
X195164888Y-77640851D01*
X195164888Y-77640851D02*
X195190504Y-77565193D01*
X195190504Y-77565193D02*
X195212865Y-77486096D01*
X195212865Y-77486096D02*
X195231715Y-77402948D01*
X195231715Y-77402948D02*
X195246370Y-77316977D01*
X195246370Y-77316977D02*
X195256645Y-77226660D01*
X195256645Y-77226660D02*
X195261952Y-77131030D01*
X195261952Y-77131030D02*
X195262503Y-77089005D01*
X116078005Y-77088377D02*
X116081155Y-77190069D01*
X116081155Y-77190069D02*
X116089752Y-77283802D01*
X116089752Y-77283802D02*
X116102878Y-77371586D01*
X116102878Y-77371586D02*
X116119971Y-77454724D01*
X116119971Y-77454724D02*
X116141123Y-77535640D01*
X116141123Y-77535640D02*
X116165421Y-77612229D01*
X116165421Y-77612229D02*
X116193740Y-77687951D01*
X116193740Y-77687951D02*
X116224309Y-77758772D01*
X116224309Y-77758772D02*
X116257295Y-77826166D01*
X116257295Y-77826166D02*
X116292995Y-77891221D01*
X116292995Y-77891221D02*
X116331081Y-77953641D01*
X116331081Y-77953641D02*
X116371541Y-78013655D01*
X116371541Y-78013655D02*
X116414227Y-78071226D01*
X116414227Y-78071226D02*
X116459772Y-78127242D01*
X116459772Y-78127242D02*
X116509181Y-78182667D01*
X116509181Y-78182667D02*
X116559786Y-78234485D01*
X116559786Y-78234485D02*
X116612443Y-78283779D01*
X116612443Y-78283779D02*
X116667048Y-78330504D01*
X116667048Y-78330504D02*
X116723487Y-78374604D01*
X116723487Y-78374604D02*
X116783155Y-78417042D01*
X116783155Y-78417042D02*
X116844540Y-78456623D01*
X116844540Y-78456623D02*
X116907802Y-78493447D01*
X116907802Y-78493447D02*
X116974488Y-78528226D01*
X116974488Y-78528226D02*
X117042965Y-78559929D01*
X117042965Y-78559929D02*
X117114858Y-78589108D01*
X117114858Y-78589108D02*
X117190774Y-78615613D01*
X117190774Y-78615613D02*
X117270170Y-78638845D01*
X117270170Y-78638845D02*
X117354265Y-78658669D01*
X117354265Y-78658669D02*
X117439999Y-78674013D01*
X117439999Y-78674013D02*
X117531358Y-78685136D01*
X117531358Y-78685136D02*
X117626156Y-78691128D01*
X117626156Y-78691128D02*
X117681066Y-78692066D01*
X117681066Y-78692066D02*
X117779564Y-78689105D01*
X117779564Y-78689105D02*
X117871465Y-78680911D01*
X117871465Y-78680911D02*
X117958718Y-78668164D01*
X117958718Y-78668164D02*
X118041960Y-78651354D01*
X118041960Y-78651354D02*
X118123582Y-78630306D01*
X118123582Y-78630306D02*
X118202885Y-78605339D01*
X118202885Y-78605339D02*
X118276955Y-78577803D01*
X118276955Y-78577803D02*
X118352566Y-78545243D01*
X118352566Y-78545243D02*
X118420739Y-78511787D01*
X118420739Y-78511787D02*
X118486002Y-78475850D01*
X118486002Y-78475850D02*
X118551911Y-78435382D01*
X118551911Y-78435382D02*
X118612238Y-78394331D01*
X118612238Y-78394331D02*
X118670085Y-78351022D01*
X118670085Y-78351022D02*
X118725417Y-78305600D01*
X118725417Y-78305600D02*
X118778208Y-78258210D01*
X118778208Y-78258210D02*
X118829063Y-78208343D01*
X118829063Y-78208343D02*
X118880070Y-78153580D01*
X118880070Y-78153580D02*
X118929832Y-78094842D01*
X118929832Y-78094842D02*
X118975349Y-78035678D01*
X118975349Y-78035678D02*
X119016794Y-77976393D01*
X119016794Y-77976393D02*
X119056370Y-77913897D01*
X119056370Y-77913897D02*
X119092815Y-77850030D01*
X119092815Y-77850030D02*
X119127032Y-77783005D01*
X119127032Y-77783005D02*
X119158391Y-77713647D01*
X119158391Y-77713647D02*
X119187140Y-77640852D01*
X119187140Y-77640852D02*
X119212756Y-77565194D01*
X119212756Y-77565194D02*
X119235117Y-77486097D01*
X119235117Y-77486097D02*
X119253967Y-77402949D01*
X119253967Y-77402949D02*
X119268621Y-77316978D01*
X119268621Y-77316978D02*
X119278896Y-77226661D01*
X119278896Y-77226661D02*
X119284203Y-77131031D01*
X119284203Y-77131031D02*
X119284754Y-77089005D01*
X193659440Y-116506311D02*
X193560935Y-116509264D01*
X193560935Y-116509264D02*
X193469034Y-116517456D01*
X193469034Y-116517456D02*
X193381162Y-116530313D01*
X193381162Y-116530313D02*
X193296721Y-116547434D01*
X193296721Y-116547434D02*
X193216915Y-116568061D01*
X193216915Y-116568061D02*
X193139355Y-116592429D01*
X193139355Y-116592429D02*
X193065245Y-116619884D01*
X193065245Y-116619884D02*
X192994569Y-116650079D01*
X192994569Y-116650079D02*
X192926223Y-116683234D01*
X192926223Y-116683234D02*
X192859991Y-116719333D01*
X192859991Y-116719333D02*
X192790614Y-116761673D01*
X192790614Y-116761673D02*
X192730222Y-116802638D01*
X192730222Y-116802638D02*
X192672782Y-116845492D01*
X192672782Y-116845492D02*
X192616905Y-116891202D01*
X192616905Y-116891202D02*
X192564042Y-116938514D01*
X192564042Y-116938514D02*
X192512906Y-116988522D01*
X192512906Y-116988522D02*
X192457633Y-117047937D01*
X192457633Y-117047937D02*
X192405017Y-117110567D01*
X192405017Y-117110567D02*
X192360886Y-117168530D01*
X192360886Y-117168530D02*
X192319703Y-117228012D01*
X192319703Y-117228012D02*
X192280864Y-117289916D01*
X192280864Y-117289916D02*
X192244094Y-117355011D01*
X192244094Y-117355011D02*
X192208493Y-117425792D01*
X192208493Y-117425792D02*
X192176922Y-117497112D01*
X192176922Y-117497112D02*
X192148765Y-117570201D01*
X192148765Y-117570201D02*
X192123771Y-117646145D01*
X192123771Y-117646145D02*
X192101914Y-117726117D01*
X192101914Y-117726117D02*
X192083910Y-117808923D01*
X192083910Y-117808923D02*
X192069809Y-117896391D01*
X192069809Y-117896391D02*
X192060350Y-117987279D01*
X192060350Y-117987279D02*
X192055947Y-118084120D01*
X192055947Y-118084120D02*
X192055751Y-118109372D01*
X119284756Y-118110000D02*
X119281717Y-118010217D01*
X119281717Y-118010217D02*
X119273227Y-117916452D01*
X119273227Y-117916452D02*
X119260312Y-117829252D01*
X119260312Y-117829252D02*
X119243344Y-117746069D01*
X119243344Y-117746069D02*
X119222485Y-117665693D01*
X119222485Y-117665693D02*
X119197830Y-117587592D01*
X119197830Y-117587592D02*
X119170606Y-117514386D01*
X119170606Y-117514386D02*
X119140473Y-117444021D01*
X119140473Y-117444021D02*
X119106711Y-117374626D01*
X119106711Y-117374626D02*
X119070967Y-117309241D01*
X119070967Y-117309241D02*
X119031507Y-117244473D01*
X119031507Y-117244473D02*
X118991212Y-117184714D01*
X118991212Y-117184714D02*
X118948157Y-117126666D01*
X118948157Y-117126666D02*
X118903175Y-117071354D01*
X118903175Y-117071354D02*
X118855825Y-117018120D01*
X118855825Y-117018120D02*
X118806399Y-116967254D01*
X118806399Y-116967254D02*
X118754557Y-116918405D01*
X118754557Y-116918405D02*
X118700123Y-116871492D01*
X118700123Y-116871492D02*
X118643844Y-116827197D01*
X118643844Y-116827197D02*
X118580846Y-116782175D01*
X118580846Y-116782175D02*
X118518984Y-116742218D01*
X118518984Y-116742218D02*
X118453359Y-116704047D01*
X118453359Y-116704047D02*
X118386627Y-116669338D01*
X118386627Y-116669338D02*
X118318110Y-116637713D01*
X118318110Y-116637713D02*
X118246175Y-116608614D01*
X118246175Y-116608614D02*
X118171977Y-116582754D01*
X118171977Y-116582754D02*
X118093182Y-116559682D01*
X118093182Y-116559682D02*
X118010934Y-116540210D01*
X118010934Y-116540210D02*
X117924623Y-116524640D01*
X117924623Y-116524640D02*
X117831713Y-116513262D01*
X117831713Y-116513262D02*
X117737243Y-116507263D01*
X117737243Y-116507263D02*
X117681695Y-116506311D01*
X119284754Y-77089005D02*
X119281715Y-76989222D01*
X119281715Y-76989222D02*
X119273225Y-76895457D01*
X119273225Y-76895457D02*
X119260310Y-76808257D01*
X119260310Y-76808257D02*
X119243342Y-76725074D01*
X119243342Y-76725074D02*
X119222483Y-76644698D01*
X119222483Y-76644698D02*
X119197828Y-76566597D01*
X119197828Y-76566597D02*
X119170604Y-76493391D01*
X119170604Y-76493391D02*
X119140471Y-76423026D01*
X119140471Y-76423026D02*
X119106709Y-76353631D01*
X119106709Y-76353631D02*
X119070965Y-76288246D01*
X119070965Y-76288246D02*
X119031505Y-76223478D01*
X119031505Y-76223478D02*
X118991210Y-76163719D01*
X118991210Y-76163719D02*
X118948155Y-76105671D01*
X118948155Y-76105671D02*
X118903173Y-76050359D01*
X118903173Y-76050359D02*
X118855823Y-75997125D01*
X118855823Y-75997125D02*
X118806397Y-75946259D01*
X118806397Y-75946259D02*
X118754555Y-75897410D01*
X118754555Y-75897410D02*
X118700121Y-75850497D01*
X118700121Y-75850497D02*
X118643842Y-75806201D01*
X118643842Y-75806201D02*
X118580844Y-75761179D01*
X118580844Y-75761179D02*
X118518982Y-75721222D01*
X118518982Y-75721222D02*
X118453357Y-75683051D01*
X118453357Y-75683051D02*
X118386625Y-75648342D01*
X118386625Y-75648342D02*
X118318108Y-75616717D01*
X118318108Y-75616717D02*
X118246173Y-75587619D01*
X118246173Y-75587619D02*
X118171975Y-75561759D01*
X118171975Y-75561759D02*
X118093180Y-75538687D01*
X118093180Y-75538687D02*
X118010932Y-75519215D01*
X118010932Y-75519215D02*
X117924621Y-75503645D01*
X117924621Y-75503645D02*
X117831711Y-75492267D01*
X117831711Y-75492267D02*
X117737241Y-75486268D01*
X117737241Y-75486268D02*
X117681693Y-75485316D01*
X117681695Y-116506311D02*
X117583190Y-116509264D01*
X117583190Y-116509264D02*
X117491289Y-116517456D01*
X117491289Y-116517456D02*
X117403417Y-116530313D01*
X117403417Y-116530313D02*
X117318976Y-116547434D01*
X117318976Y-116547434D02*
X117239170Y-116568061D01*
X117239170Y-116568061D02*
X117161610Y-116592429D01*
X117161610Y-116592429D02*
X117087500Y-116619884D01*
X117087500Y-116619884D02*
X117016824Y-116650079D01*
X117016824Y-116650079D02*
X116948478Y-116683234D01*
X116948478Y-116683234D02*
X116882246Y-116719333D01*
X116882246Y-116719333D02*
X116812869Y-116761673D01*
X116812869Y-116761673D02*
X116752477Y-116802638D01*
X116752477Y-116802638D02*
X116695037Y-116845492D01*
X116695037Y-116845492D02*
X116639160Y-116891202D01*
X116639160Y-116891202D02*
X116586297Y-116938514D01*
X116586297Y-116938514D02*
X116535161Y-116988522D01*
X116535161Y-116988522D02*
X116479888Y-117047938D01*
X116479888Y-117047938D02*
X116427272Y-117110568D01*
X116427272Y-117110568D02*
X116383142Y-117168531D01*
X116383142Y-117168531D02*
X116341959Y-117228013D01*
X116341959Y-117228013D02*
X116303120Y-117289917D01*
X116303120Y-117289917D02*
X116266350Y-117355012D01*
X116266350Y-117355012D02*
X116230749Y-117425793D01*
X116230749Y-117425793D02*
X116199178Y-117497113D01*
X116199178Y-117497113D02*
X116171021Y-117570202D01*
X116171021Y-117570202D02*
X116146027Y-117646146D01*
X116146027Y-117646146D02*
X116124170Y-117726118D01*
X116124170Y-117726118D02*
X116106166Y-117808924D01*
X116106166Y-117808924D02*
X116092065Y-117896392D01*
X116092065Y-117896392D02*
X116082606Y-117987280D01*
X116082606Y-117987280D02*
X116078203Y-118084121D01*
X116078203Y-118084121D02*
X116078007Y-118109373D01*
X116078007Y-118109373D02*
X116081157Y-118211064D01*
X116081157Y-118211064D02*
X116089754Y-118304797D01*
X116089754Y-118304797D02*
X116102880Y-118392581D01*
X116102880Y-118392581D02*
X116119973Y-118475719D01*
X116119973Y-118475719D02*
X116141125Y-118556635D01*
X116141125Y-118556635D02*
X116165423Y-118633224D01*
X116165423Y-118633224D02*
X116193742Y-118708946D01*
X116193742Y-118708946D02*
X116224311Y-118779767D01*
X116224311Y-118779767D02*
X116257297Y-118847161D01*
X116257297Y-118847161D02*
X116292997Y-118912216D01*
X116292997Y-118912216D02*
X116331083Y-118974636D01*
X116331083Y-118974636D02*
X116371543Y-119034650D01*
X116371543Y-119034650D02*
X116414229Y-119092221D01*
X116414229Y-119092221D02*
X116459774Y-119148237D01*
X116459774Y-119148237D02*
X116509183Y-119203662D01*
X116509183Y-119203662D02*
X116559787Y-119255480D01*
X116559787Y-119255480D02*
X116612444Y-119304774D01*
X116612444Y-119304774D02*
X116667049Y-119351499D01*
X116667049Y-119351499D02*
X116723488Y-119395599D01*
X116723488Y-119395599D02*
X116783156Y-119438037D01*
X116783156Y-119438037D02*
X116844541Y-119477618D01*
X116844541Y-119477618D02*
X116907803Y-119514442D01*
X116907803Y-119514442D02*
X116974489Y-119549221D01*
X116974489Y-119549221D02*
X117042966Y-119580924D01*
X117042966Y-119580924D02*
X117114859Y-119610103D01*
X117114859Y-119610103D02*
X117190775Y-119636608D01*
X117190775Y-119636608D02*
X117270171Y-119659840D01*
X117270171Y-119659840D02*
X117354266Y-119679664D01*
X117354266Y-119679664D02*
X117440000Y-119695008D01*
X117440000Y-119695008D02*
X117531359Y-119706131D01*
X117531359Y-119706131D02*
X117626157Y-119712123D01*
X117626157Y-119712123D02*
X117681067Y-119713061D01*
X117681067Y-119713061D02*
X117779565Y-119710100D01*
X117779565Y-119710100D02*
X117871466Y-119701906D01*
X117871466Y-119701906D02*
X117958719Y-119689159D01*
X117958719Y-119689159D02*
X118041961Y-119672349D01*
X118041961Y-119672349D02*
X118123583Y-119651301D01*
X118123583Y-119651301D02*
X118202886Y-119626334D01*
X118202886Y-119626334D02*
X118276956Y-119598798D01*
X118276956Y-119598798D02*
X118352567Y-119566238D01*
X118352567Y-119566238D02*
X118420740Y-119532782D01*
X118420740Y-119532782D02*
X118486003Y-119496845D01*
X118486003Y-119496845D02*
X118551912Y-119456377D01*
X118551912Y-119456377D02*
X118612239Y-119415326D01*
X118612239Y-119415326D02*
X118670086Y-119372017D01*
X118670086Y-119372017D02*
X118725418Y-119326595D01*
X118725418Y-119326595D02*
X118778210Y-119279205D01*
X118778210Y-119279205D02*
X118829065Y-119229338D01*
X118829065Y-119229338D02*
X118880072Y-119174575D01*
X118880072Y-119174575D02*
X118929834Y-119115837D01*
X118929834Y-119115837D02*
X118975351Y-119056673D01*
X118975351Y-119056673D02*
X119016796Y-118997388D01*
X119016796Y-118997388D02*
X119056372Y-118934892D01*
X119056372Y-118934892D02*
X119092817Y-118871025D01*
X119092817Y-118871025D02*
X119127034Y-118804000D01*
X119127034Y-118804000D02*
X119158393Y-118734642D01*
X119158393Y-118734642D02*
X119187142Y-118661847D01*
X119187142Y-118661847D02*
X119212758Y-118586189D01*
X119212758Y-118586189D02*
X119235119Y-118507092D01*
X119235119Y-118507092D02*
X119253969Y-118423944D01*
X119253969Y-118423944D02*
X119268623Y-118337973D01*
X119268623Y-118337973D02*
X119278898Y-118247656D01*
X119278898Y-118247656D02*
X119284205Y-118152026D01*
X119284205Y-118152026D02*
X119284756Y-118110000D01*
X200660004Y-113585310D02*
X186658252Y-113585310D01*
X117681693Y-75485316D02*
X117583188Y-75488269D01*
X117583188Y-75488269D02*
X117491287Y-75496461D01*
X117491287Y-75496461D02*
X117403415Y-75509318D01*
X117403415Y-75509318D02*
X117318974Y-75526439D01*
X117318974Y-75526439D02*
X117239168Y-75547066D01*
X117239168Y-75547066D02*
X117161608Y-75571434D01*
X117161608Y-75571434D02*
X117087498Y-75598889D01*
X117087498Y-75598889D02*
X117016822Y-75629084D01*
X117016822Y-75629084D02*
X116948476Y-75662239D01*
X116948476Y-75662239D02*
X116882244Y-75698338D01*
X116882244Y-75698338D02*
X116812867Y-75740678D01*
X116812867Y-75740678D02*
X116752475Y-75781643D01*
X116752475Y-75781643D02*
X116695035Y-75824497D01*
X116695035Y-75824497D02*
X116639158Y-75870207D01*
X116639158Y-75870207D02*
X116586295Y-75917519D01*
X116586295Y-75917519D02*
X116535159Y-75967527D01*
X116535159Y-75967527D02*
X116479886Y-76026942D01*
X116479886Y-76026942D02*
X116427270Y-76089572D01*
X116427270Y-76089572D02*
X116383140Y-76147535D01*
X116383140Y-76147535D02*
X116341957Y-76207017D01*
X116341957Y-76207017D02*
X116303118Y-76268921D01*
X116303118Y-76268921D02*
X116266348Y-76334016D01*
X116266348Y-76334016D02*
X116230747Y-76404797D01*
X116230747Y-76404797D02*
X116199176Y-76476117D01*
X116199176Y-76476117D02*
X116171019Y-76549206D01*
X116171019Y-76549206D02*
X116146025Y-76625150D01*
X116146025Y-76625150D02*
X116124168Y-76705122D01*
X116124168Y-76705122D02*
X116106164Y-76787928D01*
X116106164Y-76787928D02*
X116092063Y-76875396D01*
X116092063Y-76875396D02*
X116082604Y-76966284D01*
X116082604Y-76966284D02*
X116078201Y-77063125D01*
X116078201Y-77063125D02*
X116078005Y-77088377D01*
X192055753Y-77088377D02*
X192058903Y-77190069D01*
X192058903Y-77190069D02*
X192067500Y-77283802D01*
X192067500Y-77283802D02*
X192080626Y-77371586D01*
X192080626Y-77371586D02*
X192097719Y-77454724D01*
X192097719Y-77454724D02*
X192118871Y-77535640D01*
X192118871Y-77535640D02*
X192143169Y-77612229D01*
X192143169Y-77612229D02*
X192171488Y-77687951D01*
X192171488Y-77687951D02*
X192202057Y-77758772D01*
X192202057Y-77758772D02*
X192235043Y-77826166D01*
X192235043Y-77826166D02*
X192270743Y-77891221D01*
X192270743Y-77891221D02*
X192308829Y-77953641D01*
X192308829Y-77953641D02*
X192349289Y-78013655D01*
X192349289Y-78013655D02*
X192391975Y-78071226D01*
X192391975Y-78071226D02*
X192437520Y-78127242D01*
X192437520Y-78127242D02*
X192486929Y-78182666D01*
X192486929Y-78182666D02*
X192537534Y-78234484D01*
X192537534Y-78234484D02*
X192590191Y-78283778D01*
X192590191Y-78283778D02*
X192644796Y-78330503D01*
X192644796Y-78330503D02*
X192701235Y-78374603D01*
X192701235Y-78374603D02*
X192760903Y-78417041D01*
X192760903Y-78417041D02*
X192822288Y-78456622D01*
X192822288Y-78456622D02*
X192885550Y-78493446D01*
X192885550Y-78493446D02*
X192952236Y-78528225D01*
X192952236Y-78528225D02*
X193020713Y-78559928D01*
X193020713Y-78559928D02*
X193092606Y-78589107D01*
X193092606Y-78589107D02*
X193168522Y-78615612D01*
X193168522Y-78615612D02*
X193247918Y-78638844D01*
X193247918Y-78638844D02*
X193332013Y-78658668D01*
X193332013Y-78658668D02*
X193417747Y-78674013D01*
X193417747Y-78674013D02*
X193509106Y-78685136D01*
X193509106Y-78685136D02*
X193603904Y-78691128D01*
X193603904Y-78691128D02*
X193658814Y-78692066D01*
X186658252Y-113585310D02*
X186658252Y-81581311D01*
X110680506Y-81581311D02*
X124682252Y-81581311D01*
X124682252Y-113585310D02*
X110680506Y-113585310D01*
X200660004Y-122602310D02*
X200660004Y-113585310D01*
X200660004Y-81581311D02*
X200660004Y-72596061D01*
X124682252Y-81581311D02*
X124682252Y-113585310D01*
X110680506Y-72596061D02*
X110680506Y-81581311D01*
X110680506Y-113585310D02*
X110680506Y-122602310D01*
X192055751Y-118109372D02*
X192058901Y-118211064D01*
X192058901Y-118211064D02*
X192067498Y-118304797D01*
X192067498Y-118304797D02*
X192080624Y-118392581D01*
X192080624Y-118392581D02*
X192097717Y-118475719D01*
X192097717Y-118475719D02*
X192118869Y-118556635D01*
X192118869Y-118556635D02*
X192143167Y-118633224D01*
X192143167Y-118633224D02*
X192171486Y-118708946D01*
X192171486Y-118708946D02*
X192202055Y-118779767D01*
X192202055Y-118779767D02*
X192235041Y-118847161D01*
X192235041Y-118847161D02*
X192270741Y-118912216D01*
X192270741Y-118912216D02*
X192308827Y-118974636D01*
X192308827Y-118974636D02*
X192349287Y-119034650D01*
X192349287Y-119034650D02*
X192391973Y-119092221D01*
X192391973Y-119092221D02*
X192437518Y-119148237D01*
X192437518Y-119148237D02*
X192486927Y-119203662D01*
X192486927Y-119203662D02*
X192537532Y-119255480D01*
X192537532Y-119255480D02*
X192590189Y-119304774D01*
X192590189Y-119304774D02*
X192644794Y-119351499D01*
X192644794Y-119351499D02*
X192701233Y-119395599D01*
X192701233Y-119395599D02*
X192760901Y-119438037D01*
X192760901Y-119438037D02*
X192822286Y-119477618D01*
X192822286Y-119477618D02*
X192885548Y-119514442D01*
X192885548Y-119514442D02*
X192952234Y-119549221D01*
X192952234Y-119549221D02*
X193020711Y-119580924D01*
X193020711Y-119580924D02*
X193092604Y-119610103D01*
X193092604Y-119610103D02*
X193168520Y-119636608D01*
X193168520Y-119636608D02*
X193247916Y-119659840D01*
X193247916Y-119659840D02*
X193332011Y-119679664D01*
X193332011Y-119679664D02*
X193417745Y-119695008D01*
X193417745Y-119695008D02*
X193509104Y-119706131D01*
X193509104Y-119706131D02*
X193603902Y-119712123D01*
X193603902Y-119712123D02*
X193658812Y-119713061D01*
X193658812Y-119713061D02*
X193757310Y-119710100D01*
X193757310Y-119710100D02*
X193849211Y-119701906D01*
X193849211Y-119701906D02*
X193936464Y-119689159D01*
X193936464Y-119689159D02*
X194019706Y-119672349D01*
X194019706Y-119672349D02*
X194101328Y-119651301D01*
X194101328Y-119651301D02*
X194180631Y-119626334D01*
X194180631Y-119626334D02*
X194254701Y-119598798D01*
X194254701Y-119598798D02*
X194330312Y-119566238D01*
X194330312Y-119566238D02*
X194398485Y-119532782D01*
X194398485Y-119532782D02*
X194463748Y-119496845D01*
X194463748Y-119496845D02*
X194529657Y-119456377D01*
X194529657Y-119456377D02*
X194589984Y-119415326D01*
X194589984Y-119415326D02*
X194647831Y-119372017D01*
X194647831Y-119372017D02*
X194703163Y-119326595D01*
X194703163Y-119326595D02*
X194755955Y-119279205D01*
X194755955Y-119279205D02*
X194806810Y-119229338D01*
X194806810Y-119229338D02*
X194857817Y-119174575D01*
X194857817Y-119174575D02*
X194907579Y-119115837D01*
X194907579Y-119115837D02*
X194953096Y-119056673D01*
X194953096Y-119056673D02*
X194994541Y-118997388D01*
X194994541Y-118997388D02*
X195034117Y-118934892D01*
X195034117Y-118934892D02*
X195070562Y-118871025D01*
X195070562Y-118871025D02*
X195104779Y-118804000D01*
X195104779Y-118804000D02*
X195136138Y-118734642D01*
X195136138Y-118734642D02*
X195164887Y-118661847D01*
X195164887Y-118661847D02*
X195190503Y-118586189D01*
X195190503Y-118586189D02*
X195212864Y-118507092D01*
X195212864Y-118507092D02*
X195231714Y-118423944D01*
X195231714Y-118423944D02*
X195246368Y-118337973D01*
X195246368Y-118337973D02*
X195256643Y-118247656D01*
X195256643Y-118247656D02*
X195261950Y-118152026D01*
X195261950Y-118152026D02*
X195262501Y-118110000D01*
X186658252Y-81581311D02*
X200660004Y-81581311D01*
X195262501Y-118110000D02*
X195259462Y-118010217D01*
X195259462Y-118010217D02*
X195250972Y-117916452D01*
X195250972Y-117916452D02*
X195238057Y-117829252D01*
X195238057Y-117829252D02*
X195221089Y-117746069D01*
X195221089Y-117746069D02*
X195200230Y-117665693D01*
X195200230Y-117665693D02*
X195175575Y-117587592D01*
X195175575Y-117587592D02*
X195148351Y-117514386D01*
X195148351Y-117514386D02*
X195118218Y-117444021D01*
X195118218Y-117444021D02*
X195084456Y-117374626D01*
X195084456Y-117374626D02*
X195048712Y-117309241D01*
X195048712Y-117309241D02*
X195009252Y-117244473D01*
X195009252Y-117244473D02*
X194968957Y-117184714D01*
X194968957Y-117184714D02*
X194925902Y-117126666D01*
X194925902Y-117126666D02*
X194880920Y-117071354D01*
X194880920Y-117071354D02*
X194833570Y-117018120D01*
X194833570Y-117018120D02*
X194784144Y-116967254D01*
X194784144Y-116967254D02*
X194732302Y-116918405D01*
X194732302Y-116918405D02*
X194677868Y-116871492D01*
X194677868Y-116871492D02*
X194621589Y-116827196D01*
X194621589Y-116827196D02*
X194558591Y-116782174D01*
X194558591Y-116782174D02*
X194496729Y-116742217D01*
X194496729Y-116742217D02*
X194431104Y-116704046D01*
X194431104Y-116704046D02*
X194364372Y-116669337D01*
X194364372Y-116669337D02*
X194295855Y-116637712D01*
X194295855Y-116637712D02*
X194223920Y-116608614D01*
X194223920Y-116608614D02*
X194149722Y-116582754D01*
X194149722Y-116582754D02*
X194070927Y-116559682D01*
X194070927Y-116559682D02*
X193988679Y-116540210D01*
X193988679Y-116540210D02*
X193902368Y-116524640D01*
X193902368Y-116524640D02*
X193809458Y-116513262D01*
X193809458Y-116513262D02*
X193714988Y-116507263D01*
X193714988Y-116507263D02*
X193659440Y-116506311D01*
M02*
