(export (version D)
  (design
    (source D:\Documents\Prywatne\jazzgoth_noise_follower_robot\Electronics\main_board\jazzgoth.sch)
    (date "04/10/19 00:23:31")
    (tool "Eeschema (5.1.0)-1")
    (sheet (number 1) (name /) (tstamps /)
      (title_block
        (title)
        (company)
        (rev)
        (date)
        (source jazzgoth.sch)
        (comment (number 1) (value ""))
        (comment (number 2) (value ""))
        (comment (number 3) (value ""))
        (comment (number 4) (value "")))))
  (components
    (comp (ref U1)
      (value STM32F401RCTx)
      (footprint Package_QFP:LQFP-64_10x10mm_P0.5mm)
      (datasheet http://www.st.com/st-web-ui/static/active/en/resource/technical/document/datasheet/DM00086815.pdf)
      (libsource (lib MCU_ST_STM32F4) (part STM32F401RCTx) (description "ARM Cortex-M4 MCU, 256KB flash, 64KB RAM, 84MHz, 1.7-3.6V, 50 GPIO, LQFP-64"))
      (sheetpath (names /) (tstamps /))
      (tstamp 5CA2458B))
    (comp (ref C3)
      (value 10uF)
      (footprint Capacitor_SMD:C_0603_1608Metric_Pad1.05x0.95mm_HandSolder)
      (datasheet ~)
      (libsource (lib Device) (part C) (description "Unpolarized capacitor"))
      (sheetpath (names /) (tstamps /))
      (tstamp 5CA3C1E2))
    (comp (ref U3)
      (value LM1117-3.3)
      (footprint LM1117DT-3.3:TO228P970X238-3N)
      (datasheet http://www.ti.com/lit/ds/symlink/lm1117.pdf)
      (libsource (lib Regulator_Linear) (part LM1117-3.3) (description "800mA Low-Dropout Linear Regulator, 3.3V fixed output, TO-220/TO-252/TO-263/SOT-223"))
      (sheetpath (names /) (tstamps /))
      (tstamp 5CA3804E))
    (comp (ref C7)
      (value 100uF)
      (footprint Capacitor_SMD:C_0603_1608Metric_Pad1.05x0.95mm_HandSolder)
      (datasheet ~)
      (libsource (lib Device) (part C) (description "Unpolarized capacitor"))
      (sheetpath (names /) (tstamps /))
      (tstamp 5CA44B39))
    (comp (ref C1)
      (value 2.2uF)
      (footprint Capacitor_SMD:C_0603_1608Metric_Pad1.05x0.95mm_HandSolder)
      (datasheet ~)
      (libsource (lib Device) (part C) (description "Unpolarized capacitor"))
      (sheetpath (names /) (tstamps /))
      (tstamp 5CA4CEF2))
    (comp (ref R8)
      (value 47k)
      (footprint Resistor_SMD:R_0603_1608Metric_Pad1.05x0.95mm_HandSolder)
      (datasheet ~)
      (libsource (lib Device) (part R) (description Resistor))
      (sheetpath (names /) (tstamps /))
      (tstamp 5CA537A0))
    (comp (ref R7)
      (value 47k)
      (footprint Resistor_SMD:R_0603_1608Metric_Pad1.05x0.95mm_HandSolder)
      (datasheet ~)
      (libsource (lib Device) (part R) (description Resistor))
      (sheetpath (names /) (tstamps /))
      (tstamp 5CA5403B))
    (comp (ref J6)
      (value Conn_01x04)
      (footprint Connector_PinHeader_2.54mm:PinHeader_1x04_P2.54mm_Horizontal)
      (datasheet ~)
      (libsource (lib Connector_Generic) (part Conn_01x04) (description "Generic connector, single row, 01x04, script generated (kicad-library-utils/schlib/autogen/connector/)"))
      (sheetpath (names /) (tstamps /))
      (tstamp 5CB33F6B))
    (comp (ref J8)
      (value Conn_01x02)
      (footprint Connector_PinHeader_2.54mm:PinHeader_1x02_P2.54mm_Vertical)
      (datasheet ~)
      (libsource (lib Connector_Generic) (part Conn_01x02) (description "Generic connector, single row, 01x02, script generated (kicad-library-utils/schlib/autogen/connector/)"))
      (sheetpath (names /) (tstamps /))
      (tstamp 5CB59E2E))
    (comp (ref J9)
      (value Conn_01x02)
      (footprint Connector_PinHeader_2.54mm:PinHeader_1x02_P2.54mm_Vertical)
      (datasheet ~)
      (libsource (lib Connector_Generic) (part Conn_01x02) (description "Generic connector, single row, 01x02, script generated (kicad-library-utils/schlib/autogen/connector/)"))
      (sheetpath (names /) (tstamps /))
      (tstamp 5CB5B37D))
    (comp (ref D1)
      (value LED)
      (footprint Diode_SMD:D_0805_2012Metric)
      (datasheet ~)
      (libsource (lib Device) (part LED) (description "Light emitting diode"))
      (sheetpath (names /) (tstamps /))
      (tstamp 5CAED5A7))
    (comp (ref SW1)
      (value SW_DIP_x01)
      (footprint Connector_PinSocket_2.54mm:PinSocket_1x02_P2.54mm_Horizontal)
      (datasheet ~)
      (libsource (lib Switch) (part SW_DIP_x01) (description "1x DIP Switch, Single Pole Single Throw (SPST) switch, small symbol"))
      (sheetpath (names /) (tstamps /))
      (tstamp 5CB03141))
    (comp (ref R5)
      (value 680R)
      (footprint Resistor_SMD:R_0603_1608Metric_Pad1.05x0.95mm_HandSolder)
      (datasheet ~)
      (libsource (lib Device) (part R) (description Resistor))
      (sheetpath (names /) (tstamps /))
      (tstamp 5CB2E57C))
    (comp (ref U4)
      (value TB6612FNG)
      (footprint Package_SO:SSOP-24_5.3x8.2mm_P0.65mm)
      (datasheet https://toshiba.semicon-storage.com/us/product/linear/motordriver/detail.TB6612FNG.html)
      (libsource (lib Driver_Motor) (part TB6612FNG) (description "Driver IC for Dual DC motor, SSOP-24"))
      (sheetpath (names /) (tstamps /))
      (tstamp 5CB45987))
    (comp (ref R4)
      (value 200R)
      (footprint Resistor_SMD:R_0603_1608Metric_Pad1.05x0.95mm_HandSolder)
      (datasheet ~)
      (libsource (lib Device) (part R) (description Resistor))
      (sheetpath (names /) (tstamps /))
      (tstamp 5CB4D93A))
    (comp (ref R3)
      (value 200R)
      (footprint Resistor_SMD:R_0603_1608Metric_Pad1.05x0.95mm_HandSolder)
      (datasheet ~)
      (libsource (lib Device) (part R) (description Resistor))
      (sheetpath (names /) (tstamps /))
      (tstamp 5CB5398F))
    (comp (ref R2)
      (value 200R)
      (footprint Resistor_SMD:R_0603_1608Metric_Pad1.05x0.95mm_HandSolder)
      (datasheet ~)
      (libsource (lib Device) (part R) (description Resistor))
      (sheetpath (names /) (tstamps /))
      (tstamp 5CB59E9D))
    (comp (ref R1)
      (value 200R)
      (footprint Resistor_SMD:R_0603_1608Metric_Pad1.05x0.95mm_HandSolder)
      (datasheet ~)
      (libsource (lib Device) (part R) (description Resistor))
      (sheetpath (names /) (tstamps /))
      (tstamp 5CB59EA7))
    (comp (ref J4)
      (value Conn_01x04)
      (footprint Connector_PinSocket_2.00mm:PinSocket_1x04_P2.00mm_Horizontal)
      (datasheet ~)
      (libsource (lib Connector_Generic) (part Conn_01x04) (description "Generic connector, single row, 01x04, script generated (kicad-library-utils/schlib/autogen/connector/)"))
      (sheetpath (names /) (tstamps /))
      (tstamp 5CB7FF69))
    (comp (ref J5)
      (value Conn_01x04)
      (footprint Connector_PinSocket_2.00mm:PinSocket_1x04_P2.00mm_Horizontal)
      (datasheet ~)
      (libsource (lib Connector_Generic) (part Conn_01x04) (description "Generic connector, single row, 01x04, script generated (kicad-library-utils/schlib/autogen/connector/)"))
      (sheetpath (names /) (tstamps /))
      (tstamp 5CB873B2))
    (comp (ref BT1)
      (value Battery)
      (footprint Connector_PinHeader_2.54mm:PinHeader_1x02_P2.54mm_Vertical)
      (datasheet ~)
      (libsource (lib Device) (part Battery) (description "Multiple-cell battery"))
      (sheetpath (names /) (tstamps /))
      (tstamp 5CC4D72D))
    (comp (ref U2)
      (value LM317_3PinPackage)
      (footprint Package_TO_SOT_SMD:TO-263-3_TabPin2)
      (datasheet http://www.ti.com/lit/ds/symlink/lm317.pdf)
      (libsource (lib Regulator_Linear) (part LM317_3PinPackage) (description "1A 35V Adjustable Linear Regulator, SOT-89/SOT-223/TO-220/TO-252/TO-263"))
      (sheetpath (names /) (tstamps /))
      (tstamp 5CCC020B))
    (comp (ref D2)
      (value WS2812B)
      (footprint LED_SMD:LED_WS2812B_PLCC4_5.0x5.0mm_P3.2mm)
      (datasheet https://cdn-shop.adafruit.com/datasheets/WS2812B.pdf)
      (libsource (lib LED) (part WS2812B) (description "RGB LED with integrated controller"))
      (sheetpath (names /) (tstamps /))
      (tstamp 5CCC8F82))
    (comp (ref C2)
      (value 10uF)
      (footprint Capacitor_SMD:C_0603_1608Metric_Pad1.05x0.95mm_HandSolder)
      (datasheet ~)
      (libsource (lib Device) (part C) (description "Unpolarized capacitor"))
      (sheetpath (names /) (tstamps /))
      (tstamp 5CCD12BF))
    (comp (ref D3)
      (value WS2812B)
      (footprint LED_SMD:LED_WS2812B_PLCC4_5.0x5.0mm_P3.2mm)
      (datasheet https://cdn-shop.adafruit.com/datasheets/WS2812B.pdf)
      (libsource (lib LED) (part WS2812B) (description "RGB LED with integrated controller"))
      (sheetpath (names /) (tstamps /))
      (tstamp 5CCDA157))
    (comp (ref C4)
      (value 10uF)
      (footprint Capacitor_SMD:C_0603_1608Metric_Pad1.05x0.95mm_HandSolder)
      (datasheet ~)
      (libsource (lib Device) (part C) (description "Unpolarized capacitor"))
      (sheetpath (names /) (tstamps /))
      (tstamp 5CCDA16C))
    (comp (ref D4)
      (value WS2812B)
      (footprint LED_SMD:LED_WS2812B_PLCC4_5.0x5.0mm_P3.2mm)
      (datasheet https://cdn-shop.adafruit.com/datasheets/WS2812B.pdf)
      (libsource (lib LED) (part WS2812B) (description "RGB LED with integrated controller"))
      (sheetpath (names /) (tstamps /))
      (tstamp 5CCE023F))
    (comp (ref C5)
      (value 10uF)
      (footprint Capacitor_SMD:C_0603_1608Metric_Pad1.05x0.95mm_HandSolder)
      (datasheet ~)
      (libsource (lib Device) (part C) (description "Unpolarized capacitor"))
      (sheetpath (names /) (tstamps /))
      (tstamp 5CCE0254))
    (comp (ref D6)
      (value WS2812B)
      (footprint LED_SMD:LED_WS2812B_PLCC4_5.0x5.0mm_P3.2mm)
      (datasheet https://cdn-shop.adafruit.com/datasheets/WS2812B.pdf)
      (libsource (lib LED) (part WS2812B) (description "RGB LED with integrated controller"))
      (sheetpath (names /) (tstamps /))
      (tstamp 5CCE026B))
    (comp (ref C8)
      (value 10uF)
      (footprint Capacitor_SMD:C_0603_1608Metric_Pad1.05x0.95mm_HandSolder)
      (datasheet ~)
      (libsource (lib Device) (part C) (description "Unpolarized capacitor"))
      (sheetpath (names /) (tstamps /))
      (tstamp 5CCE0280))
    (comp (ref D5)
      (value WS2812B)
      (footprint LED_SMD:LED_WS2812B_PLCC4_5.0x5.0mm_P3.2mm)
      (datasheet https://cdn-shop.adafruit.com/datasheets/WS2812B.pdf)
      (libsource (lib LED) (part WS2812B) (description "RGB LED with integrated controller"))
      (sheetpath (names /) (tstamps /))
      (tstamp 5CCF7D5E))
    (comp (ref C6)
      (value 10uF)
      (footprint Capacitor_SMD:C_0603_1608Metric_Pad1.05x0.95mm_HandSolder)
      (datasheet ~)
      (libsource (lib Device) (part C) (description "Unpolarized capacitor"))
      (sheetpath (names /) (tstamps /))
      (tstamp 5CCF7D73))
    (comp (ref D7)
      (value WS2812B)
      (footprint LED_SMD:LED_WS2812B_PLCC4_5.0x5.0mm_P3.2mm)
      (datasheet https://cdn-shop.adafruit.com/datasheets/WS2812B.pdf)
      (libsource (lib LED) (part WS2812B) (description "RGB LED with integrated controller"))
      (sheetpath (names /) (tstamps /))
      (tstamp 5CCF7D8A))
    (comp (ref C9)
      (value 10uF)
      (footprint Capacitor_SMD:C_0603_1608Metric_Pad1.05x0.95mm_HandSolder)
      (datasheet ~)
      (libsource (lib Device) (part C) (description "Unpolarized capacitor"))
      (sheetpath (names /) (tstamps /))
      (tstamp 5CCF7D9F))
    (comp (ref R6)
      (value 100R)
      (footprint Resistor_SMD:R_0603_1608Metric_Pad1.05x0.95mm_HandSolder)
      (datasheet ~)
      (libsource (lib Device) (part R) (description Resistor))
      (sheetpath (names /) (tstamps /))
      (tstamp 5CD0613A))
    (comp (ref J7)
      (value Conn_01x04)
      (footprint Connector_PinHeader_2.54mm:PinHeader_1x04_P2.54mm_Horizontal)
      (datasheet ~)
      (libsource (lib Connector_Generic) (part Conn_01x04) (description "Generic connector, single row, 01x04, script generated (kicad-library-utils/schlib/autogen/connector/)"))
      (sheetpath (names /) (tstamps /))
      (tstamp 5CD16796))
    (comp (ref J16)
      (value Conn_01x08)
      (footprint Connector_PinSocket_2.54mm:PinSocket_1x08_P2.54mm_Horizontal)
      (datasheet ~)
      (libsource (lib Connector_Generic) (part Conn_01x08) (description "Generic connector, single row, 01x08, script generated (kicad-library-utils/schlib/autogen/connector/)"))
      (sheetpath (names /) (tstamps /))
      (tstamp 5CB817A6))
    (comp (ref J1)
      (value Conn_01x05)
      (footprint Connector_PinHeader_2.54mm:PinHeader_1x05_P2.54mm_Vertical)
      (datasheet ~)
      (libsource (lib Connector_Generic) (part Conn_01x05) (description "Generic connector, single row, 01x05, script generated (kicad-library-utils/schlib/autogen/connector/)"))
      (sheetpath (names /) (tstamps /))
      (tstamp 5CAD68C0))
    (comp (ref J2)
      (value Conn_01x05)
      (footprint Connector_PinHeader_2.54mm:PinHeader_1x05_P2.54mm_Vertical)
      (datasheet ~)
      (libsource (lib Connector_Generic) (part Conn_01x05) (description "Generic connector, single row, 01x05, script generated (kicad-library-utils/schlib/autogen/connector/)"))
      (sheetpath (names /) (tstamps /))
      (tstamp 5CAD7F78))
    (comp (ref J3)
      (value Conn_01x05)
      (footprint Connector_PinHeader_2.54mm:PinHeader_1x05_P2.54mm_Vertical)
      (datasheet ~)
      (libsource (lib Connector_Generic) (part Conn_01x05) (description "Generic connector, single row, 01x05, script generated (kicad-library-utils/schlib/autogen/connector/)"))
      (sheetpath (names /) (tstamps /))
      (tstamp 5CAD885E)))
  (libparts
    (libpart (lib Connector_Generic) (part Conn_01x02)
      (description "Generic connector, single row, 01x02, script generated (kicad-library-utils/schlib/autogen/connector/)")
      (docs ~)
      (footprints
        (fp Connector*:*_1x??_*))
      (fields
        (field (name Reference) J)
        (field (name Value) Conn_01x02))
      (pins
        (pin (num 1) (name Pin_1) (type passive))
        (pin (num 2) (name Pin_2) (type passive))))
    (libpart (lib Connector_Generic) (part Conn_01x04)
      (description "Generic connector, single row, 01x04, script generated (kicad-library-utils/schlib/autogen/connector/)")
      (docs ~)
      (footprints
        (fp Connector*:*_1x??_*))
      (fields
        (field (name Reference) J)
        (field (name Value) Conn_01x04))
      (pins
        (pin (num 1) (name Pin_1) (type passive))
        (pin (num 2) (name Pin_2) (type passive))
        (pin (num 3) (name Pin_3) (type passive))
        (pin (num 4) (name Pin_4) (type passive))))
    (libpart (lib Connector_Generic) (part Conn_01x05)
      (description "Generic connector, single row, 01x05, script generated (kicad-library-utils/schlib/autogen/connector/)")
      (docs ~)
      (footprints
        (fp Connector*:*_1x??_*))
      (fields
        (field (name Reference) J)
        (field (name Value) Conn_01x05))
      (pins
        (pin (num 1) (name Pin_1) (type passive))
        (pin (num 2) (name Pin_2) (type passive))
        (pin (num 3) (name Pin_3) (type passive))
        (pin (num 4) (name Pin_4) (type passive))
        (pin (num 5) (name Pin_5) (type passive))))
    (libpart (lib Connector_Generic) (part Conn_01x08)
      (description "Generic connector, single row, 01x08, script generated (kicad-library-utils/schlib/autogen/connector/)")
      (docs ~)
      (footprints
        (fp Connector*:*_1x??_*))
      (fields
        (field (name Reference) J)
        (field (name Value) Conn_01x08))
      (pins
        (pin (num 1) (name Pin_1) (type passive))
        (pin (num 2) (name Pin_2) (type passive))
        (pin (num 3) (name Pin_3) (type passive))
        (pin (num 4) (name Pin_4) (type passive))
        (pin (num 5) (name Pin_5) (type passive))
        (pin (num 6) (name Pin_6) (type passive))
        (pin (num 7) (name Pin_7) (type passive))
        (pin (num 8) (name Pin_8) (type passive))))
    (libpart (lib Device) (part Battery)
      (description "Multiple-cell battery")
      (docs ~)
      (fields
        (field (name Reference) BT)
        (field (name Value) Battery))
      (pins
        (pin (num 1) (name +) (type passive))
        (pin (num 2) (name -) (type passive))))
    (libpart (lib Device) (part C)
      (description "Unpolarized capacitor")
      (docs ~)
      (footprints
        (fp C_*))
      (fields
        (field (name Reference) C)
        (field (name Value) C))
      (pins
        (pin (num 1) (name ~) (type passive))
        (pin (num 2) (name ~) (type passive))))
    (libpart (lib Device) (part LED)
      (description "Light emitting diode")
      (docs ~)
      (footprints
        (fp LED*)
        (fp LED_SMD:*)
        (fp LED_THT:*))
      (fields
        (field (name Reference) D)
        (field (name Value) LED))
      (pins
        (pin (num 1) (name K) (type passive))
        (pin (num 2) (name A) (type passive))))
    (libpart (lib Device) (part R)
      (description Resistor)
      (docs ~)
      (footprints
        (fp R_*))
      (fields
        (field (name Reference) R)
        (field (name Value) R))
      (pins
        (pin (num 1) (name ~) (type passive))
        (pin (num 2) (name ~) (type passive))))
    (libpart (lib Driver_Motor) (part TB6612FNG)
      (description "Driver IC for Dual DC motor, SSOP-24")
      (docs https://toshiba.semicon-storage.com/us/product/linear/motordriver/detail.TB6612FNG.html)
      (footprints
        (fp SSOP-24*5.3x8.2mm*P0.65mm*))
      (fields
        (field (name Reference) U)
        (field (name Value) TB6612FNG)
        (field (name Footprint) Package_SO:SSOP-24_5.3x8.2mm_P0.65mm))
      (pins
        (pin (num 1) (name AO1) (type power_out))
        (pin (num 2) (name AO1) (type power_out))
        (pin (num 3) (name PGND1) (type power_in))
        (pin (num 4) (name PGND1) (type power_in))
        (pin (num 5) (name AO2) (type power_out))
        (pin (num 6) (name AO2) (type power_out))
        (pin (num 7) (name BO2) (type power_out))
        (pin (num 8) (name BO2) (type power_out))
        (pin (num 9) (name PGND2) (type power_in))
        (pin (num 10) (name PGND2) (type power_in))
        (pin (num 11) (name BO1) (type power_out))
        (pin (num 12) (name BO1) (type power_out))
        (pin (num 13) (name VM2) (type power_in))
        (pin (num 14) (name VM3) (type power_in))
        (pin (num 15) (name PWMB) (type input))
        (pin (num 16) (name BIN2) (type input))
        (pin (num 17) (name BIN1) (type input))
        (pin (num 18) (name GND) (type power_in))
        (pin (num 19) (name STBY) (type input))
        (pin (num 20) (name VCC) (type power_in))
        (pin (num 21) (name AIN1) (type input))
        (pin (num 22) (name AIN2) (type input))
        (pin (num 23) (name PWMA) (type input))
        (pin (num 24) (name VM1) (type power_in))))
    (libpart (lib LED) (part WS2812B)
      (description "RGB LED with integrated controller")
      (docs https://cdn-shop.adafruit.com/datasheets/WS2812B.pdf)
      (footprints
        (fp LED*WS2812*PLCC*5.0x5.0mm*P3.2mm*))
      (fields
        (field (name Reference) D)
        (field (name Value) WS2812B)
        (field (name Footprint) LED_SMD:LED_WS2812B_PLCC4_5.0x5.0mm_P3.2mm))
      (pins
        (pin (num 1) (name VDD) (type power_in))
        (pin (num 2) (name DOUT) (type output))
        (pin (num 3) (name VSS) (type power_in))
        (pin (num 4) (name DIN) (type input))))
    (libpart (lib MCU_ST_STM32F4) (part STM32F401RBTx)
      (aliases
        (alias STM32F401RCTx))
      (description "ARM Cortex-M4 MCU, 128KB flash, 64KB RAM, 84MHz, 1.7-3.6V, 50 GPIO, LQFP-64")
      (docs http://www.st.com/st-web-ui/static/active/en/resource/technical/document/datasheet/DM00086815.pdf)
      (footprints
        (fp LQFP*10x10mm*P0.5mm*))
      (fields
        (field (name Reference) U)
        (field (name Value) STM32F401RBTx)
        (field (name Footprint) Package_QFP:LQFP-64_10x10mm_P0.5mm))
      (pins
        (pin (num 1) (name VBAT) (type power_in))
        (pin (num 2) (name PC13) (type BiDi))
        (pin (num 3) (name PC14) (type BiDi))
        (pin (num 4) (name PC15) (type BiDi))
        (pin (num 5) (name PH0) (type input))
        (pin (num 6) (name PH1) (type input))
        (pin (num 7) (name NRST) (type input))
        (pin (num 8) (name PC0) (type BiDi))
        (pin (num 9) (name PC1) (type BiDi))
        (pin (num 10) (name PC2) (type BiDi))
        (pin (num 11) (name PC3) (type BiDi))
        (pin (num 12) (name VSSA) (type power_in))
        (pin (num 13) (name VREF+) (type power_in))
        (pin (num 14) (name PA0) (type BiDi))
        (pin (num 15) (name PA1) (type BiDi))
        (pin (num 16) (name PA2) (type BiDi))
        (pin (num 17) (name PA3) (type BiDi))
        (pin (num 18) (name VSS) (type power_in))
        (pin (num 19) (name VDD) (type power_in))
        (pin (num 20) (name PA4) (type BiDi))
        (pin (num 21) (name PA5) (type BiDi))
        (pin (num 22) (name PA6) (type BiDi))
        (pin (num 23) (name PA7) (type BiDi))
        (pin (num 24) (name PC4) (type BiDi))
        (pin (num 25) (name PC5) (type BiDi))
        (pin (num 26) (name PB0) (type BiDi))
        (pin (num 27) (name PB1) (type BiDi))
        (pin (num 28) (name PB2) (type BiDi))
        (pin (num 29) (name PB10) (type BiDi))
        (pin (num 30) (name VCAP1) (type power_in))
        (pin (num 31) (name VSS) (type power_in))
        (pin (num 32) (name VDD) (type power_in))
        (pin (num 33) (name PB12) (type BiDi))
        (pin (num 34) (name PB13) (type BiDi))
        (pin (num 35) (name PB14) (type BiDi))
        (pin (num 36) (name PB15) (type BiDi))
        (pin (num 37) (name PC6) (type BiDi))
        (pin (num 38) (name PC7) (type BiDi))
        (pin (num 39) (name PC8) (type BiDi))
        (pin (num 40) (name PC9) (type BiDi))
        (pin (num 41) (name PA8) (type BiDi))
        (pin (num 42) (name PA9) (type BiDi))
        (pin (num 43) (name PA10) (type BiDi))
        (pin (num 44) (name PA11) (type BiDi))
        (pin (num 45) (name PA12) (type BiDi))
        (pin (num 46) (name PA13) (type BiDi))
        (pin (num 47) (name VSS) (type power_in))
        (pin (num 48) (name VDD) (type power_in))
        (pin (num 49) (name PA14) (type BiDi))
        (pin (num 50) (name PA15) (type BiDi))
        (pin (num 51) (name PC10) (type BiDi))
        (pin (num 52) (name PC11) (type BiDi))
        (pin (num 53) (name PC12) (type BiDi))
        (pin (num 54) (name PD2) (type BiDi))
        (pin (num 55) (name PB3) (type BiDi))
        (pin (num 56) (name PB4) (type BiDi))
        (pin (num 57) (name PB5) (type BiDi))
        (pin (num 58) (name PB6) (type BiDi))
        (pin (num 59) (name PB7) (type BiDi))
        (pin (num 60) (name BOOT0) (type input))
        (pin (num 61) (name PB8) (type BiDi))
        (pin (num 62) (name PB9) (type BiDi))
        (pin (num 63) (name VSS) (type power_in))
        (pin (num 64) (name VDD) (type power_in))))
    (libpart (lib Regulator_Linear) (part LM1117-1.8)
      (aliases
        (alias LM1117-2.5)
        (alias LM1117-3.3)
        (alias LM1117-5.0)
        (alias TLV1117-15)
        (alias TLV1117-18)
        (alias TLV1117-25)
        (alias TLV1117-33)
        (alias TLV1117-50))
      (description "800mA Low-Dropout Linear Regulator, 1.8V fixed output, TO-220/TO-252/TO-263/SOT-223")
      (docs http://www.ti.com/lit/ds/symlink/lm1117.pdf)
      (footprints
        (fp SOT?223*)
        (fp TO?263*)
        (fp TO?252*)
        (fp TO?220*))
      (fields
        (field (name Reference) U)
        (field (name Value) LM1117-1.8))
      (pins
        (pin (num 1) (name GND) (type power_in))
        (pin (num 2) (name VO) (type power_out))
        (pin (num 3) (name VI) (type power_in))))
    (libpart (lib Regulator_Linear) (part LM317_3PinPackage)
      (aliases
        (alias AZ1117-ADJ))
      (description "1A 35V Adjustable Linear Regulator, SOT-89/SOT-223/TO-220/TO-252/TO-263")
      (docs http://www.ti.com/lit/ds/symlink/lm317.pdf)
      (footprints
        (fp SOT?223*)
        (fp SOT?89*)
        (fp TO?220*)
        (fp TO?252*)
        (fp TO?263*))
      (fields
        (field (name Reference) U)
        (field (name Value) LM317_3PinPackage))
      (pins
        (pin (num 1) (name ADJ) (type input))
        (pin (num 2) (name VO) (type power_out))
        (pin (num 3) (name VI) (type power_in))))
    (libpart (lib Switch) (part SW_DIP_x01)
      (description "1x DIP Switch, Single Pole Single Throw (SPST) switch, small symbol")
      (docs ~)
      (footprints
        (fp SW?DIP?x1*))
      (fields
        (field (name Reference) SW)
        (field (name Value) SW_DIP_x01))
      (pins
        (pin (num 1) (name ~) (type passive))
        (pin (num 2) (name ~) (type passive)))))
  (libraries
    (library (logical Connector_Generic)
      (uri "C:\\Program Files\\KiCad\\share\\kicad\\library/Connector_Generic.lib"))
    (library (logical Device)
      (uri "C:\\Program Files\\KiCad\\share\\kicad\\library/Device.lib"))
    (library (logical Driver_Motor)
      (uri "C:\\Program Files\\KiCad\\share\\kicad\\library/Driver_Motor.lib"))
    (library (logical LED)
      (uri "C:\\Program Files\\KiCad\\share\\kicad\\library/LED.lib"))
    (library (logical MCU_ST_STM32F4)
      (uri "C:\\Program Files\\KiCad\\share\\kicad\\library/MCU_ST_STM32F4.lib"))
    (library (logical Regulator_Linear)
      (uri "C:\\Program Files\\KiCad\\share\\kicad\\library/Regulator_Linear.lib"))
    (library (logical Switch)
      (uri "C:\\Program Files\\KiCad\\share\\kicad\\library/Switch.lib")))
  (nets
    (net (code 1) (name GND)
      (node (ref C1) (pin 1))
      (node (ref J16) (pin 1))
      (node (ref U1) (pin 18))
      (node (ref BT1) (pin 2))
      (node (ref U3) (pin 1))
      (node (ref U1) (pin 31))
      (node (ref U4) (pin 3))
      (node (ref U4) (pin 4))
      (node (ref J1) (pin 2))
      (node (ref C7) (pin 1))
      (node (ref U4) (pin 9))
      (node (ref C9) (pin 2))
      (node (ref C8) (pin 2))
      (node (ref D6) (pin 3))
      (node (ref U4) (pin 10))
      (node (ref J7) (pin 4))
      (node (ref U1) (pin 47))
      (node (ref J3) (pin 2))
      (node (ref U1) (pin 63))
      (node (ref U1) (pin 12))
      (node (ref J2) (pin 2))
      (node (ref J6) (pin 4))
      (node (ref C3) (pin 1))
      (node (ref C6) (pin 2))
      (node (ref D7) (pin 3))
      (node (ref U4) (pin 18))
      (node (ref D5) (pin 3))
      (node (ref J4) (pin 2))
      (node (ref U2) (pin 1))
      (node (ref J5) (pin 2))
      (node (ref D1) (pin 1))
      (node (ref C5) (pin 2))
      (node (ref D4) (pin 3))
      (node (ref D3) (pin 3))
      (node (ref C4) (pin 2))
      (node (ref R8) (pin 2))
      (node (ref D2) (pin 3))
      (node (ref C2) (pin 2))
      (node (ref U1) (pin 60)))
    (net (code 2) (name "Net-(D2-Pad4)")
      (node (ref D2) (pin 4))
      (node (ref R6) (pin 1)))
    (net (code 3) (name "Net-(D2-Pad2)")
      (node (ref D3) (pin 4))
      (node (ref D2) (pin 2)))
    (net (code 4) (name +12V)
      (node (ref SW1) (pin 2))
      (node (ref U4) (pin 14))
      (node (ref U4) (pin 13))
      (node (ref R5) (pin 2))
      (node (ref U4) (pin 24))
      (node (ref U2) (pin 3)))
    (net (code 5) (name "Net-(U1-Pad45)")
      (node (ref U1) (pin 45)))
    (net (code 6) (name "Net-(U1-Pad50)")
      (node (ref U1) (pin 50)))
    (net (code 7) (name "Net-(U1-Pad57)")
      (node (ref U1) (pin 57)))
    (net (code 8) (name "Net-(U1-Pad61)")
      (node (ref U1) (pin 61)))
    (net (code 9) (name "Net-(U1-Pad62)")
      (node (ref U1) (pin 62)))
    (net (code 10) (name "Net-(U1-Pad33)")
      (node (ref U1) (pin 33)))
    (net (code 11) (name "Net-(U1-Pad34)")
      (node (ref U1) (pin 34)))
    (net (code 12) (name "Net-(U1-Pad35)")
      (node (ref U1) (pin 35)))
    (net (code 13) (name "Net-(U1-Pad36)")
      (node (ref U1) (pin 36)))
    (net (code 14) (name "Net-(D3-Pad2)")
      (node (ref D4) (pin 4))
      (node (ref D3) (pin 2)))
    (net (code 15) (name "Net-(D4-Pad2)")
      (node (ref D6) (pin 4))
      (node (ref D4) (pin 2)))
    (net (code 16) (name "Net-(U1-Pad4)")
      (node (ref U1) (pin 4)))
    (net (code 17) (name I2C1_SDA)
      (node (ref J4) (pin 4))
      (node (ref U1) (pin 59))
      (node (ref J5) (pin 4))
      (node (ref R4) (pin 1)))
    (net (code 18) (name I2C1_SCL)
      (node (ref R3) (pin 1))
      (node (ref U1) (pin 58))
      (node (ref J4) (pin 3))
      (node (ref J5) (pin 3)))
    (net (code 19) (name "Net-(U1-Pad3)")
      (node (ref U1) (pin 3)))
    (net (code 20) (name "Net-(U1-Pad2)")
      (node (ref U1) (pin 2)))
    (net (code 21) (name "Net-(U1-Pad53)")
      (node (ref U1) (pin 53)))
    (net (code 22) (name "Net-(U1-Pad52)")
      (node (ref U1) (pin 52)))
    (net (code 23) (name "Net-(U1-Pad51)")
      (node (ref U1) (pin 51)))
    (net (code 24) (name "Net-(U1-Pad40)")
      (node (ref U1) (pin 40)))
    (net (code 25) (name "Net-(U1-Pad37)")
      (node (ref U1) (pin 37)))
    (net (code 26) (name "Net-(U1-Pad25)")
      (node (ref U1) (pin 25)))
    (net (code 27) (name "Net-(U1-Pad24)")
      (node (ref U1) (pin 24)))
    (net (code 28) (name "Net-(U1-Pad54)")
      (node (ref U1) (pin 54)))
    (net (code 29) (name "Net-(U1-Pad6)")
      (node (ref U1) (pin 6)))
    (net (code 30) (name "Net-(U1-Pad5)")
      (node (ref U1) (pin 5)))
    (net (code 31) (name "Net-(U1-Pad7)")
      (node (ref U1) (pin 7)))
    (net (code 32) (name "Net-(BT1-Pad1)")
      (node (ref BT1) (pin 1))
      (node (ref SW1) (pin 1)))
    (net (code 33) (name MIC5)
      (node (ref U1) (pin 9))
      (node (ref J16) (pin 7)))
    (net (code 34) (name MIC6)
      (node (ref U1) (pin 8))
      (node (ref J16) (pin 8)))
    (net (code 35) (name MIC4)
      (node (ref U1) (pin 10))
      (node (ref J16) (pin 6)))
    (net (code 36) (name MIC3)
      (node (ref U1) (pin 11))
      (node (ref J16) (pin 5)))
    (net (code 37) (name MIC2)
      (node (ref U1) (pin 14))
      (node (ref J16) (pin 4)))
    (net (code 38) (name MIC1)
      (node (ref U1) (pin 15))
      (node (ref J16) (pin 3)))
    (net (code 39) (name "Net-(U1-Pad21)")
      (node (ref U1) (pin 21)))
    (net (code 40) (name "Net-(U1-Pad20)")
      (node (ref U1) (pin 20)))
    (net (code 41) (name "Net-(U1-Pad17)")
      (node (ref U1) (pin 17)))
    (net (code 42) (name "Net-(U1-Pad16)")
      (node (ref U1) (pin 16)))
    (net (code 43) (name I2C2_SDA)
      (node (ref J3) (pin 4))
      (node (ref J2) (pin 4))
      (node (ref J1) (pin 4))
      (node (ref R2) (pin 1))
      (node (ref U1) (pin 55)))
    (net (code 44) (name I2C2_SCL)
      (node (ref J1) (pin 3))
      (node (ref U1) (pin 29))
      (node (ref R1) (pin 1))
      (node (ref J3) (pin 3))
      (node (ref J2) (pin 3)))
    (net (code 45) (name 3v3)
      (node (ref R8) (pin 1))
      (node (ref R7) (pin 2))
      (node (ref R1) (pin 2))
      (node (ref U4) (pin 19))
      (node (ref U4) (pin 20))
      (node (ref U1) (pin 64))
      (node (ref J6) (pin 3))
      (node (ref R3) (pin 2))
      (node (ref J7) (pin 3))
      (node (ref U1) (pin 48))
      (node (ref U1) (pin 1))
      (node (ref R4) (pin 2))
      (node (ref J16) (pin 2))
      (node (ref U1) (pin 19))
      (node (ref U1) (pin 32))
      (node (ref U3) (pin 2))
      (node (ref U1) (pin 13))
      (node (ref J3) (pin 1))
      (node (ref J2) (pin 1))
      (node (ref R2) (pin 2))
      (node (ref C7) (pin 2))
      (node (ref J1) (pin 1)))
    (net (code 46) (name X2)
      (node (ref J2) (pin 5))
      (node (ref U1) (pin 27)))
    (net (code 47) (name "Net-(D5-Pad4)")
      (node (ref D5) (pin 4))
      (node (ref D6) (pin 2)))
    (net (code 48) (name "Net-(D5-Pad2)")
      (node (ref D7) (pin 4))
      (node (ref D5) (pin 2)))
    (net (code 49) (name SWDIO)
      (node (ref U1) (pin 46))
      (node (ref J7) (pin 2)))
    (net (code 50) (name SWDCLK)
      (node (ref U1) (pin 49))
      (node (ref J7) (pin 1)))
    (net (code 51) (name "Net-(D7-Pad2)")
      (node (ref D7) (pin 2)))
    (net (code 52) (name 5v)
      (node (ref J4) (pin 1))
      (node (ref C6) (pin 1))
      (node (ref D5) (pin 1))
      (node (ref C8) (pin 1))
      (node (ref D6) (pin 1))
      (node (ref C2) (pin 1))
      (node (ref D2) (pin 1))
      (node (ref U2) (pin 2))
      (node (ref J5) (pin 1))
      (node (ref C5) (pin 1))
      (node (ref D4) (pin 1))
      (node (ref C4) (pin 1))
      (node (ref D3) (pin 1))
      (node (ref U3) (pin 3))
      (node (ref C9) (pin 1))
      (node (ref D7) (pin 1))
      (node (ref C3) (pin 2)))
    (net (code 53) (name "Net-(C1-Pad2)")
      (node (ref C1) (pin 2))
      (node (ref U1) (pin 30)))
    (net (code 54) (name Rx)
      (node (ref J6) (pin 1))
      (node (ref U1) (pin 39)))
    (net (code 55) (name Tx)
      (node (ref J6) (pin 2))
      (node (ref U1) (pin 38)))
    (net (code 56) (name MotR_2)
      (node (ref U4) (pin 16))
      (node (ref U1) (pin 44)))
    (net (code 57) (name MotR_1)
      (node (ref U4) (pin 17))
      (node (ref U1) (pin 43)))
    (net (code 58) (name RGB)
      (node (ref R6) (pin 2))
      (node (ref U1) (pin 56)))
    (net (code 59) (name X3)
      (node (ref J3) (pin 5))
      (node (ref U1) (pin 28)))
    (net (code 60) (name X1)
      (node (ref U1) (pin 26))
      (node (ref J1) (pin 5)))
    (net (code 61) (name MotL_PWM)
      (node (ref U4) (pin 23))
      (node (ref U1) (pin 42)))
    (net (code 62) (name MotR_PWM)
      (node (ref U4) (pin 15))
      (node (ref U1) (pin 41)))
    (net (code 63) (name MotL_1)
      (node (ref U4) (pin 22))
      (node (ref U1) (pin 23)))
    (net (code 64) (name MotL_2)
      (node (ref U4) (pin 21))
      (node (ref U1) (pin 22)))
    (net (code 65) (name "Net-(J8-Pad2)")
      (node (ref U4) (pin 12))
      (node (ref J8) (pin 2))
      (node (ref U4) (pin 11)))
    (net (code 66) (name "Net-(J9-Pad2)")
      (node (ref J9) (pin 2))
      (node (ref U4) (pin 1))
      (node (ref U4) (pin 2)))
    (net (code 67) (name "Net-(D1-Pad2)")
      (node (ref R5) (pin 1))
      (node (ref D1) (pin 2)))
    (net (code 68) (name "Net-(J8-Pad1)")
      (node (ref U4) (pin 8))
      (node (ref U4) (pin 7))
      (node (ref J8) (pin 1)))
    (net (code 69) (name "Net-(J9-Pad1)")
      (node (ref U4) (pin 5))
      (node (ref U4) (pin 6))
      (node (ref J9) (pin 1)))
    (net (code 70) (name 1v5)
      (node (ref R7) (pin 1)))))