%!PS-Adobe-3.0
%%Creator: PCBNEW
%%CreationDate: Wed Apr 03 19:25:56 2019
%%Title: D:\Documents\Prywatne\JazzGoth\elektronika\jazzgoth\jazzgoth-NPTH-drl_map.ps
%%Pages: 1
%%PageOrder: Ascend
%%BoundingBox: 0 0 596 842
%%DocumentMedia: A4 595 842 0 () ()
%%Orientation: Landscape
%%EndComments
%%BeginProlog
/line { newpath moveto lineto stroke } bind def
/cir0 { newpath 0 360 arc stroke } bind def
/cir1 { newpath 0 360 arc gsave fill grestore stroke } bind def
/cir2 { newpath 0 360 arc gsave fill grestore stroke } bind def
/arc0 { newpath arc stroke } bind def
/arc1 { newpath 4 index 4 index moveto arc closepath gsave fill
    grestore stroke } bind def
/arc2 { newpath 4 index 4 index moveto arc closepath gsave fill
    grestore stroke } bind def
/poly0 { stroke } bind def
/poly1 { closepath gsave fill grestore stroke } bind def
/poly2 { closepath gsave fill grestore stroke } bind def
/rect0 { rectstroke } bind def
/rect1 { rectfill } bind def
/rect2 { rectfill } bind def
/linemode0 { 0 setlinecap 0 setlinejoin 0 setlinewidth } bind def
/linemode1 { 1 setlinecap 1 setlinejoin } bind def
/dashedline { [200] 100 setdash } bind def
/solidline { [] 0 setdash } bind def
/phantomshow { moveto
    /KicadFont findfont 0.000001 scalefont setfont
    show } bind def
/textshow { gsave
    findfont exch scalefont setfont concat 1 scale 0 0 moveto show
    } bind def
/reencodefont {
  findfont dup length dict begin
  { 1 index /FID ne
    { def }
    { pop pop } ifelse
  } forall
  /Encoding ISOLatin1Encoding def
  currentdict
  end } bind def
/KicadFont /Helvetica reencodefont definefont pop
/KicadFont-Bold /Helvetica-Bold reencodefont definefont pop
/KicadFont-Oblique /Helvetica-Oblique reencodefont definefont pop
/KicadFont-BoldOblique /Helvetica-BoldOblique reencodefont definefont pop
%%EndProlog
%%Page: 1 1
%%BeginPageSetup
gsave
0.0072 0.0072 scale
linemode1
82680 0 translate 90 rotate
29.4093 setlinewidth
%%EndPageSetup
0 0 0 setrgbcolor
23.1569 setlinewidth
newpath
72341 64118.1 moveto
74517.3 64118.1 lineto
stroke
0 0 0 setrgbcolor
newpath
72282.2 52177.9 moveto
72341 64118.1 lineto
stroke
0 0 0 setrgbcolor
newpath
87575 52177.9 moveto
72282.2 52177.9 lineto
stroke
0 0 0 setrgbcolor
newpath
87633.8 64118.1 moveto
87575 52177.9 lineto
stroke
0 0 0 setrgbcolor
newpath
74517.3 64118.1 moveto
87633.8 64118.1 lineto
stroke
0 0 0 setrgbcolor
46.3138 setlinewidth
newpath
29307.7 65294.5 moveto
35792.5 65294.5 lineto
stroke
0 0 0 setrgbcolor
newpath
70980.7 46296.1 moveto
70980.7 50472.2 lineto
stroke
0 0 0 setrgbcolor
newpath
29307.7 69455.9 moveto
29307.7 65294.5 lineto
stroke
0 0 0 setrgbcolor
newpath
50144.2 37032.2 moveto
70980.7 46296.1 lineto
stroke
0 0 0 setrgbcolor
newpath
35792.5 65294.5 moveto
35792.5 50472.2 lineto
stroke
0 0 0 setrgbcolor
newpath
50144.2 78719.8 moveto
29307.7 69455.9 lineto
stroke
0 0 0 setrgbcolor
newpath
29307.7 50472.2 moveto
29307.7 46296.1 lineto
stroke
0 0 0 setrgbcolor
newpath
70980.7 65294.5 moveto
70980.7 69455.9 lineto
stroke
0 0 0 setrgbcolor
newpath
70980.7 69455.9 moveto
50144.2 78719.8 lineto
stroke
0 0 0 setrgbcolor
newpath
35792.5 50472.2 moveto
29307.7 50472.2 lineto
stroke
0 0 0 setrgbcolor
newpath
29307.7 46296.1 moveto
50144.2 37032.2 lineto
stroke
0 0 0 setrgbcolor
newpath
64495.9 65294.5 moveto
70980.7 65294.5 lineto
stroke
0 0 0 setrgbcolor
newpath
64495.9 50472.2 moveto
64495.9 65294.5 lineto
stroke
0 0 0 setrgbcolor
newpath
70980.7 50472.2 moveto
64495.9 50472.2 lineto
stroke
0 0 0 setrgbcolor
newpath
31807.5 48376.9 moveto
31808.9 48331.9 lineto
stroke
newpath
31808.9 48331.9 moveto
31812.6 48289.1 lineto
stroke
newpath
31812.6 48289.1 moveto
31818.6 48248.1 lineto
stroke
newpath
31818.6 48248.1 moveto
31826.4 48209.5 lineto
stroke
newpath
31826.4 48209.5 moveto
31836 48172.3 lineto
stroke
newpath
31836 48172.3 moveto
31847.2 48136.7 lineto
stroke
newpath
31847.2 48136.7 moveto
31860.1 48101.9 lineto
stroke
newpath
31860.1 48101.9 moveto
31873.9 48069.4 lineto
stroke
newpath
31873.9 48069.4 moveto
31889.1 48038.1 lineto
stroke
newpath
31889.1 48038.1 moveto
31906.5 48006.1 lineto
stroke
newpath
31906.5 48006.1 moveto
31924.9 47976 lineto
stroke
newpath
31924.9 47976 moveto
31943.6 47948.2 lineto
stroke
newpath
31943.6 47948.2 moveto
31963.6 47921.3 lineto
stroke
newpath
31963.6 47921.3 moveto
31984.4 47895.7 lineto
stroke
newpath
31984.4 47895.7 moveto
32007.3 47870 lineto
stroke
newpath
32007.3 47870 moveto
32030.4 47846.4 lineto
stroke
newpath
32030.4 47846.4 moveto
32054.6 47823.7 lineto
stroke
newpath
32054.6 47823.7 moveto
32080.4 47801.6 lineto
stroke
newpath
32080.4 47801.6 moveto
32106.5 47781.2 lineto
stroke
newpath
32106.5 47781.2 moveto
32133.6 47761.9 lineto
stroke
newpath
32133.6 47761.9 moveto
32161.8 47743.7 lineto
stroke
newpath
32161.8 47743.7 moveto
32191.3 47726.5 lineto
stroke
newpath
32191.3 47726.5 moveto
32222.2 47710.3 lineto
stroke
newpath
32222.2 47710.3 moveto
32253.9 47695.6 lineto
stroke
newpath
32253.9 47695.6 moveto
32287.3 47682 lineto
stroke
newpath
32287.3 47682 moveto
32322.9 47669.6 lineto
stroke
newpath
32322.9 47669.6 moveto
32359.1 47659 lineto
stroke
newpath
32359.1 47659 moveto
32397.2 47650 lineto
stroke
newpath
32397.2 47650 moveto
32437.7 47642.7 lineto
stroke
newpath
32437.7 47642.7 moveto
32479.6 47637.5 lineto
stroke
newpath
32479.6 47637.5 moveto
32523.2 47634.7 lineto
stroke
newpath
32523.2 47634.7 moveto
32550 47634.2 lineto
stroke
0 0 0 setrgbcolor
newpath
32550 66632.6 moveto
32595.1 66634 lineto
stroke
newpath
32595.1 66634 moveto
32639 66637.9 lineto
stroke
newpath
32639 66637.9 moveto
32679.4 66643.8 lineto
stroke
newpath
32679.4 66643.8 moveto
32718.1 66651.7 lineto
stroke
newpath
32718.1 66651.7 moveto
32755.2 66661.3 lineto
stroke
newpath
32755.2 66661.3 moveto
32791.1 66672.6 lineto
stroke
newpath
32791.1 66672.6 moveto
32825.1 66685.2 lineto
stroke
newpath
32825.1 66685.2 moveto
32859.9 66700.1 lineto
stroke
newpath
32859.9 66700.1 moveto
32891.7 66715.7 lineto
stroke
newpath
32891.7 66715.7 moveto
32922.3 66732.5 lineto
stroke
newpath
32922.3 66732.5 moveto
32951.4 66750.3 lineto
stroke
newpath
32951.4 66750.3 moveto
32979.2 66769 lineto
stroke
newpath
32979.2 66769 moveto
33006 66789 lineto
stroke
newpath
33006 66789 moveto
33031.9 66810.1 lineto
stroke
newpath
33031.9 66810.1 moveto
33056.6 66832.1 lineto
stroke
newpath
33056.6 66832.1 moveto
33080.4 66855.3 lineto
stroke
newpath
33080.4 66855.3 moveto
33103.2 66879.7 lineto
stroke
newpath
33103.2 66879.7 moveto
33124.6 66904.7 lineto
stroke
newpath
33124.6 66904.7 moveto
33145.9 66931.9 lineto
stroke
newpath
33145.9 66931.9 moveto
33165.6 66959.7 lineto
stroke
newpath
33165.6 66959.7 moveto
33183.8 66987.9 lineto
stroke
newpath
33183.8 66987.9 moveto
33201 67017.4 lineto
stroke
newpath
33201 67017.4 moveto
33217.1 67048.3 lineto
stroke
newpath
33217.1 67048.3 moveto
33231.7 67080 lineto
stroke
newpath
33231.7 67080 moveto
33245.7 67114.7 lineto
stroke
newpath
33245.7 67114.7 moveto
33257.8 67149.5 lineto
stroke
newpath
33257.8 67149.5 moveto
33268.3 67185.9 lineto
stroke
newpath
33268.3 67185.9 moveto
33277.2 67223.4 lineto
stroke
newpath
33277.2 67223.4 moveto
33284.2 67262.8 lineto
stroke
newpath
33284.2 67262.8 moveto
33289.3 67304.1 lineto
stroke
newpath
33289.3 67304.1 moveto
33292.2 67347.8 lineto
stroke
newpath
33292.2 67347.8 moveto
33292.7 67375.1 lineto
stroke
0 0 0 setrgbcolor
newpath
33292.7 67375.1 moveto
33291.4 67420.1 lineto
stroke
newpath
33291.4 67420.1 moveto
33287.6 67462.9 lineto
stroke
newpath
33287.6 67462.9 moveto
33281.5 67504.4 lineto
stroke
newpath
33281.5 67504.4 moveto
33273.7 67542.9 lineto
stroke
newpath
33273.7 67542.9 moveto
33264.2 67579.7 lineto
stroke
newpath
33264.2 67579.7 moveto
33253.1 67615.1 lineto
stroke
newpath
33253.1 67615.1 moveto
33240.6 67649.1 lineto
stroke
newpath
33240.6 67649.1 moveto
33226.6 67682 lineto
stroke
newpath
33226.6 67682 moveto
33211.5 67713.3 lineto
stroke
newpath
33211.5 67713.3 moveto
33195.1 67743.5 lineto
stroke
newpath
33195.1 67743.5 moveto
33177.1 67773.2 lineto
stroke
newpath
33177.1 67773.2 moveto
33158.5 67801.1 lineto
stroke
newpath
33158.5 67801.1 moveto
33138.4 67828.4 lineto
stroke
newpath
33138.4 67828.4 moveto
33117.7 67854.1 lineto
stroke
newpath
33117.7 67854.1 moveto
33095.6 67879 lineto
stroke
newpath
33095.6 67879 moveto
33072.7 67902.7 lineto
stroke
newpath
33072.7 67902.7 moveto
33048.9 67925.3 lineto
stroke
newpath
33048.9 67925.3 moveto
33024 67947 lineto
stroke
newpath
33024 67947 moveto
32997.9 67967.7 lineto
stroke
newpath
32997.9 67967.7 moveto
32970.7 67987.3 lineto
stroke
newpath
32970.7 67987.3 moveto
32942.2 68005.9 lineto
stroke
newpath
32942.2 68005.9 moveto
32912.8 68023.3 lineto
stroke
newpath
32912.8 68023.3 moveto
32882.4 68039.5 lineto
stroke
newpath
32882.4 68039.5 moveto
32850.8 68054.4 lineto
stroke
newpath
32850.8 68054.4 moveto
32818 68068 lineto
stroke
newpath
32818 68068 moveto
32783.8 68080.3 lineto
stroke
newpath
32783.8 68080.3 moveto
32748.2 68091.1 lineto
stroke
newpath
32748.2 68091.1 moveto
32709.8 68100.6 lineto
stroke
newpath
32709.8 68100.6 moveto
32670.5 68108.1 lineto
stroke
newpath
32670.5 68108.1 moveto
32628.8 68113.7 lineto
stroke
newpath
32628.8 68113.7 moveto
32585.2 68117 lineto
stroke
newpath
32585.2 68117 moveto
32550.2 68117.8 lineto
stroke
0 0 0 setrgbcolor
newpath
68480.9 48376.7 moveto
68479.6 48421.7 lineto
stroke
newpath
68479.6 48421.7 moveto
68475.8 48464.5 lineto
stroke
newpath
68475.8 48464.5 moveto
68469.7 48506 lineto
stroke
newpath
68469.7 48506 moveto
68461.9 48544.5 lineto
stroke
newpath
68461.9 48544.5 moveto
68452.4 48581.3 lineto
stroke
newpath
68452.4 48581.3 moveto
68441.3 48616.7 lineto
stroke
newpath
68441.3 48616.7 moveto
68428.8 48650.7 lineto
stroke
newpath
68428.8 48650.7 moveto
68414.8 48683.6 lineto
stroke
newpath
68414.8 48683.6 moveto
68399.7 48714.9 lineto
stroke
newpath
68399.7 48714.9 moveto
68383.3 48745.1 lineto
stroke
newpath
68383.3 48745.1 moveto
68365.3 48774.8 lineto
stroke
newpath
68365.3 48774.8 moveto
68346.7 48802.7 lineto
stroke
newpath
68346.7 48802.7 moveto
68326.6 48830 lineto
stroke
newpath
68326.6 48830 moveto
68305.9 48855.7 lineto
stroke
newpath
68305.9 48855.7 moveto
68283.9 48880.6 lineto
stroke
newpath
68283.9 48880.6 moveto
68260.9 48904.3 lineto
stroke
newpath
68260.9 48904.3 moveto
68237.1 48926.9 lineto
stroke
newpath
68237.1 48926.9 moveto
68212.2 48948.6 lineto
stroke
newpath
68212.2 48948.6 moveto
68186.1 48969.3 lineto
stroke
newpath
68186.1 48969.3 moveto
68158.9 48988.9 lineto
stroke
newpath
68158.9 48988.9 moveto
68130.4 49007.5 lineto
stroke
newpath
68130.4 49007.5 moveto
68101 49024.9 lineto
stroke
newpath
68101 49024.9 moveto
68070.6 49041.1 lineto
stroke
newpath
68070.6 49041.1 moveto
68039 49056 lineto
stroke
newpath
68039 49056 moveto
68006.3 49069.6 lineto
stroke
newpath
68006.3 49069.6 moveto
67972 49081.9 lineto
stroke
newpath
67972 49081.9 moveto
67936.4 49092.7 lineto
stroke
newpath
67936.4 49092.7 moveto
67898 49102.2 lineto
stroke
newpath
67898 49102.2 moveto
67858.7 49109.7 lineto
stroke
newpath
67858.7 49109.7 moveto
67817 49115.3 lineto
stroke
newpath
67817 49115.3 moveto
67773.4 49118.6 lineto
stroke
newpath
67773.4 49118.6 moveto
67738.5 49119.4 lineto
stroke
0 0 0 setrgbcolor
newpath
32550.2 68117.8 moveto
32504.6 68116.4 lineto
stroke
newpath
32504.6 68116.4 moveto
32461.8 68112.6 lineto
stroke
newpath
32461.8 68112.6 moveto
32420.2 68106.5 lineto
stroke
newpath
32420.2 68106.5 moveto
32381.7 68098.6 lineto
stroke
newpath
32381.7 68098.6 moveto
32344.9 68089.1 lineto
stroke
newpath
32344.9 68089.1 moveto
32309.6 68078 lineto
stroke
newpath
32309.6 68078 moveto
32275.6 68065.4 lineto
stroke
newpath
32275.6 68065.4 moveto
32243 68051.5 lineto
stroke
newpath
32243 68051.5 moveto
32211.4 68036.2 lineto
stroke
newpath
32211.4 68036.2 moveto
32178.4 68018.2 lineto
stroke
newpath
32178.4 68018.2 moveto
32149.3 68000.4 lineto
stroke
newpath
32149.3 68000.4 moveto
32121 67981.3 lineto
stroke
newpath
32121 67981.3 moveto
32093.7 67961 lineto
stroke
newpath
32093.7 67961 moveto
32067.8 67939.9 lineto
stroke
newpath
32067.8 67939.9 moveto
32042.5 67917.2 lineto
stroke
newpath
32042.5 67917.2 moveto
32019.1 67894.3 lineto
stroke
newpath
32019.1 67894.3 moveto
31994 67867.3 lineto
stroke
newpath
31994 67867.3 moveto
31972.4 67841.8 lineto
stroke
newpath
31972.4 67841.8 moveto
31952.1 67815.5 lineto
stroke
newpath
31952.1 67815.5 moveto
31932.4 67787.5 lineto
stroke
newpath
31932.4 67787.5 moveto
31914.3 67759.1 lineto
stroke
newpath
31914.3 67759.1 moveto
31897.3 67729.5 lineto
stroke
newpath
31897.3 67729.5 moveto
31881.4 67698.5 lineto
stroke
newpath
31881.4 67698.5 moveto
31866.7 67666.2 lineto
stroke
newpath
31866.7 67666.2 moveto
31853.3 67632.5 lineto
stroke
newpath
31853.3 67632.5 moveto
31841.4 67597.5 lineto
stroke
newpath
31841.4 67597.5 moveto
31831 67561.2 lineto
stroke
newpath
31831 67561.2 moveto
31822.3 67523.2 lineto
stroke
newpath
31822.3 67523.2 moveto
31815.4 67483.5 lineto
stroke
newpath
31815.4 67483.5 moveto
31810.5 67442 lineto
stroke
newpath
31810.5 67442 moveto
31807.9 67397.8 lineto
stroke
newpath
31807.9 67397.8 moveto
31807.5 67375.3 lineto
stroke
0 0 0 setrgbcolor
newpath
32550 47634.2 moveto
32595.1 47635.6 lineto
stroke
newpath
32595.1 47635.6 moveto
32639 47639.5 lineto
stroke
newpath
32639 47639.5 moveto
32679.4 47645.4 lineto
stroke
newpath
32679.4 47645.4 moveto
32718.1 47653.3 lineto
stroke
newpath
32718.1 47653.3 moveto
32755.2 47662.9 lineto
stroke
newpath
32755.2 47662.9 moveto
32791.1 47674.2 lineto
stroke
newpath
32791.1 47674.2 moveto
32825.1 47686.8 lineto
stroke
newpath
32825.1 47686.8 moveto
32859.9 47701.7 lineto
stroke
newpath
32859.9 47701.7 moveto
32891.7 47717.3 lineto
stroke
newpath
32891.7 47717.3 moveto
32922.3 47734.1 lineto
stroke
newpath
32922.3 47734.1 moveto
32951.4 47751.9 lineto
stroke
newpath
32951.4 47751.9 moveto
32979.2 47770.6 lineto
stroke
newpath
32979.2 47770.6 moveto
33006 47790.6 lineto
stroke
newpath
33006 47790.6 moveto
33031.9 47811.7 lineto
stroke
newpath
33031.9 47811.7 moveto
33056.6 47833.7 lineto
stroke
newpath
33056.6 47833.7 moveto
33080.4 47856.9 lineto
stroke
newpath
33080.4 47856.9 moveto
33103.2 47881.3 lineto
stroke
newpath
33103.2 47881.3 moveto
33124.6 47906.3 lineto
stroke
newpath
33124.6 47906.3 moveto
33145.9 47933.5 lineto
stroke
newpath
33145.9 47933.5 moveto
33165.6 47961.3 lineto
stroke
newpath
33165.6 47961.3 moveto
33183.8 47989.5 lineto
stroke
newpath
33183.8 47989.5 moveto
33201 48019 lineto
stroke
newpath
33201 48019 moveto
33217.1 48049.9 lineto
stroke
newpath
33217.1 48049.9 moveto
33231.7 48081.6 lineto
stroke
newpath
33231.7 48081.6 moveto
33245.7 48116.3 lineto
stroke
newpath
33245.7 48116.3 moveto
33257.8 48151.1 lineto
stroke
newpath
33257.8 48151.1 moveto
33268.3 48187.5 lineto
stroke
newpath
33268.3 48187.5 moveto
33277.2 48225 lineto
stroke
newpath
33277.2 48225 moveto
33284.2 48264.4 lineto
stroke
newpath
33284.2 48264.4 moveto
33289.3 48305.7 lineto
stroke
newpath
33289.3 48305.7 moveto
33292.2 48349.4 lineto
stroke
newpath
33292.2 48349.4 moveto
33292.7 48376.7 lineto
stroke
0 0 0 setrgbcolor
newpath
33292.7 48376.7 moveto
33291.4 48421.7 lineto
stroke
newpath
33291.4 48421.7 moveto
33287.6 48464.5 lineto
stroke
newpath
33287.6 48464.5 moveto
33281.5 48506 lineto
stroke
newpath
33281.5 48506 moveto
33273.7 48544.5 lineto
stroke
newpath
33273.7 48544.5 moveto
33264.2 48581.3 lineto
stroke
newpath
33264.2 48581.3 moveto
33253.1 48616.7 lineto
stroke
newpath
33253.1 48616.7 moveto
33240.6 48650.7 lineto
stroke
newpath
33240.6 48650.7 moveto
33226.6 48683.6 lineto
stroke
newpath
33226.6 48683.6 moveto
33211.5 48714.9 lineto
stroke
newpath
33211.5 48714.9 moveto
33195.1 48745.1 lineto
stroke
newpath
33195.1 48745.1 moveto
33177.1 48774.8 lineto
stroke
newpath
33177.1 48774.8 moveto
33158.5 48802.7 lineto
stroke
newpath
33158.5 48802.7 moveto
33138.4 48830 lineto
stroke
newpath
33138.4 48830 moveto
33117.7 48855.7 lineto
stroke
newpath
33117.7 48855.7 moveto
33095.6 48880.6 lineto
stroke
newpath
33095.6 48880.6 moveto
33072.7 48904.3 lineto
stroke
newpath
33072.7 48904.3 moveto
33048.9 48926.9 lineto
stroke
newpath
33048.9 48926.9 moveto
33024 48948.6 lineto
stroke
newpath
33024 48948.6 moveto
32997.9 48969.3 lineto
stroke
newpath
32997.9 48969.3 moveto
32970.7 48988.9 lineto
stroke
newpath
32970.7 48988.9 moveto
32942.2 49007.5 lineto
stroke
newpath
32942.2 49007.5 moveto
32912.8 49024.9 lineto
stroke
newpath
32912.8 49024.9 moveto
32882.4 49041.1 lineto
stroke
newpath
32882.4 49041.1 moveto
32850.8 49056 lineto
stroke
newpath
32850.8 49056 moveto
32818 49069.6 lineto
stroke
newpath
32818 49069.6 moveto
32783.8 49081.9 lineto
stroke
newpath
32783.8 49081.9 moveto
32748.2 49092.7 lineto
stroke
newpath
32748.2 49092.7 moveto
32709.8 49102.2 lineto
stroke
newpath
32709.8 49102.2 moveto
32670.5 49109.7 lineto
stroke
newpath
32670.5 49109.7 moveto
32628.8 49115.3 lineto
stroke
newpath
32628.8 49115.3 moveto
32585.2 49118.6 lineto
stroke
newpath
32585.2 49118.6 moveto
32550.2 49119.4 lineto
stroke
0 0 0 setrgbcolor
newpath
67738.5 68117.8 moveto
67692.8 68116.4 lineto
stroke
newpath
67692.8 68116.4 moveto
67650 68112.6 lineto
stroke
newpath
67650 68112.6 moveto
67608.4 68106.5 lineto
stroke
newpath
67608.4 68106.5 moveto
67569.9 68098.6 lineto
stroke
newpath
67569.9 68098.6 moveto
67533.1 68089.1 lineto
stroke
newpath
67533.1 68089.1 moveto
67497.9 68078 lineto
stroke
newpath
67497.9 68078 moveto
67463.8 68065.4 lineto
stroke
newpath
67463.8 68065.4 moveto
67431.2 68051.5 lineto
stroke
newpath
67431.2 68051.5 moveto
67399.6 68036.2 lineto
stroke
newpath
67399.6 68036.2 moveto
67366.6 68018.2 lineto
stroke
newpath
67366.6 68018.2 moveto
67337.5 68000.4 lineto
stroke
newpath
67337.5 68000.4 moveto
67309.2 67981.3 lineto
stroke
newpath
67309.2 67981.3 moveto
67281.9 67961 lineto
stroke
newpath
67281.9 67961 moveto
67256 67939.9 lineto
stroke
newpath
67256 67939.9 moveto
67230.7 67917.2 lineto
stroke
newpath
67230.7 67917.2 moveto
67207.3 67894.3 lineto
stroke
newpath
67207.3 67894.3 moveto
67182.2 67867.3 lineto
stroke
newpath
67182.2 67867.3 moveto
67160.6 67841.8 lineto
stroke
newpath
67160.6 67841.8 moveto
67140.3 67815.5 lineto
stroke
newpath
67140.3 67815.5 moveto
67120.6 67787.5 lineto
stroke
newpath
67120.6 67787.5 moveto
67102.5 67759.1 lineto
stroke
newpath
67102.5 67759.1 moveto
67085.6 67729.5 lineto
stroke
newpath
67085.6 67729.5 moveto
67069.6 67698.5 lineto
stroke
newpath
67069.6 67698.5 moveto
67054.9 67666.2 lineto
stroke
newpath
67054.9 67666.2 moveto
67041.5 67632.5 lineto
stroke
newpath
67041.5 67632.5 moveto
67029.6 67597.5 lineto
stroke
newpath
67029.6 67597.5 moveto
67019.2 67561.2 lineto
stroke
newpath
67019.2 67561.2 moveto
67010.5 67523.2 lineto
stroke
newpath
67010.5 67523.2 moveto
67003.6 67483.5 lineto
stroke
newpath
67003.6 67483.5 moveto
66998.7 67442 lineto
stroke
newpath
66998.7 67442 moveto
66996.1 67397.8 lineto
stroke
newpath
66996.1 67397.8 moveto
66995.7 67375.3 lineto
stroke
0 0 0 setrgbcolor
newpath
67738.2 47634.2 moveto
67783.3 47635.6 lineto
stroke
newpath
67783.3 47635.6 moveto
67827.2 47639.5 lineto
stroke
newpath
67827.2 47639.5 moveto
67867.6 47645.4 lineto
stroke
newpath
67867.6 47645.4 moveto
67906.3 47653.3 lineto
stroke
newpath
67906.3 47653.3 moveto
67943.4 47662.9 lineto
stroke
newpath
67943.4 47662.9 moveto
67979.3 47674.2 lineto
stroke
newpath
67979.3 47674.2 moveto
68013.4 47686.8 lineto
stroke
newpath
68013.4 47686.8 moveto
68048.1 47701.7 lineto
stroke
newpath
68048.1 47701.7 moveto
68079.9 47717.3 lineto
stroke
newpath
68079.9 47717.3 moveto
68110.5 47734.1 lineto
stroke
newpath
68110.5 47734.1 moveto
68139.6 47751.9 lineto
stroke
newpath
68139.6 47751.9 moveto
68167.4 47770.6 lineto
stroke
newpath
68167.4 47770.6 moveto
68194.2 47790.6 lineto
stroke
newpath
68194.2 47790.6 moveto
68220.2 47811.7 lineto
stroke
newpath
68220.2 47811.7 moveto
68244.8 47833.7 lineto
stroke
newpath
68244.8 47833.7 moveto
68268.6 47856.9 lineto
stroke
newpath
68268.6 47856.9 moveto
68291.4 47881.3 lineto
stroke
newpath
68291.4 47881.3 moveto
68312.8 47906.3 lineto
stroke
newpath
68312.8 47906.3 moveto
68334.1 47933.5 lineto
stroke
newpath
68334.1 47933.5 moveto
68353.8 47961.3 lineto
stroke
newpath
68353.8 47961.3 moveto
68372 47989.5 lineto
stroke
newpath
68372 47989.5 moveto
68389.2 48019 lineto
stroke
newpath
68389.2 48019 moveto
68405.3 48049.9 lineto
stroke
newpath
68405.3 48049.9 moveto
68419.9 48081.6 lineto
stroke
newpath
68419.9 48081.6 moveto
68433.9 48116.3 lineto
stroke
newpath
68433.9 48116.3 moveto
68446 48151.1 lineto
stroke
newpath
68446 48151.1 moveto
68456.5 48187.5 lineto
stroke
newpath
68456.5 48187.5 moveto
68465.4 48225 lineto
stroke
newpath
68465.4 48225 moveto
68472.5 48264.4 lineto
stroke
newpath
68472.5 48264.4 moveto
68477.5 48305.7 lineto
stroke
newpath
68477.5 48305.7 moveto
68480.4 48349.4 lineto
stroke
newpath
68480.4 48349.4 moveto
68480.9 48376.7 lineto
stroke
0 0 0 setrgbcolor
newpath
67738.2 66632.6 moveto
67783.3 66634 lineto
stroke
newpath
67783.3 66634 moveto
67827.2 66637.9 lineto
stroke
newpath
67827.2 66637.9 moveto
67867.6 66643.8 lineto
stroke
newpath
67867.6 66643.8 moveto
67906.3 66651.7 lineto
stroke
newpath
67906.3 66651.7 moveto
67943.4 66661.3 lineto
stroke
newpath
67943.4 66661.3 moveto
67979.3 66672.6 lineto
stroke
newpath
67979.3 66672.6 moveto
68013.4 66685.2 lineto
stroke
newpath
68013.4 66685.2 moveto
68048.1 66700.1 lineto
stroke
newpath
68048.1 66700.1 moveto
68079.9 66715.7 lineto
stroke
newpath
68079.9 66715.7 moveto
68110.5 66732.5 lineto
stroke
newpath
68110.5 66732.5 moveto
68139.6 66750.3 lineto
stroke
newpath
68139.6 66750.3 moveto
68167.4 66769 lineto
stroke
newpath
68167.4 66769 moveto
68194.2 66789 lineto
stroke
newpath
68194.2 66789 moveto
68220.2 66810.1 lineto
stroke
newpath
68220.2 66810.1 moveto
68244.8 66832.1 lineto
stroke
newpath
68244.8 66832.1 moveto
68268.6 66855.3 lineto
stroke
newpath
68268.6 66855.3 moveto
68291.4 66879.7 lineto
stroke
newpath
68291.4 66879.7 moveto
68312.8 66904.7 lineto
stroke
newpath
68312.8 66904.7 moveto
68334.1 66931.9 lineto
stroke
newpath
68334.1 66931.9 moveto
68353.8 66959.7 lineto
stroke
newpath
68353.8 66959.7 moveto
68372 66987.9 lineto
stroke
newpath
68372 66987.9 moveto
68389.2 67017.4 lineto
stroke
newpath
68389.2 67017.4 moveto
68405.3 67048.3 lineto
stroke
newpath
68405.3 67048.3 moveto
68419.9 67080 lineto
stroke
newpath
68419.9 67080 moveto
68433.9 67114.7 lineto
stroke
newpath
68433.9 67114.7 moveto
68446 67149.5 lineto
stroke
newpath
68446 67149.5 moveto
68456.5 67185.9 lineto
stroke
newpath
68456.5 67185.9 moveto
68465.4 67223.4 lineto
stroke
newpath
68465.4 67223.4 moveto
68472.5 67262.8 lineto
stroke
newpath
68472.5 67262.8 moveto
68477.5 67304.1 lineto
stroke
newpath
68477.5 67304.1 moveto
68480.4 67347.8 lineto
stroke
newpath
68480.4 67347.8 moveto
68480.9 67375.1 lineto
stroke
0 0 0 setrgbcolor
newpath
66995.7 48376.9 moveto
66997.1 48331.9 lineto
stroke
newpath
66997.1 48331.9 moveto
67000.9 48289.1 lineto
stroke
newpath
67000.9 48289.1 moveto
67006.9 48248.1 lineto
stroke
newpath
67006.9 48248.1 moveto
67014.7 48209.5 lineto
stroke
newpath
67014.7 48209.5 moveto
67024.3 48172.3 lineto
stroke
newpath
67024.3 48172.3 moveto
67035.4 48136.7 lineto
stroke
newpath
67035.4 48136.7 moveto
67048.3 48101.9 lineto
stroke
newpath
67048.3 48101.9 moveto
67062.1 48069.4 lineto
stroke
newpath
67062.1 48069.4 moveto
67077.3 48038.1 lineto
stroke
newpath
67077.3 48038.1 moveto
67094.7 48006.1 lineto
stroke
newpath
67094.7 48006.1 moveto
67113.1 47976 lineto
stroke
newpath
67113.1 47976 moveto
67131.8 47948.2 lineto
stroke
newpath
67131.8 47948.2 moveto
67151.8 47921.3 lineto
stroke
newpath
67151.8 47921.3 moveto
67172.6 47895.7 lineto
stroke
newpath
67172.6 47895.7 moveto
67195.5 47870 lineto
stroke
newpath
67195.5 47870 moveto
67218.6 47846.4 lineto
stroke
newpath
67218.6 47846.4 moveto
67242.8 47823.7 lineto
stroke
newpath
67242.8 47823.7 moveto
67268.6 47801.6 lineto
stroke
newpath
67268.6 47801.6 moveto
67294.7 47781.2 lineto
stroke
newpath
67294.7 47781.2 moveto
67321.9 47761.9 lineto
stroke
newpath
67321.9 47761.9 moveto
67350 47743.7 lineto
stroke
newpath
67350 47743.7 moveto
67379.6 47726.5 lineto
stroke
newpath
67379.6 47726.5 moveto
67410.4 47710.3 lineto
stroke
newpath
67410.4 47710.3 moveto
67442.1 47695.6 lineto
stroke
newpath
67442.1 47695.6 moveto
67475.5 47682 lineto
stroke
newpath
67475.5 47682 moveto
67511.1 47669.6 lineto
stroke
newpath
67511.1 47669.6 moveto
67547.3 47659 lineto
stroke
newpath
67547.3 47659 moveto
67585.4 47650 lineto
stroke
newpath
67585.4 47650 moveto
67625.9 47642.7 lineto
stroke
newpath
67625.9 47642.7 moveto
67667.8 47637.5 lineto
stroke
newpath
67667.8 47637.5 moveto
67711.4 47634.7 lineto
stroke
newpath
67711.4 47634.7 moveto
67738.2 47634.2 lineto
stroke
0 0 0 setrgbcolor
newpath
66995.7 67375.3 moveto
66997.1 67330.3 lineto
stroke
newpath
66997.1 67330.3 moveto
67000.9 67287.5 lineto
stroke
newpath
67000.9 67287.5 moveto
67006.9 67246.5 lineto
stroke
newpath
67006.9 67246.5 moveto
67014.7 67207.9 lineto
stroke
newpath
67014.7 67207.9 moveto
67024.3 67170.7 lineto
stroke
newpath
67024.3 67170.7 moveto
67035.4 67135.1 lineto
stroke
newpath
67035.4 67135.1 moveto
67048.3 67100.3 lineto
stroke
newpath
67048.3 67100.3 moveto
67062.1 67067.8 lineto
stroke
newpath
67062.1 67067.8 moveto
67077.3 67036.5 lineto
stroke
newpath
67077.3 67036.5 moveto
67094.7 67004.5 lineto
stroke
newpath
67094.7 67004.5 moveto
67113.1 66974.4 lineto
stroke
newpath
67113.1 66974.4 moveto
67131.8 66946.6 lineto
stroke
newpath
67131.8 66946.6 moveto
67151.8 66919.7 lineto
stroke
newpath
67151.8 66919.7 moveto
67172.6 66894.1 lineto
stroke
newpath
67172.6 66894.1 moveto
67195.5 66868.4 lineto
stroke
newpath
67195.5 66868.4 moveto
67218.6 66844.8 lineto
stroke
newpath
67218.6 66844.8 moveto
67242.8 66822.1 lineto
stroke
newpath
67242.8 66822.1 moveto
67268.7 66800 lineto
stroke
newpath
67268.7 66800 moveto
67294.7 66779.6 lineto
stroke
newpath
67294.7 66779.6 moveto
67321.9 66760.3 lineto
stroke
newpath
67321.9 66760.3 moveto
67350 66742.1 lineto
stroke
newpath
67350 66742.1 moveto
67379.6 66724.9 lineto
stroke
newpath
67379.6 66724.9 moveto
67410.4 66708.7 lineto
stroke
newpath
67410.4 66708.7 moveto
67442.1 66694 lineto
stroke
newpath
67442.1 66694 moveto
67475.5 66680.4 lineto
stroke
newpath
67475.5 66680.4 moveto
67511.1 66668 lineto
stroke
newpath
67511.1 66668 moveto
67547.3 66657.4 lineto
stroke
newpath
67547.3 66657.4 moveto
67585.4 66648.4 lineto
stroke
newpath
67585.4 66648.4 moveto
67625.9 66641.1 lineto
stroke
newpath
67625.9 66641.1 moveto
67667.8 66635.9 lineto
stroke
newpath
67667.8 66635.9 moveto
67711.4 66633.1 lineto
stroke
newpath
67711.4 66633.1 moveto
67738.2 66632.6 lineto
stroke
0 0 0 setrgbcolor
newpath
67738.5 49119.4 moveto
67692.8 49118 lineto
stroke
newpath
67692.8 49118 moveto
67650 49114.2 lineto
stroke
newpath
67650 49114.2 moveto
67608.4 49108.1 lineto
stroke
newpath
67608.4 49108.1 moveto
67569.9 49100.2 lineto
stroke
newpath
67569.9 49100.2 moveto
67533.1 49090.7 lineto
stroke
newpath
67533.1 49090.7 moveto
67497.9 49079.6 lineto
stroke
newpath
67497.9 49079.6 moveto
67463.8 49067 lineto
stroke
newpath
67463.8 49067 moveto
67431.2 49053.1 lineto
stroke
newpath
67431.2 49053.1 moveto
67399.6 49037.8 lineto
stroke
newpath
67399.6 49037.8 moveto
67366.6 49019.8 lineto
stroke
newpath
67366.6 49019.8 moveto
67337.5 49002 lineto
stroke
newpath
67337.5 49002 moveto
67309.2 48982.9 lineto
stroke
newpath
67309.2 48982.9 moveto
67281.9 48962.6 lineto
stroke
newpath
67281.9 48962.6 moveto
67256 48941.5 lineto
stroke
newpath
67256 48941.5 moveto
67230.7 48918.8 lineto
stroke
newpath
67230.7 48918.8 moveto
67207.3 48895.9 lineto
stroke
newpath
67207.3 48895.9 moveto
67182.2 48868.9 lineto
stroke
newpath
67182.2 48868.9 moveto
67160.6 48843.4 lineto
stroke
newpath
67160.6 48843.4 moveto
67140.3 48817.1 lineto
stroke
newpath
67140.3 48817.1 moveto
67120.6 48789.1 lineto
stroke
newpath
67120.6 48789.1 moveto
67102.5 48760.7 lineto
stroke
newpath
67102.5 48760.7 moveto
67085.6 48731.1 lineto
stroke
newpath
67085.6 48731.1 moveto
67069.6 48700.1 lineto
stroke
newpath
67069.6 48700.1 moveto
67054.9 48667.8 lineto
stroke
newpath
67054.9 48667.8 moveto
67041.5 48634.1 lineto
stroke
newpath
67041.5 48634.1 moveto
67029.6 48599.1 lineto
stroke
newpath
67029.6 48599.1 moveto
67019.2 48562.8 lineto
stroke
newpath
67019.2 48562.8 moveto
67010.5 48524.8 lineto
stroke
newpath
67010.5 48524.8 moveto
67003.6 48485.1 lineto
stroke
newpath
67003.6 48485.1 moveto
66998.7 48443.6 lineto
stroke
newpath
66998.7 48443.6 moveto
66996.1 48399.4 lineto
stroke
newpath
66996.1 48399.4 moveto
66995.7 48376.9 lineto
stroke
0 0 0 setrgbcolor
newpath
31807.5 67375.3 moveto
31808.9 67330.3 lineto
stroke
newpath
31808.9 67330.3 moveto
31812.6 67287.5 lineto
stroke
newpath
31812.6 67287.5 moveto
31818.6 67246.5 lineto
stroke
newpath
31818.6 67246.5 moveto
31826.4 67207.9 lineto
stroke
newpath
31826.4 67207.9 moveto
31836 67170.7 lineto
stroke
newpath
31836 67170.7 moveto
31847.2 67135.1 lineto
stroke
newpath
31847.2 67135.1 moveto
31860.1 67100.3 lineto
stroke
newpath
31860.1 67100.3 moveto
31873.9 67067.8 lineto
stroke
newpath
31873.9 67067.8 moveto
31889.1 67036.5 lineto
stroke
newpath
31889.1 67036.5 moveto
31906.5 67004.5 lineto
stroke
newpath
31906.5 67004.5 moveto
31924.9 66974.4 lineto
stroke
newpath
31924.9 66974.4 moveto
31943.6 66946.6 lineto
stroke
newpath
31943.6 66946.6 moveto
31963.6 66919.7 lineto
stroke
newpath
31963.6 66919.7 moveto
31984.4 66894.1 lineto
stroke
newpath
31984.4 66894.1 moveto
32007.3 66868.4 lineto
stroke
newpath
32007.3 66868.4 moveto
32030.4 66844.8 lineto
stroke
newpath
32030.4 66844.8 moveto
32054.6 66822.1 lineto
stroke
newpath
32054.6 66822.1 moveto
32080.4 66800 lineto
stroke
newpath
32080.4 66800 moveto
32106.5 66779.6 lineto
stroke
newpath
32106.5 66779.6 moveto
32133.6 66760.3 lineto
stroke
newpath
32133.6 66760.3 moveto
32161.8 66742.1 lineto
stroke
newpath
32161.8 66742.1 moveto
32191.3 66724.9 lineto
stroke
newpath
32191.3 66724.9 moveto
32222.2 66708.7 lineto
stroke
newpath
32222.2 66708.7 moveto
32253.9 66694 lineto
stroke
newpath
32253.9 66694 moveto
32287.3 66680.4 lineto
stroke
newpath
32287.3 66680.4 moveto
32322.9 66668 lineto
stroke
newpath
32322.9 66668 moveto
32359.1 66657.4 lineto
stroke
newpath
32359.1 66657.4 moveto
32397.2 66648.4 lineto
stroke
newpath
32397.2 66648.4 moveto
32437.7 66641.1 lineto
stroke
newpath
32437.7 66641.1 moveto
32479.6 66635.9 lineto
stroke
newpath
32479.6 66635.9 moveto
32523.2 66633.1 lineto
stroke
newpath
32523.2 66633.1 moveto
32550 66632.6 lineto
stroke
0 0 0 setrgbcolor
newpath
68480.9 67375.1 moveto
68479.6 67420.1 lineto
stroke
newpath
68479.6 67420.1 moveto
68475.8 67462.9 lineto
stroke
newpath
68475.8 67462.9 moveto
68469.7 67504.4 lineto
stroke
newpath
68469.7 67504.4 moveto
68461.9 67542.9 lineto
stroke
newpath
68461.9 67542.9 moveto
68452.4 67579.7 lineto
stroke
newpath
68452.4 67579.7 moveto
68441.3 67615.1 lineto
stroke
newpath
68441.3 67615.1 moveto
68428.8 67649.1 lineto
stroke
newpath
68428.8 67649.1 moveto
68414.8 67682 lineto
stroke
newpath
68414.8 67682 moveto
68399.7 67713.3 lineto
stroke
newpath
68399.7 67713.3 moveto
68383.3 67743.5 lineto
stroke
newpath
68383.3 67743.5 moveto
68365.3 67773.2 lineto
stroke
newpath
68365.3 67773.2 moveto
68346.7 67801.1 lineto
stroke
newpath
68346.7 67801.1 moveto
68326.6 67828.4 lineto
stroke
newpath
68326.6 67828.4 moveto
68305.9 67854.1 lineto
stroke
newpath
68305.9 67854.1 moveto
68283.9 67879 lineto
stroke
newpath
68283.9 67879 moveto
68260.9 67902.7 lineto
stroke
newpath
68260.9 67902.7 moveto
68237.1 67925.3 lineto
stroke
newpath
68237.1 67925.3 moveto
68212.2 67947 lineto
stroke
newpath
68212.2 67947 moveto
68186.1 67967.7 lineto
stroke
newpath
68186.1 67967.7 moveto
68158.9 67987.3 lineto
stroke
newpath
68158.9 67987.3 moveto
68130.4 68005.9 lineto
stroke
newpath
68130.4 68005.9 moveto
68101 68023.3 lineto
stroke
newpath
68101 68023.3 moveto
68070.6 68039.5 lineto
stroke
newpath
68070.6 68039.5 moveto
68039 68054.4 lineto
stroke
newpath
68039 68054.4 moveto
68006.3 68068 lineto
stroke
newpath
68006.3 68068 moveto
67972 68080.3 lineto
stroke
newpath
67972 68080.3 moveto
67936.4 68091.1 lineto
stroke
newpath
67936.4 68091.1 moveto
67898 68100.6 lineto
stroke
newpath
67898 68100.6 moveto
67858.7 68108.1 lineto
stroke
newpath
67858.7 68108.1 moveto
67817 68113.7 lineto
stroke
newpath
67817 68113.7 moveto
67773.4 68117 lineto
stroke
newpath
67773.4 68117 moveto
67738.5 68117.8 lineto
stroke
0 0 0 setrgbcolor
newpath
41343.3 51810.3 moveto
41388.5 51811.7 lineto
stroke
newpath
41388.5 51811.7 moveto
41432.4 51815.6 lineto
stroke
newpath
41432.4 51815.6 moveto
41472.8 51821.6 lineto
stroke
newpath
41472.8 51821.6 moveto
41511.5 51829.4 lineto
stroke
newpath
41511.5 51829.4 moveto
41548.6 51839 lineto
stroke
newpath
41548.6 51839 moveto
41584.5 51850.3 lineto
stroke
newpath
41584.5 51850.3 moveto
41618.5 51862.9 lineto
stroke
newpath
41618.5 51862.9 moveto
41653.3 51877.9 lineto
stroke
newpath
41653.3 51877.9 moveto
41685 51893.4 lineto
stroke
newpath
41685 51893.4 moveto
41715.6 51910.2 lineto
stroke
newpath
41715.6 51910.2 moveto
41744.8 51928 lineto
stroke
newpath
41744.8 51928 moveto
41772.6 51946.8 lineto
stroke
newpath
41772.6 51946.8 moveto
41799.4 51966.7 lineto
stroke
newpath
41799.4 51966.7 moveto
41825.3 51987.9 lineto
stroke
newpath
41825.3 51987.9 moveto
41849.9 52009.8 lineto
stroke
newpath
41849.9 52009.8 moveto
41873.8 52033.1 lineto
stroke
newpath
41873.8 52033.1 moveto
41896.6 52057.4 lineto
stroke
newpath
41896.6 52057.4 moveto
41918 52082.4 lineto
stroke
newpath
41918 52082.4 moveto
41939.3 52109.6 lineto
stroke
newpath
41939.3 52109.6 moveto
41959 52137.4 lineto
stroke
newpath
41959 52137.4 moveto
41977.2 52165.6 lineto
stroke
newpath
41977.2 52165.6 moveto
41994.3 52195.1 lineto
stroke
newpath
41994.3 52195.1 moveto
42010.4 52226 lineto
stroke
newpath
42010.4 52226 moveto
42025.1 52257.8 lineto
stroke
newpath
42025.1 52257.8 moveto
42039.1 52292.4 lineto
stroke
newpath
42039.1 52292.4 moveto
42051.1 52327.2 lineto
stroke
newpath
42051.1 52327.2 moveto
42061.7 52363.6 lineto
stroke
newpath
42061.7 52363.6 moveto
42070.5 52401.1 lineto
stroke
newpath
42070.5 52401.1 moveto
42077.6 52440.5 lineto
stroke
newpath
42077.6 52440.5 moveto
42082.7 52481.8 lineto
stroke
newpath
42082.7 52481.8 moveto
42085.6 52525.6 lineto
stroke
newpath
42085.6 52525.6 moveto
42086.1 52552.8 lineto
stroke
0 0 0 setrgbcolor
newpath
32550.2 49119.4 moveto
32504.6 49118 lineto
stroke
newpath
32504.6 49118 moveto
32461.8 49114.2 lineto
stroke
newpath
32461.8 49114.2 moveto
32420.2 49108.1 lineto
stroke
newpath
32420.2 49108.1 moveto
32381.7 49100.2 lineto
stroke
newpath
32381.7 49100.2 moveto
32344.9 49090.7 lineto
stroke
newpath
32344.9 49090.7 moveto
32309.6 49079.6 lineto
stroke
newpath
32309.6 49079.6 moveto
32275.6 49067 lineto
stroke
newpath
32275.6 49067 moveto
32243 49053.1 lineto
stroke
newpath
32243 49053.1 moveto
32211.4 49037.8 lineto
stroke
newpath
32211.4 49037.8 moveto
32178.4 49019.8 lineto
stroke
newpath
32178.4 49019.8 moveto
32149.3 49002 lineto
stroke
newpath
32149.3 49002 moveto
32121 48982.9 lineto
stroke
newpath
32121 48982.9 moveto
32093.7 48962.6 lineto
stroke
newpath
32093.7 48962.6 moveto
32067.8 48941.5 lineto
stroke
newpath
32067.8 48941.5 moveto
32042.5 48918.8 lineto
stroke
newpath
32042.5 48918.8 moveto
32019.1 48895.9 lineto
stroke
newpath
32019.1 48895.9 moveto
31994 48868.9 lineto
stroke
newpath
31994 48868.9 moveto
31972.4 48843.4 lineto
stroke
newpath
31972.4 48843.4 moveto
31952.1 48817.1 lineto
stroke
newpath
31952.1 48817.1 moveto
31932.4 48789.1 lineto
stroke
newpath
31932.4 48789.1 moveto
31914.3 48760.7 lineto
stroke
newpath
31914.3 48760.7 moveto
31897.3 48731.1 lineto
stroke
newpath
31897.3 48731.1 moveto
31881.4 48700.1 lineto
stroke
newpath
31881.4 48700.1 moveto
31866.7 48667.8 lineto
stroke
newpath
31866.7 48667.8 moveto
31853.3 48634.1 lineto
stroke
newpath
31853.3 48634.1 moveto
31841.4 48599.1 lineto
stroke
newpath
31841.4 48599.1 moveto
31831 48562.8 lineto
stroke
newpath
31831 48562.8 moveto
31822.3 48524.8 lineto
stroke
newpath
31822.3 48524.8 moveto
31815.4 48485.1 lineto
stroke
newpath
31815.4 48485.1 moveto
31810.5 48443.6 lineto
stroke
newpath
31810.5 48443.6 moveto
31807.9 48399.4 lineto
stroke
newpath
31807.9 48399.4 moveto
31807.5 48376.9 lineto
stroke
0 0 0 setrgbcolor
newpath
42086.1 63198.9 moveto
42084.7 63244 lineto
stroke
newpath
42084.7 63244 moveto
42080.9 63286.8 lineto
stroke
newpath
42080.9 63286.8 moveto
42074.9 63328.2 lineto
stroke
newpath
42074.9 63328.2 moveto
42067 63366.8 lineto
stroke
newpath
42067 63366.8 moveto
42057.5 63403.6 lineto
stroke
newpath
42057.5 63403.6 moveto
42046.5 63439 lineto
stroke
newpath
42046.5 63439 moveto
42033.9 63472.9 lineto
stroke
newpath
42033.9 63472.9 moveto
42019.9 63505.8 lineto
stroke
newpath
42019.9 63505.8 moveto
42004.8 63537.1 lineto
stroke
newpath
42004.8 63537.1 moveto
41988.5 63567.4 lineto
stroke
newpath
41988.5 63567.4 moveto
41970.5 63597.1 lineto
stroke
newpath
41970.5 63597.1 moveto
41951.9 63625 lineto
stroke
newpath
41951.9 63625 moveto
41931.8 63652.3 lineto
stroke
newpath
41931.8 63652.3 moveto
41911.1 63678 lineto
stroke
newpath
41911.1 63678 moveto
41889 63702.9 lineto
stroke
newpath
41889 63702.9 moveto
41866.1 63726.6 lineto
stroke
newpath
41866.1 63726.6 moveto
41842.3 63749.2 lineto
stroke
newpath
41842.3 63749.2 moveto
41817.3 63770.8 lineto
stroke
newpath
41817.3 63770.8 moveto
41791.2 63791.5 lineto
stroke
newpath
41791.2 63791.5 moveto
41764.1 63811.1 lineto
stroke
newpath
41764.1 63811.1 moveto
41735.6 63829.8 lineto
stroke
newpath
41735.6 63829.8 moveto
41706.2 63847.2 lineto
stroke
newpath
41706.2 63847.2 moveto
41675.8 63863.3 lineto
stroke
newpath
41675.8 63863.3 moveto
41644.2 63878.3 lineto
stroke
newpath
41644.2 63878.3 moveto
41611.4 63891.9 lineto
stroke
newpath
41611.4 63891.9 moveto
41577.2 63904.1 lineto
stroke
newpath
41577.2 63904.1 moveto
41541.5 63915 lineto
stroke
newpath
41541.5 63915 moveto
41503.2 63924.5 lineto
stroke
newpath
41503.2 63924.5 moveto
41463.9 63932 lineto
stroke
newpath
41463.9 63932 moveto
41422.2 63937.5 lineto
stroke
newpath
41422.2 63937.5 moveto
41378.6 63940.9 lineto
stroke
newpath
41378.6 63940.9 moveto
41343.6 63941.7 lineto
stroke
0 0 0 setrgbcolor
newpath
58944.8 62456.5 moveto
58990 62457.8 lineto
stroke
newpath
58990 62457.8 moveto
59033.8 62461.8 lineto
stroke
newpath
59033.8 62461.8 moveto
59074.2 62467.7 lineto
stroke
newpath
59074.2 62467.7 moveto
59112.9 62475.6 lineto
stroke
newpath
59112.9 62475.6 moveto
59150 62485.2 lineto
stroke
newpath
59150 62485.2 moveto
59185.9 62496.5 lineto
stroke
newpath
59185.9 62496.5 moveto
59220 62509.1 lineto
stroke
newpath
59220 62509.1 moveto
59254.8 62524 lineto
stroke
newpath
59254.8 62524 moveto
59286.5 62539.5 lineto
stroke
newpath
59286.5 62539.5 moveto
59317.1 62556.3 lineto
stroke
newpath
59317.1 62556.3 moveto
59346.2 62574.2 lineto
stroke
newpath
59346.2 62574.2 moveto
59374 62592.9 lineto
stroke
newpath
59374 62592.9 moveto
59400.9 62612.9 lineto
stroke
newpath
59400.9 62612.9 moveto
59426.8 62634 lineto
stroke
newpath
59426.8 62634 moveto
59451.4 62656 lineto
stroke
newpath
59451.4 62656 moveto
59475.2 62679.2 lineto
stroke
newpath
59475.2 62679.2 moveto
59498.1 62703.6 lineto
stroke
newpath
59498.1 62703.6 moveto
59519.5 62728.6 lineto
stroke
newpath
59519.5 62728.6 moveto
59540.7 62755.8 lineto
stroke
newpath
59540.7 62755.8 moveto
59560.5 62783.5 lineto
stroke
newpath
59560.5 62783.5 moveto
59578.6 62811.7 lineto
stroke
newpath
59578.6 62811.7 moveto
59595.8 62841.3 lineto
stroke
newpath
59595.8 62841.3 moveto
59611.9 62872.2 lineto
stroke
newpath
59611.9 62872.2 moveto
59626.6 62903.9 lineto
stroke
newpath
59626.6 62903.9 moveto
59640.5 62938.6 lineto
stroke
newpath
59640.5 62938.6 moveto
59652.6 62973.4 lineto
stroke
newpath
59652.6 62973.4 moveto
59663.2 63009.7 lineto
stroke
newpath
59663.2 63009.7 moveto
59672 63047.3 lineto
stroke
newpath
59672 63047.3 moveto
59679.1 63086.7 lineto
stroke
newpath
59679.1 63086.7 moveto
59684.2 63128 lineto
stroke
newpath
59684.2 63128 moveto
59687 63171.7 lineto
stroke
newpath
59687 63171.7 moveto
59687.5 63198.9 lineto
stroke
0 0 0 setrgbcolor
newpath
58202.4 63199.2 moveto
58203.7 63154.2 lineto
stroke
newpath
58203.7 63154.2 moveto
58207.5 63111.3 lineto
stroke
newpath
58207.5 63111.3 moveto
58213.5 63070.3 lineto
stroke
newpath
58213.5 63070.3 moveto
58221.3 63031.8 lineto
stroke
newpath
58221.3 63031.8 moveto
58230.9 62994.6 lineto
stroke
newpath
58230.9 62994.6 moveto
58242 62959 lineto
stroke
newpath
58242 62959 moveto
58254.9 62924.2 lineto
stroke
newpath
58254.9 62924.2 moveto
58268.8 62891.7 lineto
stroke
newpath
58268.8 62891.7 moveto
58283.9 62860.4 lineto
stroke
newpath
58283.9 62860.4 moveto
58301.4 62828.4 lineto
stroke
newpath
58301.4 62828.4 moveto
58319.7 62798.3 lineto
stroke
newpath
58319.7 62798.3 moveto
58338.5 62770.5 lineto
stroke
newpath
58338.5 62770.5 moveto
58358.4 62743.6 lineto
stroke
newpath
58358.4 62743.6 moveto
58379.3 62718 lineto
stroke
newpath
58379.3 62718 moveto
58402.1 62692.3 lineto
stroke
newpath
58402.1 62692.3 moveto
58425.2 62668.7 lineto
stroke
newpath
58425.2 62668.7 moveto
58449.5 62646 lineto
stroke
newpath
58449.5 62646 moveto
58475.3 62623.9 lineto
stroke
newpath
58475.3 62623.9 moveto
58501.3 62603.5 lineto
stroke
newpath
58501.3 62603.5 moveto
58528.5 62584.2 lineto
stroke
newpath
58528.5 62584.2 moveto
58556.7 62566 lineto
stroke
newpath
58556.7 62566 moveto
58586.2 62548.8 lineto
stroke
newpath
58586.2 62548.8 moveto
58617 62532.6 lineto
stroke
newpath
58617 62532.6 moveto
58648.7 62517.9 lineto
stroke
newpath
58648.7 62517.9 moveto
58682.2 62504.3 lineto
stroke
newpath
58682.2 62504.3 moveto
58717.7 62491.9 lineto
stroke
newpath
58717.7 62491.9 moveto
58753.9 62481.3 lineto
stroke
newpath
58753.9 62481.3 moveto
58792 62472.3 lineto
stroke
newpath
58792 62472.3 moveto
58832.6 62464.9 lineto
stroke
newpath
58832.6 62464.9 moveto
58874.4 62459.8 lineto
stroke
newpath
58874.4 62459.8 moveto
58918 62457 lineto
stroke
newpath
58918 62457 moveto
58944.8 62456.5 lineto
stroke
0 0 0 setrgbcolor
newpath
58945.1 63941.7 moveto
58899.5 63940.3 lineto
stroke
newpath
58899.5 63940.3 moveto
58856.6 63936.5 lineto
stroke
newpath
58856.6 63936.5 moveto
58815.1 63930.3 lineto
stroke
newpath
58815.1 63930.3 moveto
58776.5 63922.5 lineto
stroke
newpath
58776.5 63922.5 moveto
58739.7 63912.9 lineto
stroke
newpath
58739.7 63912.9 moveto
58704.5 63901.9 lineto
stroke
newpath
58704.5 63901.9 moveto
58670.4 63889.3 lineto
stroke
newpath
58670.4 63889.3 moveto
58637.8 63875.4 lineto
stroke
newpath
58637.8 63875.4 moveto
58606.3 63860.1 lineto
stroke
newpath
58606.3 63860.1 moveto
58573.3 63842.1 lineto
stroke
newpath
58573.3 63842.1 moveto
58544.1 63824.3 lineto
stroke
newpath
58544.1 63824.3 moveto
58515.9 63805.2 lineto
stroke
newpath
58515.9 63805.2 moveto
58488.6 63784.9 lineto
stroke
newpath
58488.6 63784.9 moveto
58462.7 63763.8 lineto
stroke
newpath
58462.7 63763.8 moveto
58437.4 63741.1 lineto
stroke
newpath
58437.4 63741.1 moveto
58413.9 63718.1 lineto
stroke
newpath
58413.9 63718.1 moveto
58388.9 63691.2 lineto
stroke
newpath
58388.9 63691.2 moveto
58367.3 63665.7 lineto
stroke
newpath
58367.3 63665.7 moveto
58346.9 63639.4 lineto
stroke
newpath
58346.9 63639.4 moveto
58327.2 63611.4 lineto
stroke
newpath
58327.2 63611.4 moveto
58309.1 63582.9 lineto
stroke
newpath
58309.1 63582.9 moveto
58292.2 63553.4 lineto
stroke
newpath
58292.2 63553.4 moveto
58276.3 63522.4 lineto
stroke
newpath
58276.3 63522.4 moveto
58261.5 63490.1 lineto
stroke
newpath
58261.5 63490.1 moveto
58248.1 63456.4 lineto
stroke
newpath
58248.1 63456.4 moveto
58236.2 63421.4 lineto
stroke
newpath
58236.2 63421.4 moveto
58225.8 63385.1 lineto
stroke
newpath
58225.8 63385.1 moveto
58217.1 63347 lineto
stroke
newpath
58217.1 63347 moveto
58210.2 63307.4 lineto
stroke
newpath
58210.2 63307.4 moveto
58205.3 63265.9 lineto
stroke
newpath
58205.3 63265.9 moveto
58202.7 63221.7 lineto
stroke
newpath
58202.7 63221.7 moveto
58202.4 63199.2 lineto
stroke
0 0 0 setrgbcolor
newpath
59687.5 63198.9 moveto
59686.2 63244 lineto
stroke
newpath
59686.2 63244 moveto
59682.4 63286.8 lineto
stroke
newpath
59682.4 63286.8 moveto
59676.3 63328.2 lineto
stroke
newpath
59676.3 63328.2 moveto
59668.5 63366.8 lineto
stroke
newpath
59668.5 63366.8 moveto
59659 63403.6 lineto
stroke
newpath
59659 63403.6 moveto
59647.9 63439 lineto
stroke
newpath
59647.9 63439 moveto
59635.4 63472.9 lineto
stroke
newpath
59635.4 63472.9 moveto
59621.4 63505.8 lineto
stroke
newpath
59621.4 63505.8 moveto
59606.3 63537.1 lineto
stroke
newpath
59606.3 63537.1 moveto
59589.9 63567.4 lineto
stroke
newpath
59589.9 63567.4 moveto
59572 63597.1 lineto
stroke
newpath
59572 63597.1 moveto
59553.3 63625 lineto
stroke
newpath
59553.3 63625 moveto
59533.3 63652.3 lineto
stroke
newpath
59533.3 63652.3 moveto
59512.5 63678 lineto
stroke
newpath
59512.5 63678 moveto
59490.5 63702.9 lineto
stroke
newpath
59490.5 63702.9 moveto
59467.6 63726.6 lineto
stroke
newpath
59467.6 63726.6 moveto
59443.7 63749.2 lineto
stroke
newpath
59443.7 63749.2 moveto
59418.8 63770.8 lineto
stroke
newpath
59418.8 63770.8 moveto
59392.7 63791.5 lineto
stroke
newpath
59392.7 63791.5 moveto
59365.6 63811.1 lineto
stroke
newpath
59365.6 63811.1 moveto
59337 63829.8 lineto
stroke
newpath
59337 63829.8 moveto
59307.6 63847.2 lineto
stroke
newpath
59307.6 63847.2 moveto
59277.2 63863.3 lineto
stroke
newpath
59277.2 63863.3 moveto
59245.7 63878.3 lineto
stroke
newpath
59245.7 63878.3 moveto
59212.9 63891.9 lineto
stroke
newpath
59212.9 63891.9 moveto
59178.7 63904.1 lineto
stroke
newpath
59178.7 63904.1 moveto
59143 63915 lineto
stroke
newpath
59143 63915 moveto
59104.6 63924.5 lineto
stroke
newpath
59104.6 63924.5 moveto
59065.4 63932 lineto
stroke
newpath
59065.4 63932 moveto
59023.6 63937.5 lineto
stroke
newpath
59023.6 63937.5 moveto
58980 63940.9 lineto
stroke
newpath
58980 63940.9 moveto
58945.1 63941.7 lineto
stroke
0 0 0 setrgbcolor
newpath
41343.6 53295.5 moveto
41298 53294.1 lineto
stroke
newpath
41298 53294.1 moveto
41255.2 53290.3 lineto
stroke
newpath
41255.2 53290.3 moveto
41213.6 53284.2 lineto
stroke
newpath
41213.6 53284.2 moveto
41175.1 53276.3 lineto
stroke
newpath
41175.1 53276.3 moveto
41138.3 53266.8 lineto
stroke
newpath
41138.3 53266.8 moveto
41103 53255.7 lineto
stroke
newpath
41103 53255.7 moveto
41069 53243.1 lineto
stroke
newpath
41069 53243.1 moveto
41036.3 53229.2 lineto
stroke
newpath
41036.3 53229.2 moveto
41004.8 53213.9 lineto
stroke
newpath
41004.8 53213.9 moveto
40971.8 53195.9 lineto
stroke
newpath
40971.8 53195.9 moveto
40942.7 53178.1 lineto
stroke
newpath
40942.7 53178.1 moveto
40914.4 53159.1 lineto
stroke
newpath
40914.4 53159.1 moveto
40887.1 53138.8 lineto
stroke
newpath
40887.1 53138.8 moveto
40861.2 53117.6 lineto
stroke
newpath
40861.2 53117.6 moveto
40835.9 53094.9 lineto
stroke
newpath
40835.9 53094.9 moveto
40812.4 53072 lineto
stroke
newpath
40812.4 53072 moveto
40787.4 53045.1 lineto
stroke
newpath
40787.4 53045.1 moveto
40765.8 53019.6 lineto
stroke
newpath
40765.8 53019.6 moveto
40745.4 52993.2 lineto
stroke
newpath
40745.4 52993.2 moveto
40725.8 52965.2 lineto
stroke
newpath
40725.8 52965.2 moveto
40707.7 52936.8 lineto
stroke
newpath
40707.7 52936.8 moveto
40690.7 52907.3 lineto
stroke
newpath
40690.7 52907.3 moveto
40674.8 52876.3 lineto
stroke
newpath
40674.8 52876.3 moveto
40660.1 52843.9 lineto
stroke
newpath
40660.1 52843.9 moveto
40646.7 52810.2 lineto
stroke
newpath
40646.7 52810.2 moveto
40634.7 52775.2 lineto
stroke
newpath
40634.7 52775.2 moveto
40624.4 52738.9 lineto
stroke
newpath
40624.4 52738.9 moveto
40615.6 52700.9 lineto
stroke
newpath
40615.6 52700.9 moveto
40608.7 52661.2 lineto
stroke
newpath
40608.7 52661.2 moveto
40603.9 52619.8 lineto
stroke
newpath
40603.9 52619.8 moveto
40601.2 52575.5 lineto
stroke
newpath
40601.2 52575.5 moveto
40600.9 52553.1 lineto
stroke
0 0 0 setrgbcolor
newpath
59687.5 52552.8 moveto
59686.2 52597.8 lineto
stroke
newpath
59686.2 52597.8 moveto
59682.4 52640.7 lineto
stroke
newpath
59682.4 52640.7 moveto
59676.3 52682.1 lineto
stroke
newpath
59676.3 52682.1 moveto
59668.5 52720.6 lineto
stroke
newpath
59668.5 52720.6 moveto
59659 52757.4 lineto
stroke
newpath
59659 52757.4 moveto
59647.9 52792.8 lineto
stroke
newpath
59647.9 52792.8 moveto
59635.4 52826.8 lineto
stroke
newpath
59635.4 52826.8 moveto
59621.4 52859.7 lineto
stroke
newpath
59621.4 52859.7 moveto
59606.3 52891 lineto
stroke
newpath
59606.3 52891 moveto
59589.9 52921.2 lineto
stroke
newpath
59589.9 52921.2 moveto
59572 52950.9 lineto
stroke
newpath
59572 52950.9 moveto
59553.3 52978.8 lineto
stroke
newpath
59553.3 52978.8 moveto
59533.3 53006.1 lineto
stroke
newpath
59533.3 53006.1 moveto
59512.5 53031.8 lineto
stroke
newpath
59512.5 53031.8 moveto
59490.5 53056.7 lineto
stroke
newpath
59490.5 53056.7 moveto
59467.6 53080.5 lineto
stroke
newpath
59467.6 53080.5 moveto
59443.7 53103.1 lineto
stroke
newpath
59443.7 53103.1 moveto
59418.8 53124.7 lineto
stroke
newpath
59418.8 53124.7 moveto
59392.7 53145.4 lineto
stroke
newpath
59392.7 53145.4 moveto
59365.6 53165 lineto
stroke
newpath
59365.6 53165 moveto
59337 53183.7 lineto
stroke
newpath
59337 53183.7 moveto
59307.6 53201.1 lineto
stroke
newpath
59307.6 53201.1 moveto
59277.2 53217.2 lineto
stroke
newpath
59277.2 53217.2 moveto
59245.7 53232.1 lineto
stroke
newpath
59245.7 53232.1 moveto
59212.9 53245.7 lineto
stroke
newpath
59212.9 53245.7 moveto
59178.7 53258 lineto
stroke
newpath
59178.7 53258 moveto
59143 53268.8 lineto
stroke
newpath
59143 53268.8 moveto
59104.6 53278.3 lineto
stroke
newpath
59104.6 53278.3 moveto
59065.4 53285.8 lineto
stroke
newpath
59065.4 53285.8 moveto
59023.6 53291.4 lineto
stroke
newpath
59023.6 53291.4 moveto
58980 53294.7 lineto
stroke
newpath
58980 53294.7 moveto
58945.1 53295.5 lineto
stroke
0 0 0 setrgbcolor
newpath
42086.1 52552.8 moveto
42084.7 52597.8 lineto
stroke
newpath
42084.7 52597.8 moveto
42080.9 52640.7 lineto
stroke
newpath
42080.9 52640.7 moveto
42074.9 52682.1 lineto
stroke
newpath
42074.9 52682.1 moveto
42067 52720.6 lineto
stroke
newpath
42067 52720.6 moveto
42057.5 52757.4 lineto
stroke
newpath
42057.5 52757.4 moveto
42046.5 52792.8 lineto
stroke
newpath
42046.5 52792.8 moveto
42033.9 52826.8 lineto
stroke
newpath
42033.9 52826.8 moveto
42019.9 52859.7 lineto
stroke
newpath
42019.9 52859.7 moveto
42004.8 52891 lineto
stroke
newpath
42004.8 52891 moveto
41988.5 52921.2 lineto
stroke
newpath
41988.5 52921.2 moveto
41970.5 52950.9 lineto
stroke
newpath
41970.5 52950.9 moveto
41951.9 52978.8 lineto
stroke
newpath
41951.9 52978.8 moveto
41931.8 53006.1 lineto
stroke
newpath
41931.8 53006.1 moveto
41911.1 53031.8 lineto
stroke
newpath
41911.1 53031.8 moveto
41889 53056.7 lineto
stroke
newpath
41889 53056.7 moveto
41866.1 53080.5 lineto
stroke
newpath
41866.1 53080.5 moveto
41842.3 53103.1 lineto
stroke
newpath
41842.3 53103.1 moveto
41817.3 53124.7 lineto
stroke
newpath
41817.3 53124.7 moveto
41791.2 53145.4 lineto
stroke
newpath
41791.2 53145.4 moveto
41764.1 53165 lineto
stroke
newpath
41764.1 53165 moveto
41735.6 53183.7 lineto
stroke
newpath
41735.6 53183.7 moveto
41706.2 53201.1 lineto
stroke
newpath
41706.2 53201.1 moveto
41675.8 53217.2 lineto
stroke
newpath
41675.8 53217.2 moveto
41644.2 53232.1 lineto
stroke
newpath
41644.2 53232.1 moveto
41611.4 53245.7 lineto
stroke
newpath
41611.4 53245.7 moveto
41577.2 53258 lineto
stroke
newpath
41577.2 53258 moveto
41541.5 53268.8 lineto
stroke
newpath
41541.5 53268.8 moveto
41503.2 53278.3 lineto
stroke
newpath
41503.2 53278.3 moveto
41463.9 53285.8 lineto
stroke
newpath
41463.9 53285.8 moveto
41422.2 53291.4 lineto
stroke
newpath
41422.2 53291.4 moveto
41378.6 53294.7 lineto
stroke
newpath
41378.6 53294.7 moveto
41343.6 53295.5 lineto
stroke
0 0 0 setrgbcolor
newpath
58202.4 52553.1 moveto
58203.7 52508 lineto
stroke
newpath
58203.7 52508 moveto
58207.5 52465.2 lineto
stroke
newpath
58207.5 52465.2 moveto
58213.5 52424.2 lineto
stroke
newpath
58213.5 52424.2 moveto
58221.3 52385.6 lineto
stroke
newpath
58221.3 52385.6 moveto
58230.9 52348.4 lineto
stroke
newpath
58230.9 52348.4 moveto
58242 52312.9 lineto
stroke
newpath
58242 52312.9 moveto
58254.9 52278 lineto
stroke
newpath
58254.9 52278 moveto
58268.8 52245.5 lineto
stroke
newpath
58268.8 52245.5 moveto
58283.9 52214.2 lineto
stroke
newpath
58283.9 52214.2 moveto
58301.4 52182.2 lineto
stroke
newpath
58301.4 52182.2 moveto
58319.7 52152.1 lineto
stroke
newpath
58319.7 52152.1 moveto
58338.5 52124.3 lineto
stroke
newpath
58338.5 52124.3 moveto
58358.4 52097.4 lineto
stroke
newpath
58358.4 52097.4 moveto
58379.3 52071.8 lineto
stroke
newpath
58379.3 52071.8 moveto
58402.1 52046.2 lineto
stroke
newpath
58402.1 52046.2 moveto
58425.2 52022.5 lineto
stroke
newpath
58425.2 52022.5 moveto
58449.5 51999.8 lineto
stroke
newpath
58449.5 51999.8 moveto
58475.3 51977.7 lineto
stroke
newpath
58475.3 51977.7 moveto
58501.3 51957.4 lineto
stroke
newpath
58501.3 51957.4 moveto
58528.5 51938 lineto
stroke
newpath
58528.5 51938 moveto
58556.7 51919.8 lineto
stroke
newpath
58556.7 51919.8 moveto
58586.2 51902.6 lineto
stroke
newpath
58586.2 51902.6 moveto
58617 51886.5 lineto
stroke
newpath
58617 51886.5 moveto
58648.7 51871.8 lineto
stroke
newpath
58648.7 51871.8 moveto
58682.2 51858.2 lineto
stroke
newpath
58682.2 51858.2 moveto
58717.7 51845.7 lineto
stroke
newpath
58717.7 51845.7 moveto
58753.9 51835.1 lineto
stroke
newpath
58753.9 51835.1 moveto
58792 51826.1 lineto
stroke
newpath
58792 51826.1 moveto
58832.6 51818.8 lineto
stroke
newpath
58832.6 51818.8 moveto
58874.4 51813.6 lineto
stroke
newpath
58874.4 51813.6 moveto
58918 51810.8 lineto
stroke
newpath
58918 51810.8 moveto
58944.8 51810.3 lineto
stroke
0 0 0 setrgbcolor
newpath
40600.9 52553.1 moveto
40602.2 52508 lineto
stroke
newpath
40602.2 52508 moveto
40606 52465.2 lineto
stroke
newpath
40606 52465.2 moveto
40612 52424.2 lineto
stroke
newpath
40612 52424.2 moveto
40619.8 52385.6 lineto
stroke
newpath
40619.8 52385.6 moveto
40629.4 52348.4 lineto
stroke
newpath
40629.4 52348.4 moveto
40640.6 52312.9 lineto
stroke
newpath
40640.6 52312.9 moveto
40653.4 52278 lineto
stroke
newpath
40653.4 52278 moveto
40667.3 52245.5 lineto
stroke
newpath
40667.3 52245.5 moveto
40682.5 52214.2 lineto
stroke
newpath
40682.5 52214.2 moveto
40699.9 52182.2 lineto
stroke
newpath
40699.9 52182.2 moveto
40718.3 52152.1 lineto
stroke
newpath
40718.3 52152.1 moveto
40737 52124.3 lineto
stroke
newpath
40737 52124.3 moveto
40757 52097.4 lineto
stroke
newpath
40757 52097.4 moveto
40777.8 52071.8 lineto
stroke
newpath
40777.8 52071.8 moveto
40800.7 52046.2 lineto
stroke
newpath
40800.7 52046.2 moveto
40823.7 52022.5 lineto
stroke
newpath
40823.7 52022.5 moveto
40848 51999.8 lineto
stroke
newpath
40848 51999.8 moveto
40873.8 51977.7 lineto
stroke
newpath
40873.8 51977.7 moveto
40899.8 51957.4 lineto
stroke
newpath
40899.8 51957.4 moveto
40927 51938 lineto
stroke
newpath
40927 51938 moveto
40955.2 51919.8 lineto
stroke
newpath
40955.2 51919.8 moveto
40984.7 51902.6 lineto
stroke
newpath
40984.7 51902.6 moveto
41015.6 51886.5 lineto
stroke
newpath
41015.6 51886.5 moveto
41047.3 51871.8 lineto
stroke
newpath
41047.3 51871.8 moveto
41080.7 51858.2 lineto
stroke
newpath
41080.7 51858.2 moveto
41116.3 51845.7 lineto
stroke
newpath
41116.3 51845.7 moveto
41152.5 51835.1 lineto
stroke
newpath
41152.5 51835.1 moveto
41190.6 51826.1 lineto
stroke
newpath
41190.6 51826.1 moveto
41231.1 51818.8 lineto
stroke
newpath
41231.1 51818.8 moveto
41273 51813.6 lineto
stroke
newpath
41273 51813.6 moveto
41316.6 51810.8 lineto
stroke
newpath
41316.6 51810.8 moveto
41343.3 51810.3 lineto
stroke
0 0 0 setrgbcolor
newpath
58944.8 51810.3 moveto
58990 51811.7 lineto
stroke
newpath
58990 51811.7 moveto
59033.8 51815.6 lineto
stroke
newpath
59033.8 51815.6 moveto
59074.2 51821.6 lineto
stroke
newpath
59074.2 51821.6 moveto
59112.9 51829.4 lineto
stroke
newpath
59112.9 51829.4 moveto
59150 51839 lineto
stroke
newpath
59150 51839 moveto
59185.9 51850.3 lineto
stroke
newpath
59185.9 51850.3 moveto
59220 51862.9 lineto
stroke
newpath
59220 51862.9 moveto
59254.8 51877.9 lineto
stroke
newpath
59254.8 51877.9 moveto
59286.5 51893.4 lineto
stroke
newpath
59286.5 51893.4 moveto
59317.1 51910.2 lineto
stroke
newpath
59317.1 51910.2 moveto
59346.2 51928 lineto
stroke
newpath
59346.2 51928 moveto
59374 51946.8 lineto
stroke
newpath
59374 51946.8 moveto
59400.9 51966.7 lineto
stroke
newpath
59400.9 51966.7 moveto
59426.8 51987.9 lineto
stroke
newpath
59426.8 51987.9 moveto
59451.4 52009.8 lineto
stroke
newpath
59451.4 52009.8 moveto
59475.2 52033.1 lineto
stroke
newpath
59475.2 52033.1 moveto
59498.1 52057.4 lineto
stroke
newpath
59498.1 52057.4 moveto
59519.5 52082.4 lineto
stroke
newpath
59519.5 52082.4 moveto
59540.7 52109.6 lineto
stroke
newpath
59540.7 52109.6 moveto
59560.5 52137.4 lineto
stroke
newpath
59560.5 52137.4 moveto
59578.6 52165.6 lineto
stroke
newpath
59578.6 52165.6 moveto
59595.8 52195.1 lineto
stroke
newpath
59595.8 52195.1 moveto
59611.9 52226 lineto
stroke
newpath
59611.9 52226 moveto
59626.6 52257.8 lineto
stroke
newpath
59626.6 52257.8 moveto
59640.5 52292.4 lineto
stroke
newpath
59640.5 52292.4 moveto
59652.6 52327.2 lineto
stroke
newpath
59652.6 52327.2 moveto
59663.2 52363.6 lineto
stroke
newpath
59663.2 52363.6 moveto
59672 52401.1 lineto
stroke
newpath
59672 52401.1 moveto
59679.1 52440.5 lineto
stroke
newpath
59679.1 52440.5 moveto
59684.2 52481.8 lineto
stroke
newpath
59684.2 52481.8 moveto
59687 52525.6 lineto
stroke
newpath
59687 52525.6 moveto
59687.5 52552.8 lineto
stroke
0 0 0 setrgbcolor
newpath
58945.1 53295.5 moveto
58899.5 53294.1 lineto
stroke
newpath
58899.5 53294.1 moveto
58856.6 53290.3 lineto
stroke
newpath
58856.6 53290.3 moveto
58815.1 53284.2 lineto
stroke
newpath
58815.1 53284.2 moveto
58776.5 53276.3 lineto
stroke
newpath
58776.5 53276.3 moveto
58739.7 53266.8 lineto
stroke
newpath
58739.7 53266.8 moveto
58704.5 53255.7 lineto
stroke
newpath
58704.5 53255.7 moveto
58670.4 53243.1 lineto
stroke
newpath
58670.4 53243.1 moveto
58637.8 53229.2 lineto
stroke
newpath
58637.8 53229.2 moveto
58606.3 53213.9 lineto
stroke
newpath
58606.3 53213.9 moveto
58573.3 53195.9 lineto
stroke
newpath
58573.3 53195.9 moveto
58544.1 53178.1 lineto
stroke
newpath
58544.1 53178.1 moveto
58515.9 53159.1 lineto
stroke
newpath
58515.9 53159.1 moveto
58488.6 53138.8 lineto
stroke
newpath
58488.6 53138.8 moveto
58462.7 53117.6 lineto
stroke
newpath
58462.7 53117.6 moveto
58437.4 53094.9 lineto
stroke
newpath
58437.4 53094.9 moveto
58413.9 53072 lineto
stroke
newpath
58413.9 53072 moveto
58388.9 53045.1 lineto
stroke
newpath
58388.9 53045.1 moveto
58367.3 53019.6 lineto
stroke
newpath
58367.3 53019.6 moveto
58346.9 52993.2 lineto
stroke
newpath
58346.9 52993.2 moveto
58327.2 52965.2 lineto
stroke
newpath
58327.2 52965.2 moveto
58309.1 52936.8 lineto
stroke
newpath
58309.1 52936.8 moveto
58292.2 52907.3 lineto
stroke
newpath
58292.2 52907.3 moveto
58276.3 52876.3 lineto
stroke
newpath
58276.3 52876.3 moveto
58261.5 52843.9 lineto
stroke
newpath
58261.5 52843.9 moveto
58248.1 52810.2 lineto
stroke
newpath
58248.1 52810.2 moveto
58236.2 52775.2 lineto
stroke
newpath
58236.2 52775.2 moveto
58225.8 52738.9 lineto
stroke
newpath
58225.8 52738.9 moveto
58217.1 52700.9 lineto
stroke
newpath
58217.1 52700.9 moveto
58210.2 52661.2 lineto
stroke
newpath
58210.2 52661.2 moveto
58205.3 52619.8 lineto
stroke
newpath
58205.3 52619.8 moveto
58202.7 52575.5 lineto
stroke
newpath
58202.7 52575.5 moveto
58202.4 52553.1 lineto
stroke
0 0 0 setrgbcolor
newpath
41343.3 62456.5 moveto
41388.5 62457.8 lineto
stroke
newpath
41388.5 62457.8 moveto
41432.4 62461.8 lineto
stroke
newpath
41432.4 62461.8 moveto
41472.8 62467.7 lineto
stroke
newpath
41472.8 62467.7 moveto
41511.5 62475.6 lineto
stroke
newpath
41511.5 62475.6 moveto
41548.6 62485.2 lineto
stroke
newpath
41548.6 62485.2 moveto
41584.5 62496.5 lineto
stroke
newpath
41584.5 62496.5 moveto
41618.5 62509.1 lineto
stroke
newpath
41618.5 62509.1 moveto
41653.3 62524 lineto
stroke
newpath
41653.3 62524 moveto
41685 62539.5 lineto
stroke
newpath
41685 62539.5 moveto
41715.6 62556.4 lineto
stroke
newpath
41715.6 62556.4 moveto
41744.8 62574.2 lineto
stroke
newpath
41744.8 62574.2 moveto
41772.6 62592.9 lineto
stroke
newpath
41772.6 62592.9 moveto
41799.4 62612.9 lineto
stroke
newpath
41799.4 62612.9 moveto
41825.3 62634 lineto
stroke
newpath
41825.3 62634 moveto
41849.9 62656 lineto
stroke
newpath
41849.9 62656 moveto
41873.8 62679.2 lineto
stroke
newpath
41873.8 62679.2 moveto
41896.6 62703.6 lineto
stroke
newpath
41896.6 62703.6 moveto
41918 62728.6 lineto
stroke
newpath
41918 62728.6 moveto
41939.3 62755.8 lineto
stroke
newpath
41939.3 62755.8 moveto
41959 62783.5 lineto
stroke
newpath
41959 62783.5 moveto
41977.2 62811.7 lineto
stroke
newpath
41977.2 62811.7 moveto
41994.3 62841.3 lineto
stroke
newpath
41994.3 62841.3 moveto
42010.4 62872.2 lineto
stroke
newpath
42010.4 62872.2 moveto
42025.1 62903.9 lineto
stroke
newpath
42025.1 62903.9 moveto
42039.1 62938.6 lineto
stroke
newpath
42039.1 62938.6 moveto
42051.1 62973.4 lineto
stroke
newpath
42051.1 62973.4 moveto
42061.7 63009.7 lineto
stroke
newpath
42061.7 63009.7 moveto
42070.5 63047.3 lineto
stroke
newpath
42070.5 63047.3 moveto
42077.6 63086.7 lineto
stroke
newpath
42077.6 63086.7 moveto
42082.7 63128 lineto
stroke
newpath
42082.7 63128 moveto
42085.6 63171.7 lineto
stroke
newpath
42085.6 63171.7 moveto
42086.1 63198.9 lineto
stroke
0 0 0 setrgbcolor
newpath
40600.9 63199.2 moveto
40602.2 63154.2 lineto
stroke
newpath
40602.2 63154.2 moveto
40606 63111.3 lineto
stroke
newpath
40606 63111.3 moveto
40612 63070.3 lineto
stroke
newpath
40612 63070.3 moveto
40619.8 63031.8 lineto
stroke
newpath
40619.8 63031.8 moveto
40629.4 62994.6 lineto
stroke
newpath
40629.4 62994.6 moveto
40640.6 62959 lineto
stroke
newpath
40640.6 62959 moveto
40653.4 62924.2 lineto
stroke
newpath
40653.4 62924.2 moveto
40667.3 62891.7 lineto
stroke
newpath
40667.3 62891.7 moveto
40682.5 62860.4 lineto
stroke
newpath
40682.5 62860.4 moveto
40699.9 62828.4 lineto
stroke
newpath
40699.9 62828.4 moveto
40718.3 62798.3 lineto
stroke
newpath
40718.3 62798.3 moveto
40737 62770.5 lineto
stroke
newpath
40737 62770.5 moveto
40757 62743.6 lineto
stroke
newpath
40757 62743.6 moveto
40777.8 62718 lineto
stroke
newpath
40777.8 62718 moveto
40800.7 62692.3 lineto
stroke
newpath
40800.7 62692.3 moveto
40823.7 62668.7 lineto
stroke
newpath
40823.7 62668.7 moveto
40848 62646 lineto
stroke
newpath
40848 62646 moveto
40873.8 62623.9 lineto
stroke
newpath
40873.8 62623.9 moveto
40899.8 62603.5 lineto
stroke
newpath
40899.8 62603.5 moveto
40927 62584.2 lineto
stroke
newpath
40927 62584.2 moveto
40955.2 62566 lineto
stroke
newpath
40955.2 62566 moveto
40984.7 62548.8 lineto
stroke
newpath
40984.7 62548.8 moveto
41015.6 62532.6 lineto
stroke
newpath
41015.6 62532.6 moveto
41047.3 62517.9 lineto
stroke
newpath
41047.3 62517.9 moveto
41080.7 62504.3 lineto
stroke
newpath
41080.7 62504.3 moveto
41116.3 62491.9 lineto
stroke
newpath
41116.3 62491.9 moveto
41152.5 62481.3 lineto
stroke
newpath
41152.5 62481.3 moveto
41190.6 62472.3 lineto
stroke
newpath
41190.6 62472.3 moveto
41231.1 62464.9 lineto
stroke
newpath
41231.1 62464.9 moveto
41273 62459.8 lineto
stroke
newpath
41273 62459.8 moveto
41316.6 62457 lineto
stroke
newpath
41316.6 62457 moveto
41343.3 62456.5 lineto
stroke
0 0 0 setrgbcolor
newpath
41343.6 63941.7 moveto
41298 63940.3 lineto
stroke
newpath
41298 63940.3 moveto
41255.2 63936.5 lineto
stroke
newpath
41255.2 63936.5 moveto
41213.6 63930.3 lineto
stroke
newpath
41213.6 63930.3 moveto
41175.1 63922.5 lineto
stroke
newpath
41175.1 63922.5 moveto
41138.3 63912.9 lineto
stroke
newpath
41138.3 63912.9 moveto
41103 63901.9 lineto
stroke
newpath
41103 63901.9 moveto
41069 63889.3 lineto
stroke
newpath
41069 63889.3 moveto
41036.3 63875.4 lineto
stroke
newpath
41036.3 63875.4 moveto
41004.8 63860.1 lineto
stroke
newpath
41004.8 63860.1 moveto
40971.8 63842.1 lineto
stroke
newpath
40971.8 63842.1 moveto
40942.7 63824.3 lineto
stroke
newpath
40942.7 63824.3 moveto
40914.4 63805.2 lineto
stroke
newpath
40914.4 63805.2 moveto
40887.1 63784.9 lineto
stroke
newpath
40887.1 63784.9 moveto
40861.2 63763.8 lineto
stroke
newpath
40861.2 63763.8 moveto
40835.9 63741.1 lineto
stroke
newpath
40835.9 63741.1 moveto
40812.4 63718.1 lineto
stroke
newpath
40812.4 63718.1 moveto
40787.4 63691.2 lineto
stroke
newpath
40787.4 63691.2 moveto
40765.8 63665.7 lineto
stroke
newpath
40765.8 63665.7 moveto
40745.4 63639.4 lineto
stroke
newpath
40745.4 63639.4 moveto
40725.8 63611.4 lineto
stroke
newpath
40725.8 63611.4 moveto
40707.7 63582.9 lineto
stroke
newpath
40707.7 63582.9 moveto
40690.7 63553.4 lineto
stroke
newpath
40690.7 63553.4 moveto
40674.8 63522.4 lineto
stroke
newpath
40674.8 63522.4 moveto
40660.1 63490.1 lineto
stroke
newpath
40660.1 63490.1 moveto
40646.7 63456.4 lineto
stroke
newpath
40646.7 63456.4 moveto
40634.7 63421.4 lineto
stroke
newpath
40634.7 63421.4 moveto
40624.4 63385.1 lineto
stroke
newpath
40624.4 63385.1 moveto
40615.6 63347 lineto
stroke
newpath
40615.6 63347 moveto
40608.7 63307.4 lineto
stroke
newpath
40608.7 63307.4 moveto
40603.9 63265.9 lineto
stroke
newpath
40603.9 63265.9 moveto
40601.2 63221.7 lineto
stroke
newpath
40601.2 63221.7 moveto
40600.9 63199.2 lineto
stroke
78.74 setlinewidth
118.11 setlinewidth
0 0 0 setrgbcolor
0 0 0 setrgbcolor
newpath
30412.2 35175.5 moveto
30412.2 36356.6 lineto
30693.5 36356.6 lineto
30862.2 36300.3 lineto
30974.7 36187.9 lineto
31030.9 36075.4 lineto
31087.2 35850.4 lineto
31087.2 35681.7 lineto
31030.9 35456.7 lineto
30974.7 35344.2 lineto
30862.2 35231.7 lineto
30693.5 35175.5 lineto
30412.2 35175.5 lineto
stroke
newpath
31593.3 35175.5 moveto
31593.3 35962.9 lineto
stroke
newpath
31593.3 35737.9 moveto
31649.6 35850.4 lineto
31705.8 35906.6 lineto
31818.3 35962.9 lineto
31930.8 35962.9 lineto
stroke
newpath
32324.5 35175.5 moveto
32324.5 35962.9 lineto
stroke
newpath
32324.5 36356.6 moveto
32268.3 36300.3 lineto
32324.5 36244.1 lineto
32380.7 36300.3 lineto
32324.5 36356.6 lineto
32324.5 36244.1 lineto
stroke
newpath
33055.7 35175.5 moveto
32943.2 35231.7 lineto
32886.9 35344.2 lineto
32886.9 36356.6 lineto
stroke
newpath
33674.3 35175.5 moveto
33561.8 35231.7 lineto
33505.6 35344.2 lineto
33505.6 36356.6 lineto
stroke
newpath
35024.2 35175.5 moveto
35024.2 36356.6 lineto
35417.9 35512.9 lineto
35811.6 36356.6 lineto
35811.6 35175.5 lineto
stroke
newpath
36880.2 35175.5 moveto
36880.2 35794.2 lineto
36823.9 35906.6 lineto
36711.5 35962.9 lineto
36486.5 35962.9 lineto
36374 35906.6 lineto
stroke
newpath
36880.2 35231.7 moveto
36767.7 35175.5 lineto
36486.5 35175.5 lineto
36374 35231.7 lineto
36317.8 35344.2 lineto
36317.8 35456.7 lineto
36374 35569.2 lineto
36486.5 35625.4 lineto
36767.7 35625.4 lineto
36880.2 35681.7 lineto
stroke
newpath
37442.6 35962.9 moveto
37442.6 34781.8 lineto
stroke
newpath
37442.6 35906.6 moveto
37555.1 35962.9 lineto
37780.1 35962.9 lineto
37892.6 35906.6 lineto
37948.8 35850.4 lineto
38005 35737.9 lineto
38005 35400.5 lineto
37948.8 35288 lineto
37892.6 35231.7 lineto
37780.1 35175.5 lineto
37555.1 35175.5 lineto
37442.6 35231.7 lineto
stroke
newpath
38511.2 35288 moveto
38567.5 35231.7 lineto
38511.2 35175.5 lineto
38455 35231.7 lineto
38511.2 35288 lineto
38511.2 35175.5 lineto
stroke
newpath
38511.2 35906.6 moveto
38567.5 35850.4 lineto
38511.2 35794.2 lineto
38455 35850.4 lineto
38511.2 35906.6 lineto
38511.2 35794.2 lineto
stroke
showpage
grestore
%%EOF
