G04 #@! TF.GenerationSoftware,KiCad,Pcbnew,(5.1.0)-1*
G04 #@! TF.CreationDate,2019-04-03T19:39:11+02:00*
G04 #@! TF.ProjectId,jazzgoth-mics,6a617a7a-676f-4746-982d-6d6963732e6b,rev?*
G04 #@! TF.SameCoordinates,Original*
G04 #@! TF.FileFunction,Profile,NP*
%FSLAX46Y46*%
G04 Gerber Fmt 4.6, Leading zero omitted, Abs format (unit mm)*
G04 Created by KiCad (PCBNEW (5.1.0)-1) date 2019-04-03 19:39:11*
%MOMM*%
%LPD*%
G04 APERTURE LIST*
%ADD10C,0.100000*%
G04 APERTURE END LIST*
D10*
X58928000Y-71882000D02*
X115570000Y-71882000D01*
X115316000Y-123444000D02*
X49276000Y-123444000D01*
X115570000Y-71882000D02*
X115316000Y-123444000D01*
X49276000Y-123444000D02*
X49530000Y-71882000D01*
X49530000Y-71882000D02*
X58928000Y-71882000D01*
M02*
