G04 #@! TF.GenerationSoftware,KiCad,Pcbnew,(5.1.0)-1*
G04 #@! TF.CreationDate,2019-04-03T19:39:11+02:00*
G04 #@! TF.ProjectId,jazzgoth-mics,6a617a7a-676f-4746-982d-6d6963732e6b,rev?*
G04 #@! TF.SameCoordinates,Original*
G04 #@! TF.FileFunction,Legend,Top*
G04 #@! TF.FilePolarity,Positive*
%FSLAX46Y46*%
G04 Gerber Fmt 4.6, Leading zero omitted, Abs format (unit mm)*
G04 Created by KiCad (PCBNEW (5.1.0)-1) date 2019-04-03 19:39:11*
%MOMM*%
%LPD*%
G04 APERTURE LIST*
%ADD10C,0.120000*%
%ADD11C,0.150000*%
G04 APERTURE END LIST*
D10*
X102811733Y-108714000D02*
X103154267Y-108714000D01*
X102811733Y-107694000D02*
X103154267Y-107694000D01*
X72053267Y-118362000D02*
X71710733Y-118362000D01*
X72053267Y-119382000D02*
X71710733Y-119382000D01*
X66517733Y-87628000D02*
X66860267Y-87628000D01*
X66517733Y-88648000D02*
X66860267Y-88648000D01*
X65472000Y-86928000D02*
X65472000Y-85598000D01*
X66802000Y-86928000D02*
X65472000Y-86928000D01*
X68072000Y-86928000D02*
X68072000Y-84268000D01*
X68072000Y-84268000D02*
X70672000Y-84268000D01*
X68072000Y-86928000D02*
X70672000Y-86928000D01*
X70672000Y-86928000D02*
X70672000Y-84268000D01*
X84753267Y-117346000D02*
X84410733Y-117346000D01*
X84753267Y-118366000D02*
X84410733Y-118366000D01*
X99062000Y-78427733D02*
X99062000Y-78770267D01*
X98042000Y-78427733D02*
X98042000Y-78770267D01*
X106343267Y-103888000D02*
X106000733Y-103888000D01*
X106343267Y-102868000D02*
X106000733Y-102868000D01*
X84836000Y-79736000D02*
X81386000Y-79736000D01*
X84836000Y-79736000D02*
X86786000Y-79736000D01*
X84836000Y-84856000D02*
X82886000Y-84856000D01*
X84836000Y-84856000D02*
X86786000Y-84856000D01*
X73323267Y-108202000D02*
X72980733Y-108202000D01*
X73323267Y-109222000D02*
X72980733Y-109222000D01*
X102811733Y-114810000D02*
X103154267Y-114810000D01*
X102811733Y-113790000D02*
X103154267Y-113790000D01*
X104138000Y-78314733D02*
X104138000Y-78657267D01*
X105158000Y-78314733D02*
X105158000Y-78657267D01*
X67502000Y-106688000D02*
X69452000Y-106688000D01*
X67502000Y-106688000D02*
X65552000Y-106688000D01*
X67502000Y-101568000D02*
X69452000Y-101568000D01*
X67502000Y-101568000D02*
X64052000Y-101568000D01*
X93915000Y-101707000D02*
X90465000Y-101707000D01*
X93915000Y-101707000D02*
X95865000Y-101707000D01*
X93915000Y-106827000D02*
X91965000Y-106827000D01*
X93915000Y-106827000D02*
X95865000Y-106827000D01*
X90100000Y-107382000D02*
X81470000Y-107382000D01*
X90100000Y-107263905D02*
X81470000Y-107263905D01*
X90100000Y-107145810D02*
X81470000Y-107145810D01*
X90100000Y-107027715D02*
X81470000Y-107027715D01*
X90100000Y-106909620D02*
X81470000Y-106909620D01*
X90100000Y-106791525D02*
X81470000Y-106791525D01*
X90100000Y-106673430D02*
X81470000Y-106673430D01*
X90100000Y-106555335D02*
X81470000Y-106555335D01*
X90100000Y-106437240D02*
X81470000Y-106437240D01*
X90100000Y-106319145D02*
X81470000Y-106319145D01*
X90100000Y-106201050D02*
X81470000Y-106201050D01*
X90100000Y-106082955D02*
X81470000Y-106082955D01*
X90100000Y-105964860D02*
X81470000Y-105964860D01*
X90100000Y-105846765D02*
X81470000Y-105846765D01*
X90100000Y-105728670D02*
X81470000Y-105728670D01*
X90100000Y-105610575D02*
X81470000Y-105610575D01*
X90100000Y-105492480D02*
X81470000Y-105492480D01*
X90100000Y-105374385D02*
X81470000Y-105374385D01*
X90100000Y-105256290D02*
X81470000Y-105256290D01*
X90100000Y-105138195D02*
X81470000Y-105138195D01*
X90100000Y-105020100D02*
X81470000Y-105020100D01*
X81470000Y-106532000D02*
X81120000Y-106532000D01*
X81470000Y-105812000D02*
X81120000Y-105812000D01*
X81470000Y-103992000D02*
X81060000Y-103992000D01*
X81470000Y-103272000D02*
X81060000Y-103272000D01*
X81470000Y-101452000D02*
X81060000Y-101452000D01*
X81470000Y-100732000D02*
X81060000Y-100732000D01*
X81470000Y-98912000D02*
X81060000Y-98912000D01*
X81470000Y-98192000D02*
X81060000Y-98192000D01*
X81470000Y-96372000D02*
X81060000Y-96372000D01*
X81470000Y-95652000D02*
X81060000Y-95652000D01*
X81470000Y-93832000D02*
X81060000Y-93832000D01*
X81470000Y-93112000D02*
X81060000Y-93112000D01*
X81470000Y-91292000D02*
X81060000Y-91292000D01*
X81470000Y-90572000D02*
X81060000Y-90572000D01*
X81470000Y-88752000D02*
X81060000Y-88752000D01*
X81470000Y-88032000D02*
X81060000Y-88032000D01*
X90100000Y-104902000D02*
X81470000Y-104902000D01*
X90100000Y-102362000D02*
X81470000Y-102362000D01*
X90100000Y-99822000D02*
X81470000Y-99822000D01*
X90100000Y-97282000D02*
X81470000Y-97282000D01*
X90100000Y-94742000D02*
X81470000Y-94742000D01*
X90100000Y-92202000D02*
X81470000Y-92202000D01*
X90100000Y-89662000D02*
X81470000Y-89662000D01*
X90100000Y-107502000D02*
X81470000Y-107502000D01*
X81470000Y-107502000D02*
X81470000Y-87062000D01*
X90100000Y-87062000D02*
X81470000Y-87062000D01*
X90100000Y-107502000D02*
X90100000Y-87062000D01*
X78900000Y-107502000D02*
X78900000Y-106172000D01*
X80010000Y-107502000D02*
X78900000Y-107502000D01*
X79758000Y-110572733D02*
X79758000Y-110915267D01*
X78738000Y-110572733D02*
X78738000Y-110915267D01*
X69908267Y-109222000D02*
X69565733Y-109222000D01*
X69908267Y-108202000D02*
X69565733Y-108202000D01*
X105158000Y-81616733D02*
X105158000Y-81959267D01*
X104138000Y-81616733D02*
X104138000Y-81959267D01*
X106367733Y-113790000D02*
X106710267Y-113790000D01*
X106367733Y-114810000D02*
X106710267Y-114810000D01*
X77980000Y-110915267D02*
X77980000Y-110572733D01*
X76960000Y-110915267D02*
X76960000Y-110572733D01*
X87091733Y-102360000D02*
X87434267Y-102360000D01*
X87091733Y-103380000D02*
X87434267Y-103380000D01*
X67312000Y-109504267D02*
X67312000Y-109161733D01*
X66292000Y-109504267D02*
X66292000Y-109161733D01*
X77298733Y-82040000D02*
X77641267Y-82040000D01*
X77298733Y-83060000D02*
X77641267Y-83060000D01*
X99062000Y-81870733D02*
X99062000Y-82213267D01*
X98042000Y-81870733D02*
X98042000Y-82213267D01*
X103662267Y-97538000D02*
X103319733Y-97538000D01*
X103662267Y-96518000D02*
X103319733Y-96518000D01*
X71122000Y-82467267D02*
X71122000Y-82124733D01*
X70102000Y-82467267D02*
X70102000Y-82124733D01*
X70102000Y-79052267D02*
X70102000Y-78709733D01*
X71122000Y-79052267D02*
X71122000Y-78709733D01*
X106113733Y-108714000D02*
X106456267Y-108714000D01*
X106113733Y-107694000D02*
X106456267Y-107694000D01*
X86358000Y-86555733D02*
X86358000Y-86898267D01*
X87378000Y-86555733D02*
X87378000Y-86898267D01*
X64260000Y-109504267D02*
X64260000Y-109161733D01*
X65280000Y-109504267D02*
X65280000Y-109161733D01*
X96264000Y-108653733D02*
X96264000Y-108996267D01*
X97284000Y-108653733D02*
X97284000Y-108996267D01*
X60788733Y-102868000D02*
X61131267Y-102868000D01*
X60788733Y-103888000D02*
X61131267Y-103888000D01*
X90760733Y-81278000D02*
X91103267Y-81278000D01*
X90760733Y-82298000D02*
X91103267Y-82298000D01*
X57910000Y-106089267D02*
X57910000Y-105746733D01*
X58930000Y-106089267D02*
X58930000Y-105746733D01*
X94740000Y-108996267D02*
X94740000Y-108653733D01*
X95760000Y-108996267D02*
X95760000Y-108653733D01*
X81451267Y-118366000D02*
X81108733Y-118366000D01*
X81451267Y-117346000D02*
X81108733Y-117346000D01*
X88902000Y-86898267D02*
X88902000Y-86555733D01*
X87882000Y-86898267D02*
X87882000Y-86555733D01*
X87124000Y-105835267D02*
X87124000Y-105492733D01*
X86104000Y-105835267D02*
X86104000Y-105492733D01*
X100158733Y-104392000D02*
X100501267Y-104392000D01*
X100158733Y-105412000D02*
X100501267Y-105412000D01*
X107218267Y-96518000D02*
X106875733Y-96518000D01*
X107218267Y-97538000D02*
X106875733Y-97538000D01*
X74166000Y-105238733D02*
X74166000Y-105581267D01*
X75186000Y-105238733D02*
X75186000Y-105581267D01*
X65206000Y-79226000D02*
X65206000Y-82826000D01*
X65217522Y-79187522D02*
G75*
G02X69656000Y-81026000I1838478J-1838478D01*
G01*
X65217522Y-82864478D02*
G75*
G03X69656000Y-81026000I1838478J1838478D01*
G01*
X68266000Y-114748000D02*
X68266000Y-117408000D01*
X70866000Y-114748000D02*
X68266000Y-114748000D01*
X70866000Y-117408000D02*
X68266000Y-117408000D01*
X70866000Y-114748000D02*
X70866000Y-117408000D01*
X72136000Y-114748000D02*
X73466000Y-114748000D01*
X73466000Y-114748000D02*
X73466000Y-116078000D01*
X56132000Y-105746733D02*
X56132000Y-106089267D01*
X57152000Y-105746733D02*
X57152000Y-106089267D01*
X103041267Y-102868000D02*
X102698733Y-102868000D01*
X103041267Y-103888000D02*
X102698733Y-103888000D01*
X69819733Y-88648000D02*
X70162267Y-88648000D01*
X69819733Y-87628000D02*
X70162267Y-87628000D01*
X106994478Y-102422478D02*
G75*
G03X105156000Y-97984000I-1838478J1838478D01*
G01*
X103317522Y-102422478D02*
G75*
G02X105156000Y-97984000I1838478J1838478D01*
G01*
X103356000Y-102434000D02*
X106956000Y-102434000D01*
X97984000Y-109160000D02*
X99314000Y-109160000D01*
X97984000Y-110490000D02*
X97984000Y-109160000D01*
X97984000Y-111760000D02*
X100644000Y-111760000D01*
X100644000Y-111760000D02*
X100644000Y-114360000D01*
X97984000Y-111760000D02*
X97984000Y-114360000D01*
X97984000Y-114360000D02*
X100644000Y-114360000D01*
X89410000Y-105492733D02*
X89410000Y-105835267D01*
X88390000Y-105492733D02*
X88390000Y-105835267D01*
X72704478Y-114106478D02*
G75*
G03X70866000Y-109668000I-1838478J1838478D01*
G01*
X69027522Y-114106478D02*
G75*
G02X70866000Y-109668000I1838478J1838478D01*
G01*
X69066000Y-114118000D02*
X72666000Y-114118000D01*
X79076733Y-85596000D02*
X79419267Y-85596000D01*
X79076733Y-86616000D02*
X79419267Y-86616000D01*
X99762000Y-82610000D02*
X102422000Y-82610000D01*
X99762000Y-80010000D02*
X99762000Y-82610000D01*
X102422000Y-80010000D02*
X102422000Y-82610000D01*
X99762000Y-80010000D02*
X102422000Y-80010000D01*
X99762000Y-78740000D02*
X99762000Y-77410000D01*
X99762000Y-77410000D02*
X101092000Y-77410000D01*
X85658000Y-113986000D02*
X85658000Y-115316000D01*
X84328000Y-113986000D02*
X85658000Y-113986000D01*
X83058000Y-113986000D02*
X83058000Y-116646000D01*
X83058000Y-116646000D02*
X80458000Y-116646000D01*
X83058000Y-113986000D02*
X80458000Y-113986000D01*
X80458000Y-113986000D02*
X80458000Y-116646000D01*
X79419267Y-84072000D02*
X79076733Y-84072000D01*
X79419267Y-85092000D02*
X79076733Y-85092000D01*
X81258000Y-113102000D02*
X84858000Y-113102000D01*
X81219522Y-113090478D02*
G75*
G02X83058000Y-108652000I1838478J1838478D01*
G01*
X84896478Y-113090478D02*
G75*
G03X83058000Y-108652000I-1838478J1838478D01*
G01*
X103063522Y-109159522D02*
G75*
G03X104902000Y-113598000I1838478J-1838478D01*
G01*
X106740478Y-109159522D02*
G75*
G02X104902000Y-113598000I-1838478J-1838478D01*
G01*
X106702000Y-109148000D02*
X103102000Y-109148000D01*
X68751267Y-118362000D02*
X68408733Y-118362000D01*
X68751267Y-119382000D02*
X68408733Y-119382000D01*
X110054000Y-81810000D02*
X110054000Y-78210000D01*
X110042478Y-81848478D02*
G75*
G02X105604000Y-80010000I-1838478J1838478D01*
G01*
X110042478Y-78171522D02*
G75*
G03X105604000Y-80010000I-1838478J-1838478D01*
G01*
X108398000Y-104454000D02*
X111058000Y-104454000D01*
X108398000Y-101854000D02*
X108398000Y-104454000D01*
X111058000Y-101854000D02*
X111058000Y-104454000D01*
X108398000Y-101854000D02*
X111058000Y-101854000D01*
X108398000Y-100584000D02*
X108398000Y-99254000D01*
X108398000Y-99254000D02*
X109728000Y-99254000D01*
D11*
X102340142Y-107131142D02*
X102292523Y-107178761D01*
X102149666Y-107226380D01*
X102054428Y-107226380D01*
X101911571Y-107178761D01*
X101816333Y-107083523D01*
X101768714Y-106988285D01*
X101721095Y-106797809D01*
X101721095Y-106654952D01*
X101768714Y-106464476D01*
X101816333Y-106369238D01*
X101911571Y-106274000D01*
X102054428Y-106226380D01*
X102149666Y-106226380D01*
X102292523Y-106274000D01*
X102340142Y-106321619D01*
X103292523Y-107226380D02*
X102721095Y-107226380D01*
X103006809Y-107226380D02*
X103006809Y-106226380D01*
X102911571Y-106369238D01*
X102816333Y-106464476D01*
X102721095Y-106512095D01*
X104149666Y-106559714D02*
X104149666Y-107226380D01*
X103911571Y-106178761D02*
X103673476Y-106893047D01*
X104292523Y-106893047D01*
X71239142Y-120659142D02*
X71191523Y-120706761D01*
X71048666Y-120754380D01*
X70953428Y-120754380D01*
X70810571Y-120706761D01*
X70715333Y-120611523D01*
X70667714Y-120516285D01*
X70620095Y-120325809D01*
X70620095Y-120182952D01*
X70667714Y-119992476D01*
X70715333Y-119897238D01*
X70810571Y-119802000D01*
X70953428Y-119754380D01*
X71048666Y-119754380D01*
X71191523Y-119802000D01*
X71239142Y-119849619D01*
X72191523Y-120754380D02*
X71620095Y-120754380D01*
X71905809Y-120754380D02*
X71905809Y-119754380D01*
X71810571Y-119897238D01*
X71715333Y-119992476D01*
X71620095Y-120040095D01*
X72572476Y-119849619D02*
X72620095Y-119802000D01*
X72715333Y-119754380D01*
X72953428Y-119754380D01*
X73048666Y-119802000D01*
X73096285Y-119849619D01*
X73143904Y-119944857D01*
X73143904Y-120040095D01*
X73096285Y-120182952D01*
X72524857Y-120754380D01*
X73143904Y-120754380D01*
X66046142Y-87065142D02*
X65998523Y-87112761D01*
X65855666Y-87160380D01*
X65760428Y-87160380D01*
X65617571Y-87112761D01*
X65522333Y-87017523D01*
X65474714Y-86922285D01*
X65427095Y-86731809D01*
X65427095Y-86588952D01*
X65474714Y-86398476D01*
X65522333Y-86303238D01*
X65617571Y-86208000D01*
X65760428Y-86160380D01*
X65855666Y-86160380D01*
X65998523Y-86208000D01*
X66046142Y-86255619D01*
X66998523Y-87160380D02*
X66427095Y-87160380D01*
X66712809Y-87160380D02*
X66712809Y-86160380D01*
X66617571Y-86303238D01*
X66522333Y-86398476D01*
X66427095Y-86446095D01*
X67617571Y-86160380D02*
X67712809Y-86160380D01*
X67808047Y-86208000D01*
X67855666Y-86255619D01*
X67903285Y-86350857D01*
X67950904Y-86541333D01*
X67950904Y-86779428D01*
X67903285Y-86969904D01*
X67855666Y-87065142D01*
X67808047Y-87112761D01*
X67712809Y-87160380D01*
X67617571Y-87160380D01*
X67522333Y-87112761D01*
X67474714Y-87065142D01*
X67427095Y-86969904D01*
X67379476Y-86779428D01*
X67379476Y-86541333D01*
X67427095Y-86350857D01*
X67474714Y-86255619D01*
X67522333Y-86208000D01*
X67617571Y-86160380D01*
X63924380Y-86407523D02*
X64638666Y-86407523D01*
X64781523Y-86455142D01*
X64876761Y-86550380D01*
X64924380Y-86693238D01*
X64924380Y-86788476D01*
X64924380Y-85407523D02*
X64924380Y-85978952D01*
X64924380Y-85693238D02*
X63924380Y-85693238D01*
X64067238Y-85788476D01*
X64162476Y-85883714D01*
X64210095Y-85978952D01*
X63924380Y-84788476D02*
X63924380Y-84693238D01*
X63972000Y-84598000D01*
X64019619Y-84550380D01*
X64114857Y-84502761D01*
X64305333Y-84455142D01*
X64543428Y-84455142D01*
X64733904Y-84502761D01*
X64829142Y-84550380D01*
X64876761Y-84598000D01*
X64924380Y-84693238D01*
X64924380Y-84788476D01*
X64876761Y-84883714D01*
X64829142Y-84931333D01*
X64733904Y-84978952D01*
X64543428Y-85026571D01*
X64305333Y-85026571D01*
X64114857Y-84978952D01*
X64019619Y-84931333D01*
X63972000Y-84883714D01*
X63924380Y-84788476D01*
X83939142Y-119643142D02*
X83891523Y-119690761D01*
X83748666Y-119738380D01*
X83653428Y-119738380D01*
X83510571Y-119690761D01*
X83415333Y-119595523D01*
X83367714Y-119500285D01*
X83320095Y-119309809D01*
X83320095Y-119166952D01*
X83367714Y-118976476D01*
X83415333Y-118881238D01*
X83510571Y-118786000D01*
X83653428Y-118738380D01*
X83748666Y-118738380D01*
X83891523Y-118786000D01*
X83939142Y-118833619D01*
X84891523Y-119738380D02*
X84320095Y-119738380D01*
X84605809Y-119738380D02*
X84605809Y-118738380D01*
X84510571Y-118881238D01*
X84415333Y-118976476D01*
X84320095Y-119024095D01*
X85796285Y-118738380D02*
X85320095Y-118738380D01*
X85272476Y-119214571D01*
X85320095Y-119166952D01*
X85415333Y-119119333D01*
X85653428Y-119119333D01*
X85748666Y-119166952D01*
X85796285Y-119214571D01*
X85843904Y-119309809D01*
X85843904Y-119547904D01*
X85796285Y-119643142D01*
X85748666Y-119690761D01*
X85653428Y-119738380D01*
X85415333Y-119738380D01*
X85320095Y-119690761D01*
X85272476Y-119643142D01*
X100339142Y-79241857D02*
X100386761Y-79289476D01*
X100434380Y-79432333D01*
X100434380Y-79527571D01*
X100386761Y-79670428D01*
X100291523Y-79765666D01*
X100196285Y-79813285D01*
X100005809Y-79860904D01*
X99862952Y-79860904D01*
X99672476Y-79813285D01*
X99577238Y-79765666D01*
X99482000Y-79670428D01*
X99434380Y-79527571D01*
X99434380Y-79432333D01*
X99482000Y-79289476D01*
X99529619Y-79241857D01*
X100434380Y-78289476D02*
X100434380Y-78860904D01*
X100434380Y-78575190D02*
X99434380Y-78575190D01*
X99577238Y-78670428D01*
X99672476Y-78765666D01*
X99720095Y-78860904D01*
X99434380Y-77956142D02*
X99434380Y-77337095D01*
X99815333Y-77670428D01*
X99815333Y-77527571D01*
X99862952Y-77432333D01*
X99910571Y-77384714D01*
X100005809Y-77337095D01*
X100243904Y-77337095D01*
X100339142Y-77384714D01*
X100386761Y-77432333D01*
X100434380Y-77527571D01*
X100434380Y-77813285D01*
X100386761Y-77908523D01*
X100339142Y-77956142D01*
X105529142Y-105165142D02*
X105481523Y-105212761D01*
X105338666Y-105260380D01*
X105243428Y-105260380D01*
X105100571Y-105212761D01*
X105005333Y-105117523D01*
X104957714Y-105022285D01*
X104910095Y-104831809D01*
X104910095Y-104688952D01*
X104957714Y-104498476D01*
X105005333Y-104403238D01*
X105100571Y-104308000D01*
X105243428Y-104260380D01*
X105338666Y-104260380D01*
X105481523Y-104308000D01*
X105529142Y-104355619D01*
X106481523Y-105260380D02*
X105910095Y-105260380D01*
X106195809Y-105260380D02*
X106195809Y-104260380D01*
X106100571Y-104403238D01*
X106005333Y-104498476D01*
X105910095Y-104546095D01*
X107433904Y-105260380D02*
X106862476Y-105260380D01*
X107148190Y-105260380D02*
X107148190Y-104260380D01*
X107052952Y-104403238D01*
X106957714Y-104498476D01*
X106862476Y-104546095D01*
X84074095Y-78348380D02*
X84074095Y-79157904D01*
X84121714Y-79253142D01*
X84169333Y-79300761D01*
X84264571Y-79348380D01*
X84455047Y-79348380D01*
X84550285Y-79300761D01*
X84597904Y-79253142D01*
X84645523Y-79157904D01*
X84645523Y-78348380D01*
X85597904Y-78348380D02*
X85121714Y-78348380D01*
X85074095Y-78824571D01*
X85121714Y-78776952D01*
X85216952Y-78729333D01*
X85455047Y-78729333D01*
X85550285Y-78776952D01*
X85597904Y-78824571D01*
X85645523Y-78919809D01*
X85645523Y-79157904D01*
X85597904Y-79253142D01*
X85550285Y-79300761D01*
X85455047Y-79348380D01*
X85216952Y-79348380D01*
X85121714Y-79300761D01*
X85074095Y-79253142D01*
X72509142Y-110594380D02*
X72175809Y-110118190D01*
X71937714Y-110594380D02*
X71937714Y-109594380D01*
X72318666Y-109594380D01*
X72413904Y-109642000D01*
X72461523Y-109689619D01*
X72509142Y-109784857D01*
X72509142Y-109927714D01*
X72461523Y-110022952D01*
X72413904Y-110070571D01*
X72318666Y-110118190D01*
X71937714Y-110118190D01*
X72842476Y-109594380D02*
X73461523Y-109594380D01*
X73128190Y-109975333D01*
X73271047Y-109975333D01*
X73366285Y-110022952D01*
X73413904Y-110070571D01*
X73461523Y-110165809D01*
X73461523Y-110403904D01*
X73413904Y-110499142D01*
X73366285Y-110546761D01*
X73271047Y-110594380D01*
X72985333Y-110594380D01*
X72890095Y-110546761D01*
X72842476Y-110499142D01*
X74032952Y-110022952D02*
X73937714Y-109975333D01*
X73890095Y-109927714D01*
X73842476Y-109832476D01*
X73842476Y-109784857D01*
X73890095Y-109689619D01*
X73937714Y-109642000D01*
X74032952Y-109594380D01*
X74223428Y-109594380D01*
X74318666Y-109642000D01*
X74366285Y-109689619D01*
X74413904Y-109784857D01*
X74413904Y-109832476D01*
X74366285Y-109927714D01*
X74318666Y-109975333D01*
X74223428Y-110022952D01*
X74032952Y-110022952D01*
X73937714Y-110070571D01*
X73890095Y-110118190D01*
X73842476Y-110213428D01*
X73842476Y-110403904D01*
X73890095Y-110499142D01*
X73937714Y-110546761D01*
X74032952Y-110594380D01*
X74223428Y-110594380D01*
X74318666Y-110546761D01*
X74366285Y-110499142D01*
X74413904Y-110403904D01*
X74413904Y-110213428D01*
X74366285Y-110118190D01*
X74318666Y-110070571D01*
X74223428Y-110022952D01*
X102340142Y-113322380D02*
X102006809Y-112846190D01*
X101768714Y-113322380D02*
X101768714Y-112322380D01*
X102149666Y-112322380D01*
X102244904Y-112370000D01*
X102292523Y-112417619D01*
X102340142Y-112512857D01*
X102340142Y-112655714D01*
X102292523Y-112750952D01*
X102244904Y-112798571D01*
X102149666Y-112846190D01*
X101768714Y-112846190D01*
X103197285Y-112655714D02*
X103197285Y-113322380D01*
X102959190Y-112274761D02*
X102721095Y-112989047D01*
X103340142Y-112989047D01*
X103673476Y-112417619D02*
X103721095Y-112370000D01*
X103816333Y-112322380D01*
X104054428Y-112322380D01*
X104149666Y-112370000D01*
X104197285Y-112417619D01*
X104244904Y-112512857D01*
X104244904Y-112608095D01*
X104197285Y-112750952D01*
X103625857Y-113322380D01*
X104244904Y-113322380D01*
X106530380Y-79128857D02*
X106054190Y-79462190D01*
X106530380Y-79700285D02*
X105530380Y-79700285D01*
X105530380Y-79319333D01*
X105578000Y-79224095D01*
X105625619Y-79176476D01*
X105720857Y-79128857D01*
X105863714Y-79128857D01*
X105958952Y-79176476D01*
X106006571Y-79224095D01*
X106054190Y-79319333D01*
X106054190Y-79700285D01*
X105863714Y-78271714D02*
X106530380Y-78271714D01*
X105482761Y-78509809D02*
X106197047Y-78747904D01*
X106197047Y-78128857D01*
X105530380Y-77557428D02*
X105530380Y-77462190D01*
X105578000Y-77366952D01*
X105625619Y-77319333D01*
X105720857Y-77271714D01*
X105911333Y-77224095D01*
X106149428Y-77224095D01*
X106339904Y-77271714D01*
X106435142Y-77319333D01*
X106482761Y-77366952D01*
X106530380Y-77462190D01*
X106530380Y-77557428D01*
X106482761Y-77652666D01*
X106435142Y-77700285D01*
X106339904Y-77747904D01*
X106149428Y-77795523D01*
X105911333Y-77795523D01*
X105720857Y-77747904D01*
X105625619Y-77700285D01*
X105578000Y-77652666D01*
X105530380Y-77557428D01*
X66740095Y-100180380D02*
X66740095Y-100989904D01*
X66787714Y-101085142D01*
X66835333Y-101132761D01*
X66930571Y-101180380D01*
X67121047Y-101180380D01*
X67216285Y-101132761D01*
X67263904Y-101085142D01*
X67311523Y-100989904D01*
X67311523Y-100180380D01*
X67692476Y-100180380D02*
X68359142Y-100180380D01*
X67930571Y-101180380D01*
X93153095Y-100319380D02*
X93153095Y-101128904D01*
X93200714Y-101224142D01*
X93248333Y-101271761D01*
X93343571Y-101319380D01*
X93534047Y-101319380D01*
X93629285Y-101271761D01*
X93676904Y-101224142D01*
X93724523Y-101128904D01*
X93724523Y-100319380D01*
X94629285Y-100319380D02*
X94438809Y-100319380D01*
X94343571Y-100367000D01*
X94295952Y-100414619D01*
X94200714Y-100557476D01*
X94153095Y-100747952D01*
X94153095Y-101128904D01*
X94200714Y-101224142D01*
X94248333Y-101271761D01*
X94343571Y-101319380D01*
X94534047Y-101319380D01*
X94629285Y-101271761D01*
X94676904Y-101224142D01*
X94724523Y-101128904D01*
X94724523Y-100890809D01*
X94676904Y-100795571D01*
X94629285Y-100747952D01*
X94534047Y-100700333D01*
X94343571Y-100700333D01*
X94248333Y-100747952D01*
X94200714Y-100795571D01*
X94153095Y-100890809D01*
X83580476Y-108394380D02*
X83580476Y-109108666D01*
X83532857Y-109251523D01*
X83437619Y-109346761D01*
X83294761Y-109394380D01*
X83199523Y-109394380D01*
X84580476Y-109394380D02*
X84009047Y-109394380D01*
X84294761Y-109394380D02*
X84294761Y-108394380D01*
X84199523Y-108537238D01*
X84104285Y-108632476D01*
X84009047Y-108680095D01*
X84913809Y-108394380D02*
X85580476Y-108394380D01*
X85151904Y-109394380D01*
X81130380Y-111386857D02*
X80654190Y-111720190D01*
X81130380Y-111958285D02*
X80130380Y-111958285D01*
X80130380Y-111577333D01*
X80178000Y-111482095D01*
X80225619Y-111434476D01*
X80320857Y-111386857D01*
X80463714Y-111386857D01*
X80558952Y-111434476D01*
X80606571Y-111482095D01*
X80654190Y-111577333D01*
X80654190Y-111958285D01*
X80463714Y-110529714D02*
X81130380Y-110529714D01*
X80082761Y-110767809D02*
X80797047Y-111005904D01*
X80797047Y-110386857D01*
X80130380Y-110101142D02*
X80130380Y-109482095D01*
X80511333Y-109815428D01*
X80511333Y-109672571D01*
X80558952Y-109577333D01*
X80606571Y-109529714D01*
X80701809Y-109482095D01*
X80939904Y-109482095D01*
X81035142Y-109529714D01*
X81082761Y-109577333D01*
X81130380Y-109672571D01*
X81130380Y-109958285D01*
X81082761Y-110053523D01*
X81035142Y-110101142D01*
X69094142Y-110594380D02*
X68760809Y-110118190D01*
X68522714Y-110594380D02*
X68522714Y-109594380D01*
X68903666Y-109594380D01*
X68998904Y-109642000D01*
X69046523Y-109689619D01*
X69094142Y-109784857D01*
X69094142Y-109927714D01*
X69046523Y-110022952D01*
X68998904Y-110070571D01*
X68903666Y-110118190D01*
X68522714Y-110118190D01*
X69427476Y-109594380D02*
X70046523Y-109594380D01*
X69713190Y-109975333D01*
X69856047Y-109975333D01*
X69951285Y-110022952D01*
X69998904Y-110070571D01*
X70046523Y-110165809D01*
X70046523Y-110403904D01*
X69998904Y-110499142D01*
X69951285Y-110546761D01*
X69856047Y-110594380D01*
X69570333Y-110594380D01*
X69475095Y-110546761D01*
X69427476Y-110499142D01*
X70379857Y-109594380D02*
X71046523Y-109594380D01*
X70617952Y-110594380D01*
X106530380Y-82430857D02*
X106054190Y-82764190D01*
X106530380Y-83002285D02*
X105530380Y-83002285D01*
X105530380Y-82621333D01*
X105578000Y-82526095D01*
X105625619Y-82478476D01*
X105720857Y-82430857D01*
X105863714Y-82430857D01*
X105958952Y-82478476D01*
X106006571Y-82526095D01*
X106054190Y-82621333D01*
X106054190Y-83002285D01*
X105530380Y-82097523D02*
X105530380Y-81478476D01*
X105911333Y-81811809D01*
X105911333Y-81668952D01*
X105958952Y-81573714D01*
X106006571Y-81526095D01*
X106101809Y-81478476D01*
X106339904Y-81478476D01*
X106435142Y-81526095D01*
X106482761Y-81573714D01*
X106530380Y-81668952D01*
X106530380Y-81954666D01*
X106482761Y-82049904D01*
X106435142Y-82097523D01*
X106530380Y-81002285D02*
X106530380Y-80811809D01*
X106482761Y-80716571D01*
X106435142Y-80668952D01*
X106292285Y-80573714D01*
X106101809Y-80526095D01*
X105720857Y-80526095D01*
X105625619Y-80573714D01*
X105578000Y-80621333D01*
X105530380Y-80716571D01*
X105530380Y-80907047D01*
X105578000Y-81002285D01*
X105625619Y-81049904D01*
X105720857Y-81097523D01*
X105958952Y-81097523D01*
X106054190Y-81049904D01*
X106101809Y-81002285D01*
X106149428Y-80907047D01*
X106149428Y-80716571D01*
X106101809Y-80621333D01*
X106054190Y-80573714D01*
X105958952Y-80526095D01*
X105896142Y-113322380D02*
X105562809Y-112846190D01*
X105324714Y-113322380D02*
X105324714Y-112322380D01*
X105705666Y-112322380D01*
X105800904Y-112370000D01*
X105848523Y-112417619D01*
X105896142Y-112512857D01*
X105896142Y-112655714D01*
X105848523Y-112750952D01*
X105800904Y-112798571D01*
X105705666Y-112846190D01*
X105324714Y-112846190D01*
X106753285Y-112655714D02*
X106753285Y-113322380D01*
X106515190Y-112274761D02*
X106277095Y-112989047D01*
X106896142Y-112989047D01*
X107800904Y-113322380D02*
X107229476Y-113322380D01*
X107515190Y-113322380D02*
X107515190Y-112322380D01*
X107419952Y-112465238D01*
X107324714Y-112560476D01*
X107229476Y-112608095D01*
X76492380Y-111386857D02*
X76016190Y-111720190D01*
X76492380Y-111958285D02*
X75492380Y-111958285D01*
X75492380Y-111577333D01*
X75540000Y-111482095D01*
X75587619Y-111434476D01*
X75682857Y-111386857D01*
X75825714Y-111386857D01*
X75920952Y-111434476D01*
X75968571Y-111482095D01*
X76016190Y-111577333D01*
X76016190Y-111958285D01*
X75825714Y-110529714D02*
X76492380Y-110529714D01*
X75444761Y-110767809D02*
X76159047Y-111005904D01*
X76159047Y-110386857D01*
X75825714Y-109577333D02*
X76492380Y-109577333D01*
X75444761Y-109815428D02*
X76159047Y-110053523D01*
X76159047Y-109434476D01*
X86620142Y-101892380D02*
X86286809Y-101416190D01*
X86048714Y-101892380D02*
X86048714Y-100892380D01*
X86429666Y-100892380D01*
X86524904Y-100940000D01*
X86572523Y-100987619D01*
X86620142Y-101082857D01*
X86620142Y-101225714D01*
X86572523Y-101320952D01*
X86524904Y-101368571D01*
X86429666Y-101416190D01*
X86048714Y-101416190D01*
X87572523Y-101892380D02*
X87001095Y-101892380D01*
X87286809Y-101892380D02*
X87286809Y-100892380D01*
X87191571Y-101035238D01*
X87096333Y-101130476D01*
X87001095Y-101178095D01*
X88048714Y-101892380D02*
X88239190Y-101892380D01*
X88334428Y-101844761D01*
X88382047Y-101797142D01*
X88477285Y-101654285D01*
X88524904Y-101463809D01*
X88524904Y-101082857D01*
X88477285Y-100987619D01*
X88429666Y-100940000D01*
X88334428Y-100892380D01*
X88143952Y-100892380D01*
X88048714Y-100940000D01*
X88001095Y-100987619D01*
X87953476Y-101082857D01*
X87953476Y-101320952D01*
X88001095Y-101416190D01*
X88048714Y-101463809D01*
X88143952Y-101511428D01*
X88334428Y-101511428D01*
X88429666Y-101463809D01*
X88477285Y-101416190D01*
X88524904Y-101320952D01*
X65824380Y-109975857D02*
X65348190Y-110309190D01*
X65824380Y-110547285D02*
X64824380Y-110547285D01*
X64824380Y-110166333D01*
X64872000Y-110071095D01*
X64919619Y-110023476D01*
X65014857Y-109975857D01*
X65157714Y-109975857D01*
X65252952Y-110023476D01*
X65300571Y-110071095D01*
X65348190Y-110166333D01*
X65348190Y-110547285D01*
X64919619Y-109594904D02*
X64872000Y-109547285D01*
X64824380Y-109452047D01*
X64824380Y-109213952D01*
X64872000Y-109118714D01*
X64919619Y-109071095D01*
X65014857Y-109023476D01*
X65110095Y-109023476D01*
X65252952Y-109071095D01*
X65824380Y-109642523D01*
X65824380Y-109023476D01*
X64824380Y-108166333D02*
X64824380Y-108356809D01*
X64872000Y-108452047D01*
X64919619Y-108499666D01*
X65062476Y-108594904D01*
X65252952Y-108642523D01*
X65633904Y-108642523D01*
X65729142Y-108594904D01*
X65776761Y-108547285D01*
X65824380Y-108452047D01*
X65824380Y-108261571D01*
X65776761Y-108166333D01*
X65729142Y-108118714D01*
X65633904Y-108071095D01*
X65395809Y-108071095D01*
X65300571Y-108118714D01*
X65252952Y-108166333D01*
X65205333Y-108261571D01*
X65205333Y-108452047D01*
X65252952Y-108547285D01*
X65300571Y-108594904D01*
X65395809Y-108642523D01*
X76827142Y-81572380D02*
X76493809Y-81096190D01*
X76255714Y-81572380D02*
X76255714Y-80572380D01*
X76636666Y-80572380D01*
X76731904Y-80620000D01*
X76779523Y-80667619D01*
X76827142Y-80762857D01*
X76827142Y-80905714D01*
X76779523Y-81000952D01*
X76731904Y-81048571D01*
X76636666Y-81096190D01*
X76255714Y-81096190D01*
X77779523Y-81572380D02*
X77208095Y-81572380D01*
X77493809Y-81572380D02*
X77493809Y-80572380D01*
X77398571Y-80715238D01*
X77303333Y-80810476D01*
X77208095Y-80858095D01*
X78636666Y-80572380D02*
X78446190Y-80572380D01*
X78350952Y-80620000D01*
X78303333Y-80667619D01*
X78208095Y-80810476D01*
X78160476Y-81000952D01*
X78160476Y-81381904D01*
X78208095Y-81477142D01*
X78255714Y-81524761D01*
X78350952Y-81572380D01*
X78541428Y-81572380D01*
X78636666Y-81524761D01*
X78684285Y-81477142D01*
X78731904Y-81381904D01*
X78731904Y-81143809D01*
X78684285Y-81048571D01*
X78636666Y-81000952D01*
X78541428Y-80953333D01*
X78350952Y-80953333D01*
X78255714Y-81000952D01*
X78208095Y-81048571D01*
X78160476Y-81143809D01*
X100434380Y-82684857D02*
X99958190Y-83018190D01*
X100434380Y-83256285D02*
X99434380Y-83256285D01*
X99434380Y-82875333D01*
X99482000Y-82780095D01*
X99529619Y-82732476D01*
X99624857Y-82684857D01*
X99767714Y-82684857D01*
X99862952Y-82732476D01*
X99910571Y-82780095D01*
X99958190Y-82875333D01*
X99958190Y-83256285D01*
X99529619Y-82303904D02*
X99482000Y-82256285D01*
X99434380Y-82161047D01*
X99434380Y-81922952D01*
X99482000Y-81827714D01*
X99529619Y-81780095D01*
X99624857Y-81732476D01*
X99720095Y-81732476D01*
X99862952Y-81780095D01*
X100434380Y-82351523D01*
X100434380Y-81732476D01*
X99529619Y-81351523D02*
X99482000Y-81303904D01*
X99434380Y-81208666D01*
X99434380Y-80970571D01*
X99482000Y-80875333D01*
X99529619Y-80827714D01*
X99624857Y-80780095D01*
X99720095Y-80780095D01*
X99862952Y-80827714D01*
X100434380Y-81399142D01*
X100434380Y-80780095D01*
X102848142Y-98910380D02*
X102514809Y-98434190D01*
X102276714Y-98910380D02*
X102276714Y-97910380D01*
X102657666Y-97910380D01*
X102752904Y-97958000D01*
X102800523Y-98005619D01*
X102848142Y-98100857D01*
X102848142Y-98243714D01*
X102800523Y-98338952D01*
X102752904Y-98386571D01*
X102657666Y-98434190D01*
X102276714Y-98434190D01*
X103181476Y-97910380D02*
X103800523Y-97910380D01*
X103467190Y-98291333D01*
X103610047Y-98291333D01*
X103705285Y-98338952D01*
X103752904Y-98386571D01*
X103800523Y-98481809D01*
X103800523Y-98719904D01*
X103752904Y-98815142D01*
X103705285Y-98862761D01*
X103610047Y-98910380D01*
X103324333Y-98910380D01*
X103229095Y-98862761D01*
X103181476Y-98815142D01*
X104705285Y-97910380D02*
X104229095Y-97910380D01*
X104181476Y-98386571D01*
X104229095Y-98338952D01*
X104324333Y-98291333D01*
X104562428Y-98291333D01*
X104657666Y-98338952D01*
X104705285Y-98386571D01*
X104752904Y-98481809D01*
X104752904Y-98719904D01*
X104705285Y-98815142D01*
X104657666Y-98862761D01*
X104562428Y-98910380D01*
X104324333Y-98910380D01*
X104229095Y-98862761D01*
X104181476Y-98815142D01*
X69634380Y-82938857D02*
X69158190Y-83272190D01*
X69634380Y-83510285D02*
X68634380Y-83510285D01*
X68634380Y-83129333D01*
X68682000Y-83034095D01*
X68729619Y-82986476D01*
X68824857Y-82938857D01*
X68967714Y-82938857D01*
X69062952Y-82986476D01*
X69110571Y-83034095D01*
X69158190Y-83129333D01*
X69158190Y-83510285D01*
X68634380Y-82605523D02*
X68634380Y-81986476D01*
X69015333Y-82319809D01*
X69015333Y-82176952D01*
X69062952Y-82081714D01*
X69110571Y-82034095D01*
X69205809Y-81986476D01*
X69443904Y-81986476D01*
X69539142Y-82034095D01*
X69586761Y-82081714D01*
X69634380Y-82176952D01*
X69634380Y-82462666D01*
X69586761Y-82557904D01*
X69539142Y-82605523D01*
X68967714Y-81129333D02*
X69634380Y-81129333D01*
X68586761Y-81367428D02*
X69301047Y-81605523D01*
X69301047Y-80986476D01*
X69634380Y-79523857D02*
X69158190Y-79857190D01*
X69634380Y-80095285D02*
X68634380Y-80095285D01*
X68634380Y-79714333D01*
X68682000Y-79619095D01*
X68729619Y-79571476D01*
X68824857Y-79523857D01*
X68967714Y-79523857D01*
X69062952Y-79571476D01*
X69110571Y-79619095D01*
X69158190Y-79714333D01*
X69158190Y-80095285D01*
X68634380Y-79190523D02*
X68634380Y-78571476D01*
X69015333Y-78904809D01*
X69015333Y-78761952D01*
X69062952Y-78666714D01*
X69110571Y-78619095D01*
X69205809Y-78571476D01*
X69443904Y-78571476D01*
X69539142Y-78619095D01*
X69586761Y-78666714D01*
X69634380Y-78761952D01*
X69634380Y-79047666D01*
X69586761Y-79142904D01*
X69539142Y-79190523D01*
X68634380Y-78238142D02*
X68634380Y-77619095D01*
X69015333Y-77952428D01*
X69015333Y-77809571D01*
X69062952Y-77714333D01*
X69110571Y-77666714D01*
X69205809Y-77619095D01*
X69443904Y-77619095D01*
X69539142Y-77666714D01*
X69586761Y-77714333D01*
X69634380Y-77809571D01*
X69634380Y-78095285D01*
X69586761Y-78190523D01*
X69539142Y-78238142D01*
X105642142Y-107226380D02*
X105308809Y-106750190D01*
X105070714Y-107226380D02*
X105070714Y-106226380D01*
X105451666Y-106226380D01*
X105546904Y-106274000D01*
X105594523Y-106321619D01*
X105642142Y-106416857D01*
X105642142Y-106559714D01*
X105594523Y-106654952D01*
X105546904Y-106702571D01*
X105451666Y-106750190D01*
X105070714Y-106750190D01*
X106023095Y-106321619D02*
X106070714Y-106274000D01*
X106165952Y-106226380D01*
X106404047Y-106226380D01*
X106499285Y-106274000D01*
X106546904Y-106321619D01*
X106594523Y-106416857D01*
X106594523Y-106512095D01*
X106546904Y-106654952D01*
X105975476Y-107226380D01*
X106594523Y-107226380D01*
X107451666Y-106559714D02*
X107451666Y-107226380D01*
X107213571Y-106178761D02*
X106975476Y-106893047D01*
X107594523Y-106893047D01*
X88750380Y-87369857D02*
X88274190Y-87703190D01*
X88750380Y-87941285D02*
X87750380Y-87941285D01*
X87750380Y-87560333D01*
X87798000Y-87465095D01*
X87845619Y-87417476D01*
X87940857Y-87369857D01*
X88083714Y-87369857D01*
X88178952Y-87417476D01*
X88226571Y-87465095D01*
X88274190Y-87560333D01*
X88274190Y-87941285D01*
X87845619Y-86988904D02*
X87798000Y-86941285D01*
X87750380Y-86846047D01*
X87750380Y-86607952D01*
X87798000Y-86512714D01*
X87845619Y-86465095D01*
X87940857Y-86417476D01*
X88036095Y-86417476D01*
X88178952Y-86465095D01*
X88750380Y-87036523D01*
X88750380Y-86417476D01*
X88750380Y-85465095D02*
X88750380Y-86036523D01*
X88750380Y-85750809D02*
X87750380Y-85750809D01*
X87893238Y-85846047D01*
X87988476Y-85941285D01*
X88036095Y-86036523D01*
X63792380Y-109975857D02*
X63316190Y-110309190D01*
X63792380Y-110547285D02*
X62792380Y-110547285D01*
X62792380Y-110166333D01*
X62840000Y-110071095D01*
X62887619Y-110023476D01*
X62982857Y-109975857D01*
X63125714Y-109975857D01*
X63220952Y-110023476D01*
X63268571Y-110071095D01*
X63316190Y-110166333D01*
X63316190Y-110547285D01*
X62792380Y-109642523D02*
X62792380Y-109023476D01*
X63173333Y-109356809D01*
X63173333Y-109213952D01*
X63220952Y-109118714D01*
X63268571Y-109071095D01*
X63363809Y-109023476D01*
X63601904Y-109023476D01*
X63697142Y-109071095D01*
X63744761Y-109118714D01*
X63792380Y-109213952D01*
X63792380Y-109499666D01*
X63744761Y-109594904D01*
X63697142Y-109642523D01*
X63792380Y-108071095D02*
X63792380Y-108642523D01*
X63792380Y-108356809D02*
X62792380Y-108356809D01*
X62935238Y-108452047D01*
X63030476Y-108547285D01*
X63078095Y-108642523D01*
X98656380Y-109467857D02*
X98180190Y-109801190D01*
X98656380Y-110039285D02*
X97656380Y-110039285D01*
X97656380Y-109658333D01*
X97704000Y-109563095D01*
X97751619Y-109515476D01*
X97846857Y-109467857D01*
X97989714Y-109467857D01*
X98084952Y-109515476D01*
X98132571Y-109563095D01*
X98180190Y-109658333D01*
X98180190Y-110039285D01*
X97751619Y-109086904D02*
X97704000Y-109039285D01*
X97656380Y-108944047D01*
X97656380Y-108705952D01*
X97704000Y-108610714D01*
X97751619Y-108563095D01*
X97846857Y-108515476D01*
X97942095Y-108515476D01*
X98084952Y-108563095D01*
X98656380Y-109134523D01*
X98656380Y-108515476D01*
X97656380Y-108182142D02*
X97656380Y-107563095D01*
X98037333Y-107896428D01*
X98037333Y-107753571D01*
X98084952Y-107658333D01*
X98132571Y-107610714D01*
X98227809Y-107563095D01*
X98465904Y-107563095D01*
X98561142Y-107610714D01*
X98608761Y-107658333D01*
X98656380Y-107753571D01*
X98656380Y-108039285D01*
X98608761Y-108134523D01*
X98561142Y-108182142D01*
X60317142Y-102400380D02*
X59983809Y-101924190D01*
X59745714Y-102400380D02*
X59745714Y-101400380D01*
X60126666Y-101400380D01*
X60221904Y-101448000D01*
X60269523Y-101495619D01*
X60317142Y-101590857D01*
X60317142Y-101733714D01*
X60269523Y-101828952D01*
X60221904Y-101876571D01*
X60126666Y-101924190D01*
X59745714Y-101924190D01*
X60698095Y-101495619D02*
X60745714Y-101448000D01*
X60840952Y-101400380D01*
X61079047Y-101400380D01*
X61174285Y-101448000D01*
X61221904Y-101495619D01*
X61269523Y-101590857D01*
X61269523Y-101686095D01*
X61221904Y-101828952D01*
X60650476Y-102400380D01*
X61269523Y-102400380D01*
X61888571Y-101400380D02*
X61983809Y-101400380D01*
X62079047Y-101448000D01*
X62126666Y-101495619D01*
X62174285Y-101590857D01*
X62221904Y-101781333D01*
X62221904Y-102019428D01*
X62174285Y-102209904D01*
X62126666Y-102305142D01*
X62079047Y-102352761D01*
X61983809Y-102400380D01*
X61888571Y-102400380D01*
X61793333Y-102352761D01*
X61745714Y-102305142D01*
X61698095Y-102209904D01*
X61650476Y-102019428D01*
X61650476Y-101781333D01*
X61698095Y-101590857D01*
X61745714Y-101495619D01*
X61793333Y-101448000D01*
X61888571Y-101400380D01*
X90289142Y-80810380D02*
X89955809Y-80334190D01*
X89717714Y-80810380D02*
X89717714Y-79810380D01*
X90098666Y-79810380D01*
X90193904Y-79858000D01*
X90241523Y-79905619D01*
X90289142Y-80000857D01*
X90289142Y-80143714D01*
X90241523Y-80238952D01*
X90193904Y-80286571D01*
X90098666Y-80334190D01*
X89717714Y-80334190D01*
X90670095Y-79905619D02*
X90717714Y-79858000D01*
X90812952Y-79810380D01*
X91051047Y-79810380D01*
X91146285Y-79858000D01*
X91193904Y-79905619D01*
X91241523Y-80000857D01*
X91241523Y-80096095D01*
X91193904Y-80238952D01*
X90622476Y-80810380D01*
X91241523Y-80810380D01*
X91717714Y-80810380D02*
X91908190Y-80810380D01*
X92003428Y-80762761D01*
X92051047Y-80715142D01*
X92146285Y-80572285D01*
X92193904Y-80381809D01*
X92193904Y-80000857D01*
X92146285Y-79905619D01*
X92098666Y-79858000D01*
X92003428Y-79810380D01*
X91812952Y-79810380D01*
X91717714Y-79858000D01*
X91670095Y-79905619D01*
X91622476Y-80000857D01*
X91622476Y-80238952D01*
X91670095Y-80334190D01*
X91717714Y-80381809D01*
X91812952Y-80429428D01*
X92003428Y-80429428D01*
X92098666Y-80381809D01*
X92146285Y-80334190D01*
X92193904Y-80238952D01*
X57442380Y-106560857D02*
X56966190Y-106894190D01*
X57442380Y-107132285D02*
X56442380Y-107132285D01*
X56442380Y-106751333D01*
X56490000Y-106656095D01*
X56537619Y-106608476D01*
X56632857Y-106560857D01*
X56775714Y-106560857D01*
X56870952Y-106608476D01*
X56918571Y-106656095D01*
X56966190Y-106751333D01*
X56966190Y-107132285D01*
X57442380Y-105608476D02*
X57442380Y-106179904D01*
X57442380Y-105894190D02*
X56442380Y-105894190D01*
X56585238Y-105989428D01*
X56680476Y-106084666D01*
X56728095Y-106179904D01*
X56870952Y-105037047D02*
X56823333Y-105132285D01*
X56775714Y-105179904D01*
X56680476Y-105227523D01*
X56632857Y-105227523D01*
X56537619Y-105179904D01*
X56490000Y-105132285D01*
X56442380Y-105037047D01*
X56442380Y-104846571D01*
X56490000Y-104751333D01*
X56537619Y-104703714D01*
X56632857Y-104656095D01*
X56680476Y-104656095D01*
X56775714Y-104703714D01*
X56823333Y-104751333D01*
X56870952Y-104846571D01*
X56870952Y-105037047D01*
X56918571Y-105132285D01*
X56966190Y-105179904D01*
X57061428Y-105227523D01*
X57251904Y-105227523D01*
X57347142Y-105179904D01*
X57394761Y-105132285D01*
X57442380Y-105037047D01*
X57442380Y-104846571D01*
X57394761Y-104751333D01*
X57347142Y-104703714D01*
X57251904Y-104656095D01*
X57061428Y-104656095D01*
X56966190Y-104703714D01*
X56918571Y-104751333D01*
X56870952Y-104846571D01*
X94272380Y-109467857D02*
X93796190Y-109801190D01*
X94272380Y-110039285D02*
X93272380Y-110039285D01*
X93272380Y-109658333D01*
X93320000Y-109563095D01*
X93367619Y-109515476D01*
X93462857Y-109467857D01*
X93605714Y-109467857D01*
X93700952Y-109515476D01*
X93748571Y-109563095D01*
X93796190Y-109658333D01*
X93796190Y-110039285D01*
X93367619Y-109086904D02*
X93320000Y-109039285D01*
X93272380Y-108944047D01*
X93272380Y-108705952D01*
X93320000Y-108610714D01*
X93367619Y-108563095D01*
X93462857Y-108515476D01*
X93558095Y-108515476D01*
X93700952Y-108563095D01*
X94272380Y-109134523D01*
X94272380Y-108515476D01*
X93700952Y-107944047D02*
X93653333Y-108039285D01*
X93605714Y-108086904D01*
X93510476Y-108134523D01*
X93462857Y-108134523D01*
X93367619Y-108086904D01*
X93320000Y-108039285D01*
X93272380Y-107944047D01*
X93272380Y-107753571D01*
X93320000Y-107658333D01*
X93367619Y-107610714D01*
X93462857Y-107563095D01*
X93510476Y-107563095D01*
X93605714Y-107610714D01*
X93653333Y-107658333D01*
X93700952Y-107753571D01*
X93700952Y-107944047D01*
X93748571Y-108039285D01*
X93796190Y-108086904D01*
X93891428Y-108134523D01*
X94081904Y-108134523D01*
X94177142Y-108086904D01*
X94224761Y-108039285D01*
X94272380Y-107944047D01*
X94272380Y-107753571D01*
X94224761Y-107658333D01*
X94177142Y-107610714D01*
X94081904Y-107563095D01*
X93891428Y-107563095D01*
X93796190Y-107610714D01*
X93748571Y-107658333D01*
X93700952Y-107753571D01*
X80637142Y-119738380D02*
X80303809Y-119262190D01*
X80065714Y-119738380D02*
X80065714Y-118738380D01*
X80446666Y-118738380D01*
X80541904Y-118786000D01*
X80589523Y-118833619D01*
X80637142Y-118928857D01*
X80637142Y-119071714D01*
X80589523Y-119166952D01*
X80541904Y-119214571D01*
X80446666Y-119262190D01*
X80065714Y-119262190D01*
X81018095Y-118833619D02*
X81065714Y-118786000D01*
X81160952Y-118738380D01*
X81399047Y-118738380D01*
X81494285Y-118786000D01*
X81541904Y-118833619D01*
X81589523Y-118928857D01*
X81589523Y-119024095D01*
X81541904Y-119166952D01*
X80970476Y-119738380D01*
X81589523Y-119738380D01*
X81922857Y-118738380D02*
X82589523Y-118738380D01*
X82160952Y-119738380D01*
X87414380Y-87369857D02*
X86938190Y-87703190D01*
X87414380Y-87941285D02*
X86414380Y-87941285D01*
X86414380Y-87560333D01*
X86462000Y-87465095D01*
X86509619Y-87417476D01*
X86604857Y-87369857D01*
X86747714Y-87369857D01*
X86842952Y-87417476D01*
X86890571Y-87465095D01*
X86938190Y-87560333D01*
X86938190Y-87941285D01*
X86509619Y-86988904D02*
X86462000Y-86941285D01*
X86414380Y-86846047D01*
X86414380Y-86607952D01*
X86462000Y-86512714D01*
X86509619Y-86465095D01*
X86604857Y-86417476D01*
X86700095Y-86417476D01*
X86842952Y-86465095D01*
X87414380Y-87036523D01*
X87414380Y-86417476D01*
X86414380Y-85512714D02*
X86414380Y-85988904D01*
X86890571Y-86036523D01*
X86842952Y-85988904D01*
X86795333Y-85893666D01*
X86795333Y-85655571D01*
X86842952Y-85560333D01*
X86890571Y-85512714D01*
X86985809Y-85465095D01*
X87223904Y-85465095D01*
X87319142Y-85512714D01*
X87366761Y-85560333D01*
X87414380Y-85655571D01*
X87414380Y-85893666D01*
X87366761Y-85988904D01*
X87319142Y-86036523D01*
X85636380Y-106306857D02*
X85160190Y-106640190D01*
X85636380Y-106878285D02*
X84636380Y-106878285D01*
X84636380Y-106497333D01*
X84684000Y-106402095D01*
X84731619Y-106354476D01*
X84826857Y-106306857D01*
X84969714Y-106306857D01*
X85064952Y-106354476D01*
X85112571Y-106402095D01*
X85160190Y-106497333D01*
X85160190Y-106878285D01*
X85636380Y-105354476D02*
X85636380Y-105925904D01*
X85636380Y-105640190D02*
X84636380Y-105640190D01*
X84779238Y-105735428D01*
X84874476Y-105830666D01*
X84922095Y-105925904D01*
X84636380Y-105021142D02*
X84636380Y-104354476D01*
X85636380Y-104783047D01*
X99687142Y-103924380D02*
X99353809Y-103448190D01*
X99115714Y-103924380D02*
X99115714Y-102924380D01*
X99496666Y-102924380D01*
X99591904Y-102972000D01*
X99639523Y-103019619D01*
X99687142Y-103114857D01*
X99687142Y-103257714D01*
X99639523Y-103352952D01*
X99591904Y-103400571D01*
X99496666Y-103448190D01*
X99115714Y-103448190D01*
X100020476Y-102924380D02*
X100639523Y-102924380D01*
X100306190Y-103305333D01*
X100449047Y-103305333D01*
X100544285Y-103352952D01*
X100591904Y-103400571D01*
X100639523Y-103495809D01*
X100639523Y-103733904D01*
X100591904Y-103829142D01*
X100544285Y-103876761D01*
X100449047Y-103924380D01*
X100163333Y-103924380D01*
X100068095Y-103876761D01*
X100020476Y-103829142D01*
X101258571Y-102924380D02*
X101353809Y-102924380D01*
X101449047Y-102972000D01*
X101496666Y-103019619D01*
X101544285Y-103114857D01*
X101591904Y-103305333D01*
X101591904Y-103543428D01*
X101544285Y-103733904D01*
X101496666Y-103829142D01*
X101449047Y-103876761D01*
X101353809Y-103924380D01*
X101258571Y-103924380D01*
X101163333Y-103876761D01*
X101115714Y-103829142D01*
X101068095Y-103733904D01*
X101020476Y-103543428D01*
X101020476Y-103305333D01*
X101068095Y-103114857D01*
X101115714Y-103019619D01*
X101163333Y-102972000D01*
X101258571Y-102924380D01*
X106404142Y-98910380D02*
X106070809Y-98434190D01*
X105832714Y-98910380D02*
X105832714Y-97910380D01*
X106213666Y-97910380D01*
X106308904Y-97958000D01*
X106356523Y-98005619D01*
X106404142Y-98100857D01*
X106404142Y-98243714D01*
X106356523Y-98338952D01*
X106308904Y-98386571D01*
X106213666Y-98434190D01*
X105832714Y-98434190D01*
X106737476Y-97910380D02*
X107356523Y-97910380D01*
X107023190Y-98291333D01*
X107166047Y-98291333D01*
X107261285Y-98338952D01*
X107308904Y-98386571D01*
X107356523Y-98481809D01*
X107356523Y-98719904D01*
X107308904Y-98815142D01*
X107261285Y-98862761D01*
X107166047Y-98910380D01*
X106880333Y-98910380D01*
X106785095Y-98862761D01*
X106737476Y-98815142D01*
X108213666Y-97910380D02*
X108023190Y-97910380D01*
X107927952Y-97958000D01*
X107880333Y-98005619D01*
X107785095Y-98148476D01*
X107737476Y-98338952D01*
X107737476Y-98719904D01*
X107785095Y-98815142D01*
X107832714Y-98862761D01*
X107927952Y-98910380D01*
X108118428Y-98910380D01*
X108213666Y-98862761D01*
X108261285Y-98815142D01*
X108308904Y-98719904D01*
X108308904Y-98481809D01*
X108261285Y-98386571D01*
X108213666Y-98338952D01*
X108118428Y-98291333D01*
X107927952Y-98291333D01*
X107832714Y-98338952D01*
X107785095Y-98386571D01*
X107737476Y-98481809D01*
X76558380Y-106052857D02*
X76082190Y-106386190D01*
X76558380Y-106624285D02*
X75558380Y-106624285D01*
X75558380Y-106243333D01*
X75606000Y-106148095D01*
X75653619Y-106100476D01*
X75748857Y-106052857D01*
X75891714Y-106052857D01*
X75986952Y-106100476D01*
X76034571Y-106148095D01*
X76082190Y-106243333D01*
X76082190Y-106624285D01*
X75558380Y-105719523D02*
X75558380Y-105100476D01*
X75939333Y-105433809D01*
X75939333Y-105290952D01*
X75986952Y-105195714D01*
X76034571Y-105148095D01*
X76129809Y-105100476D01*
X76367904Y-105100476D01*
X76463142Y-105148095D01*
X76510761Y-105195714D01*
X76558380Y-105290952D01*
X76558380Y-105576666D01*
X76510761Y-105671904D01*
X76463142Y-105719523D01*
X75653619Y-104719523D02*
X75606000Y-104671904D01*
X75558380Y-104576666D01*
X75558380Y-104338571D01*
X75606000Y-104243333D01*
X75653619Y-104195714D01*
X75748857Y-104148095D01*
X75844095Y-104148095D01*
X75986952Y-104195714D01*
X76558380Y-104767142D01*
X76558380Y-104148095D01*
X71163619Y-81121238D02*
X71116000Y-81216476D01*
X71020761Y-81311714D01*
X70877904Y-81454571D01*
X70830285Y-81549809D01*
X70830285Y-81645047D01*
X71068380Y-81597428D02*
X71020761Y-81692666D01*
X70925523Y-81787904D01*
X70735047Y-81835523D01*
X70401714Y-81835523D01*
X70211238Y-81787904D01*
X70116000Y-81692666D01*
X70068380Y-81597428D01*
X70068380Y-81406952D01*
X70116000Y-81311714D01*
X70211238Y-81216476D01*
X70401714Y-81168857D01*
X70735047Y-81168857D01*
X70925523Y-81216476D01*
X71020761Y-81311714D01*
X71068380Y-81406952D01*
X71068380Y-81597428D01*
X71068380Y-80216476D02*
X71068380Y-80787904D01*
X71068380Y-80502190D02*
X70068380Y-80502190D01*
X70211238Y-80597428D01*
X70306476Y-80692666D01*
X70354095Y-80787904D01*
X73918380Y-116887523D02*
X74632666Y-116887523D01*
X74775523Y-116935142D01*
X74870761Y-117030380D01*
X74918380Y-117173238D01*
X74918380Y-117268476D01*
X74918380Y-115887523D02*
X74918380Y-116458952D01*
X74918380Y-116173238D02*
X73918380Y-116173238D01*
X74061238Y-116268476D01*
X74156476Y-116363714D01*
X74204095Y-116458952D01*
X74013619Y-115506571D02*
X73966000Y-115458952D01*
X73918380Y-115363714D01*
X73918380Y-115125619D01*
X73966000Y-115030380D01*
X74013619Y-114982761D01*
X74108857Y-114935142D01*
X74204095Y-114935142D01*
X74346952Y-114982761D01*
X74918380Y-115554190D01*
X74918380Y-114935142D01*
X58524380Y-106560857D02*
X58048190Y-106894190D01*
X58524380Y-107132285D02*
X57524380Y-107132285D01*
X57524380Y-106751333D01*
X57572000Y-106656095D01*
X57619619Y-106608476D01*
X57714857Y-106560857D01*
X57857714Y-106560857D01*
X57952952Y-106608476D01*
X58000571Y-106656095D01*
X58048190Y-106751333D01*
X58048190Y-107132285D01*
X58524380Y-105608476D02*
X58524380Y-106179904D01*
X58524380Y-105894190D02*
X57524380Y-105894190D01*
X57667238Y-105989428D01*
X57762476Y-106084666D01*
X57810095Y-106179904D01*
X57524380Y-105275142D02*
X57524380Y-104656095D01*
X57905333Y-104989428D01*
X57905333Y-104846571D01*
X57952952Y-104751333D01*
X58000571Y-104703714D01*
X58095809Y-104656095D01*
X58333904Y-104656095D01*
X58429142Y-104703714D01*
X58476761Y-104751333D01*
X58524380Y-104846571D01*
X58524380Y-105132285D01*
X58476761Y-105227523D01*
X58429142Y-105275142D01*
X102227142Y-105260380D02*
X101893809Y-104784190D01*
X101655714Y-105260380D02*
X101655714Y-104260380D01*
X102036666Y-104260380D01*
X102131904Y-104308000D01*
X102179523Y-104355619D01*
X102227142Y-104450857D01*
X102227142Y-104593714D01*
X102179523Y-104688952D01*
X102131904Y-104736571D01*
X102036666Y-104784190D01*
X101655714Y-104784190D01*
X103179523Y-105260380D02*
X102608095Y-105260380D01*
X102893809Y-105260380D02*
X102893809Y-104260380D01*
X102798571Y-104403238D01*
X102703333Y-104498476D01*
X102608095Y-104546095D01*
X103560476Y-104355619D02*
X103608095Y-104308000D01*
X103703333Y-104260380D01*
X103941428Y-104260380D01*
X104036666Y-104308000D01*
X104084285Y-104355619D01*
X104131904Y-104450857D01*
X104131904Y-104546095D01*
X104084285Y-104688952D01*
X103512857Y-105260380D01*
X104131904Y-105260380D01*
X69348142Y-87160380D02*
X69014809Y-86684190D01*
X68776714Y-87160380D02*
X68776714Y-86160380D01*
X69157666Y-86160380D01*
X69252904Y-86208000D01*
X69300523Y-86255619D01*
X69348142Y-86350857D01*
X69348142Y-86493714D01*
X69300523Y-86588952D01*
X69252904Y-86636571D01*
X69157666Y-86684190D01*
X68776714Y-86684190D01*
X70300523Y-87160380D02*
X69729095Y-87160380D01*
X70014809Y-87160380D02*
X70014809Y-86160380D01*
X69919571Y-86303238D01*
X69824333Y-86398476D01*
X69729095Y-86446095D01*
X70919571Y-86160380D02*
X71014809Y-86160380D01*
X71110047Y-86208000D01*
X71157666Y-86255619D01*
X71205285Y-86350857D01*
X71252904Y-86541333D01*
X71252904Y-86779428D01*
X71205285Y-86969904D01*
X71157666Y-87065142D01*
X71110047Y-87112761D01*
X71014809Y-87160380D01*
X70919571Y-87160380D01*
X70824333Y-87112761D01*
X70776714Y-87065142D01*
X70729095Y-86969904D01*
X70681476Y-86779428D01*
X70681476Y-86541333D01*
X70729095Y-86350857D01*
X70776714Y-86255619D01*
X70824333Y-86208000D01*
X70919571Y-86160380D01*
X105060761Y-97571619D02*
X104965523Y-97524000D01*
X104870285Y-97428761D01*
X104727428Y-97285904D01*
X104632190Y-97238285D01*
X104536952Y-97238285D01*
X104584571Y-97476380D02*
X104489333Y-97428761D01*
X104394095Y-97333523D01*
X104346476Y-97143047D01*
X104346476Y-96809714D01*
X104394095Y-96619238D01*
X104489333Y-96524000D01*
X104584571Y-96476380D01*
X104775047Y-96476380D01*
X104870285Y-96524000D01*
X104965523Y-96619238D01*
X105013142Y-96809714D01*
X105013142Y-97143047D01*
X104965523Y-97333523D01*
X104870285Y-97428761D01*
X104775047Y-97476380D01*
X104584571Y-97476380D01*
X105394095Y-96571619D02*
X105441714Y-96524000D01*
X105536952Y-96476380D01*
X105775047Y-96476380D01*
X105870285Y-96524000D01*
X105917904Y-96571619D01*
X105965523Y-96666857D01*
X105965523Y-96762095D01*
X105917904Y-96904952D01*
X105346476Y-97476380D01*
X105965523Y-97476380D01*
X98504476Y-107612380D02*
X98504476Y-108326666D01*
X98456857Y-108469523D01*
X98361619Y-108564761D01*
X98218761Y-108612380D01*
X98123523Y-108612380D01*
X99504476Y-108612380D02*
X98933047Y-108612380D01*
X99218761Y-108612380D02*
X99218761Y-107612380D01*
X99123523Y-107755238D01*
X99028285Y-107850476D01*
X98933047Y-107898095D01*
X100361619Y-107945714D02*
X100361619Y-108612380D01*
X100123523Y-107564761D02*
X99885428Y-108279047D01*
X100504476Y-108279047D01*
X90782380Y-106306857D02*
X90306190Y-106640190D01*
X90782380Y-106878285D02*
X89782380Y-106878285D01*
X89782380Y-106497333D01*
X89830000Y-106402095D01*
X89877619Y-106354476D01*
X89972857Y-106306857D01*
X90115714Y-106306857D01*
X90210952Y-106354476D01*
X90258571Y-106402095D01*
X90306190Y-106497333D01*
X90306190Y-106878285D01*
X90782380Y-105354476D02*
X90782380Y-105925904D01*
X90782380Y-105640190D02*
X89782380Y-105640190D01*
X89925238Y-105735428D01*
X90020476Y-105830666D01*
X90068095Y-105925904D01*
X90782380Y-104402095D02*
X90782380Y-104973523D01*
X90782380Y-104687809D02*
X89782380Y-104687809D01*
X89925238Y-104783047D01*
X90020476Y-104878285D01*
X90068095Y-104973523D01*
X70770761Y-109255619D02*
X70675523Y-109208000D01*
X70580285Y-109112761D01*
X70437428Y-108969904D01*
X70342190Y-108922285D01*
X70246952Y-108922285D01*
X70294571Y-109160380D02*
X70199333Y-109112761D01*
X70104095Y-109017523D01*
X70056476Y-108827047D01*
X70056476Y-108493714D01*
X70104095Y-108303238D01*
X70199333Y-108208000D01*
X70294571Y-108160380D01*
X70485047Y-108160380D01*
X70580285Y-108208000D01*
X70675523Y-108303238D01*
X70723142Y-108493714D01*
X70723142Y-108827047D01*
X70675523Y-109017523D01*
X70580285Y-109112761D01*
X70485047Y-109160380D01*
X70294571Y-109160380D01*
X71056476Y-108160380D02*
X71675523Y-108160380D01*
X71342190Y-108541333D01*
X71485047Y-108541333D01*
X71580285Y-108588952D01*
X71627904Y-108636571D01*
X71675523Y-108731809D01*
X71675523Y-108969904D01*
X71627904Y-109065142D01*
X71580285Y-109112761D01*
X71485047Y-109160380D01*
X71199333Y-109160380D01*
X71104095Y-109112761D01*
X71056476Y-109065142D01*
X78605142Y-85128380D02*
X78271809Y-84652190D01*
X78033714Y-85128380D02*
X78033714Y-84128380D01*
X78414666Y-84128380D01*
X78509904Y-84176000D01*
X78557523Y-84223619D01*
X78605142Y-84318857D01*
X78605142Y-84461714D01*
X78557523Y-84556952D01*
X78509904Y-84604571D01*
X78414666Y-84652190D01*
X78033714Y-84652190D01*
X79557523Y-85128380D02*
X78986095Y-85128380D01*
X79271809Y-85128380D02*
X79271809Y-84128380D01*
X79176571Y-84271238D01*
X79081333Y-84366476D01*
X78986095Y-84414095D01*
X80462285Y-84128380D02*
X79986095Y-84128380D01*
X79938476Y-84604571D01*
X79986095Y-84556952D01*
X80081333Y-84509333D01*
X80319428Y-84509333D01*
X80414666Y-84556952D01*
X80462285Y-84604571D01*
X80509904Y-84699809D01*
X80509904Y-84937904D01*
X80462285Y-85033142D01*
X80414666Y-85080761D01*
X80319428Y-85128380D01*
X80081333Y-85128380D01*
X79986095Y-85080761D01*
X79938476Y-85033142D01*
X100282476Y-75862380D02*
X100282476Y-76576666D01*
X100234857Y-76719523D01*
X100139619Y-76814761D01*
X99996761Y-76862380D01*
X99901523Y-76862380D01*
X101282476Y-76862380D02*
X100711047Y-76862380D01*
X100996761Y-76862380D02*
X100996761Y-75862380D01*
X100901523Y-76005238D01*
X100806285Y-76100476D01*
X100711047Y-76148095D01*
X101615809Y-75862380D02*
X102234857Y-75862380D01*
X101901523Y-76243333D01*
X102044380Y-76243333D01*
X102139619Y-76290952D01*
X102187238Y-76338571D01*
X102234857Y-76433809D01*
X102234857Y-76671904D01*
X102187238Y-76767142D01*
X102139619Y-76814761D01*
X102044380Y-76862380D01*
X101758666Y-76862380D01*
X101663428Y-76814761D01*
X101615809Y-76767142D01*
X86110380Y-116125523D02*
X86824666Y-116125523D01*
X86967523Y-116173142D01*
X87062761Y-116268380D01*
X87110380Y-116411238D01*
X87110380Y-116506476D01*
X87110380Y-115125523D02*
X87110380Y-115696952D01*
X87110380Y-115411238D02*
X86110380Y-115411238D01*
X86253238Y-115506476D01*
X86348476Y-115601714D01*
X86396095Y-115696952D01*
X86110380Y-114220761D02*
X86110380Y-114696952D01*
X86586571Y-114744571D01*
X86538952Y-114696952D01*
X86491333Y-114601714D01*
X86491333Y-114363619D01*
X86538952Y-114268380D01*
X86586571Y-114220761D01*
X86681809Y-114173142D01*
X86919904Y-114173142D01*
X87015142Y-114220761D01*
X87062761Y-114268380D01*
X87110380Y-114363619D01*
X87110380Y-114601714D01*
X87062761Y-114696952D01*
X87015142Y-114744571D01*
X79081333Y-86464380D02*
X78748000Y-85988190D01*
X78509904Y-86464380D02*
X78509904Y-85464380D01*
X78890857Y-85464380D01*
X78986095Y-85512000D01*
X79033714Y-85559619D01*
X79081333Y-85654857D01*
X79081333Y-85797714D01*
X79033714Y-85892952D01*
X78986095Y-85940571D01*
X78890857Y-85988190D01*
X78509904Y-85988190D01*
X79557523Y-86464380D02*
X79748000Y-86464380D01*
X79843238Y-86416761D01*
X79890857Y-86369142D01*
X79986095Y-86226285D01*
X80033714Y-86035809D01*
X80033714Y-85654857D01*
X79986095Y-85559619D01*
X79938476Y-85512000D01*
X79843238Y-85464380D01*
X79652761Y-85464380D01*
X79557523Y-85512000D01*
X79509904Y-85559619D01*
X79462285Y-85654857D01*
X79462285Y-85892952D01*
X79509904Y-85988190D01*
X79557523Y-86035809D01*
X79652761Y-86083428D01*
X79843238Y-86083428D01*
X79938476Y-86035809D01*
X79986095Y-85988190D01*
X80033714Y-85892952D01*
X82962761Y-108239619D02*
X82867523Y-108192000D01*
X82772285Y-108096761D01*
X82629428Y-107953904D01*
X82534190Y-107906285D01*
X82438952Y-107906285D01*
X82486571Y-108144380D02*
X82391333Y-108096761D01*
X82296095Y-108001523D01*
X82248476Y-107811047D01*
X82248476Y-107477714D01*
X82296095Y-107287238D01*
X82391333Y-107192000D01*
X82486571Y-107144380D01*
X82677047Y-107144380D01*
X82772285Y-107192000D01*
X82867523Y-107287238D01*
X82915142Y-107477714D01*
X82915142Y-107811047D01*
X82867523Y-108001523D01*
X82772285Y-108096761D01*
X82677047Y-108144380D01*
X82486571Y-108144380D01*
X83772285Y-107144380D02*
X83581809Y-107144380D01*
X83486571Y-107192000D01*
X83438952Y-107239619D01*
X83343714Y-107382476D01*
X83296095Y-107572952D01*
X83296095Y-107953904D01*
X83343714Y-108049142D01*
X83391333Y-108096761D01*
X83486571Y-108144380D01*
X83677047Y-108144380D01*
X83772285Y-108096761D01*
X83819904Y-108049142D01*
X83867523Y-107953904D01*
X83867523Y-107715809D01*
X83819904Y-107620571D01*
X83772285Y-107572952D01*
X83677047Y-107525333D01*
X83486571Y-107525333D01*
X83391333Y-107572952D01*
X83343714Y-107620571D01*
X83296095Y-107715809D01*
X104806761Y-115105619D02*
X104711523Y-115058000D01*
X104616285Y-114962761D01*
X104473428Y-114819904D01*
X104378190Y-114772285D01*
X104282952Y-114772285D01*
X104330571Y-115010380D02*
X104235333Y-114962761D01*
X104140095Y-114867523D01*
X104092476Y-114677047D01*
X104092476Y-114343714D01*
X104140095Y-114153238D01*
X104235333Y-114058000D01*
X104330571Y-114010380D01*
X104521047Y-114010380D01*
X104616285Y-114058000D01*
X104711523Y-114153238D01*
X104759142Y-114343714D01*
X104759142Y-114677047D01*
X104711523Y-114867523D01*
X104616285Y-114962761D01*
X104521047Y-115010380D01*
X104330571Y-115010380D01*
X105663904Y-114010380D02*
X105187714Y-114010380D01*
X105140095Y-114486571D01*
X105187714Y-114438952D01*
X105282952Y-114391333D01*
X105521047Y-114391333D01*
X105616285Y-114438952D01*
X105663904Y-114486571D01*
X105711523Y-114581809D01*
X105711523Y-114819904D01*
X105663904Y-114915142D01*
X105616285Y-114962761D01*
X105521047Y-115010380D01*
X105282952Y-115010380D01*
X105187714Y-114962761D01*
X105140095Y-114915142D01*
X67937142Y-120754380D02*
X67603809Y-120278190D01*
X67365714Y-120754380D02*
X67365714Y-119754380D01*
X67746666Y-119754380D01*
X67841904Y-119802000D01*
X67889523Y-119849619D01*
X67937142Y-119944857D01*
X67937142Y-120087714D01*
X67889523Y-120182952D01*
X67841904Y-120230571D01*
X67746666Y-120278190D01*
X67365714Y-120278190D01*
X68889523Y-120754380D02*
X68318095Y-120754380D01*
X68603809Y-120754380D02*
X68603809Y-119754380D01*
X68508571Y-119897238D01*
X68413333Y-119992476D01*
X68318095Y-120040095D01*
X69746666Y-120087714D02*
X69746666Y-120754380D01*
X69508571Y-119706761D02*
X69270476Y-120421047D01*
X69889523Y-120421047D01*
X105191619Y-80105238D02*
X105144000Y-80200476D01*
X105048761Y-80295714D01*
X104905904Y-80438571D01*
X104858285Y-80533809D01*
X104858285Y-80629047D01*
X105096380Y-80581428D02*
X105048761Y-80676666D01*
X104953523Y-80771904D01*
X104763047Y-80819523D01*
X104429714Y-80819523D01*
X104239238Y-80771904D01*
X104144000Y-80676666D01*
X104096380Y-80581428D01*
X104096380Y-80390952D01*
X104144000Y-80295714D01*
X104239238Y-80200476D01*
X104429714Y-80152857D01*
X104763047Y-80152857D01*
X104953523Y-80200476D01*
X105048761Y-80295714D01*
X105096380Y-80390952D01*
X105096380Y-80581428D01*
X104429714Y-79295714D02*
X105096380Y-79295714D01*
X104048761Y-79533809D02*
X104763047Y-79771904D01*
X104763047Y-79152857D01*
X108918476Y-97706380D02*
X108918476Y-98420666D01*
X108870857Y-98563523D01*
X108775619Y-98658761D01*
X108632761Y-98706380D01*
X108537523Y-98706380D01*
X109918476Y-98706380D02*
X109347047Y-98706380D01*
X109632761Y-98706380D02*
X109632761Y-97706380D01*
X109537523Y-97849238D01*
X109442285Y-97944476D01*
X109347047Y-97992095D01*
X110870857Y-98706380D02*
X110299428Y-98706380D01*
X110585142Y-98706380D02*
X110585142Y-97706380D01*
X110489904Y-97849238D01*
X110394666Y-97944476D01*
X110299428Y-97992095D01*
M02*
